{
    "minecraft:wheat": 
    {
    "cropName": "minecraft:wheat",
    "seedName": "minecraft:wheat_seeds",
    "maxGrowth": 7
    },
    "minecraft:carrots": 
    {
    "cropName": "minecraft:carrots",
    "seedName": "minecraft:carrot",
    "maxGrowth": 7
    },
    "minecraft:potatoes": 
    {
    "cropName": "minecraft:potatoes",
    "seedName": "minecraft:potatoes",
    "maxGrowth": 7
    },
    "minecraft:melon":
    {
    "cropName": "minecraft:melon",
    "seedName": "minecraft:melon_seeds"
    },
    "minecraft:pumpkin":
    {
    "cropName": "minecraft:pumpkin",
    "seedName": "minecraft:pumpkin_seeds"
    }
}