{
    "version": 1,
    "programs": [
        {
            "programName": "EarlyGameMiner",
            "files": [
                {
                    "addToStartupScript": true,
                    "projectID": 23712047,
                    "remotePath": "EarlyGame/DrillMaster.lua",
                    "localPath": "DrillMaster.lua"
                },
                {
                    "addToStartupScript": true,
                    "projectID": 23712047,
                    "remotePath": "EarlyGame/EarlyGameDrillerSlave.lua",
                    "localPath": "EarlyGameDrillerSlave.lua"
                }
            ]
        },
        {
            "programName": "GpsSatelitePlacement",
            "files": [
                {
                    "addToStartupScript": false,
                    "projectID": 23712047,
                    "remotePath": "UtilityPrograms/GpsSatelitePlacement.lua",
                    "localPath": "GpsSatelitePlacement.lua"
                }
            ]
        },
        {
            "programName": "AEStockKeeper",
            "files": [
                {
                    "addToStartupScript": true,
                    "projectID": 23712047,
                    "remotePath": "Logistics/AEstockKeeper.lua",
                    "localPath": "AEStockKeeper.lua"
                }
            ]
        },
        {
            "programName": "ComputerizedLogistics",
            "files": [
                {
                    "addToStartupScript": true,
                    "projectID": 23712047,
                    "remotePath": "ComputerizedLogistics/CLTerminal.lua",
                    "localPath": "CLTerminal.lua"
                },
                {
                    "addToStartupScript": true,
                    "projectID": 23712047,
                    "remotePath": "ComputerizedLogistics/CLStorage.lua",
                    "localPath": "CLStorage.lua"
                },
                {
                    "addToStartupScript": true,
                    "projectID": 23712047,
                    "remotePath": "ComputerizedLogistics/CLInterface.lua",
                    "localPath": "CLInterface.lua"
                },
                {
                    "addToStartupScript": true,
                    "projectID": 23712047,
                    "remotePath": "ComputerizedLogistics/CLCrafting.lua",
                    "localPath": "CLCrafting.lua"
                },
                {
                    "addToStartupScript": true,
                    "projectID": 23712047,
                    "remotePath": "ComputerizedLogistics/CLCraftingTurtle.lua",
                    "localPath": "CLCraftingTurtle.lua"
                },
                {
                    "addToStartupScript": true,
                    "projectID": 23712047,
                    "remotePath": "ComputerizedLogistics/CLSorter.lua",
                    "localPath": "CLSorter.lua"
                },
                {
                    "addToStartupScript": true,
                    "projectID": 23712047,
                    "remotePath": "ComputerizedLogistics/CLStocker.lua",
                    "localPath": "CLStocker.lua"
                }
            ]
        },
        {
            "programName": "SimpleLogistics",
            "files": [
                {
                    "addToStartupScript": true,
                    "projectID": 23712047,
                    "remotePath": "Logistics/MachineInterface.lua",
                    "localPath": "MachineInterface.lua"
                },
                {
                    "addToStartupScript": true,
                    "projectID": 23712047,
                    "remotePath": "Logistics/EnergizingOrb.lua",
                    "localPath": "EnergizingOrb.lua"
                },
                {
                    "addToStartupScript": true,
                    "projectID": 23712047,
                    "remotePath": "Logistics/Energymonitor.lua",
                    "localPath": "EnergyMonitor.lua"
                },
                {
                    "addToStartupScript": true,
                    "projectID": 23712047,
                    "remotePath": "Logistics/RecipeCreator.lua",
                    "localPath": "RecipeCreator.lua"
                },
                {
                    "addToStartupScript": true,
                    "projectID": 23712047,
                    "remotePath": "Logistics/SimpleCrafter.lua",
                    "localPath": "SimpleCrafter.lua"
                }
            ]
        },
        {
            "programName": "Farming programs",
            "files": [
                {
                    "addToStartupScript": true,
                    "projectID": 23712047,
                    "remotePath": "farming/cropfarm.lua",
                    "localPath": "cropfarm.lua"
                },
                {
                    "addToStartupScript": true,
                    "projectID": 23712047,
                    "remotePath": "farming/treefarm.lua",
                    "localPath": "treefarm.lua"
                },
                {
                    "addToStartupScript": true,
                    "projectID": 23712047,
                    "remotePath": "farming/treefarmBuilder.lua",
                    "localPath": "treefarmBuilder.lua"
                }
            ]
        },
        {
            "programName": "Scrollable terminal",
            "files": [
                {
                    "addToStartupScript": false,
                    "projectID": 23712047,
                    "remotePath": "UtilityPrograms/Scrollable.lua",
                    "localPath": "Scrollable.lua"
                }
            ]
        }
    ]
}