{
    "forge:glass_panes" :
    [
        "minecraft:glass_pane"
    ],
    "forge:stone" :
    [
        "minecraft:stone"
    ],
    "minecraft:logs" :
    [
        "minecraft:oak_log",
        "minecraft:spruce_log"
    ],
    "minecraft:planks":
    [
        "minecraft:oak_planks"
    ],
    "forge:chests/wooden":
    [
        "minecraft:chest"
    ],
    "forge:glass":
    [
        "minecraft:glass"
    ]
}