{
    "bigreactors:cyanite_block": [
        {
            "ingredients": [
                {
                    "item": "bigreactors:cyanite_ingot"
                },
                {
                    "item": "bigreactors:cyanite_ingot"
                },
                {
                    "item": "bigreactors:cyanite_ingot"
                },
                {
                    "item": "bigreactors:cyanite_ingot"
                },
                {
                    "item": "bigreactors:cyanite_ingot"
                },
                {
                    "item": "bigreactors:cyanite_ingot"
                },
                {
                    "item": "bigreactors:cyanite_ingot"
                },
                {
                    "item": "bigreactors:cyanite_ingot"
                },
                {
                    "item": "bigreactors:cyanite_ingot"
                }
            ]
        }
    ],
    "bigreactors:graphite_block": [
        {
            "ingredients": [
                {
                    "item": "bigreactors:graphite_ingot"
                },
                {
                    "item": "bigreactors:graphite_ingot"
                },
                {
                    "item": "bigreactors:graphite_ingot"
                },
                {
                    "item": "bigreactors:graphite_ingot"
                },
                {
                    "item": "bigreactors:graphite_ingot"
                },
                {
                    "item": "bigreactors:graphite_ingot"
                },
                {
                    "item": "bigreactors:graphite_ingot"
                },
                {
                    "item": "bigreactors:graphite_ingot"
                },
                {
                    "item": "bigreactors:graphite_ingot"
                }
            ]
        }
    ],
    "bigreactors:yellorium_block": [
        {
            "ingredients": [
                {
                    "item": "bigreactors:yellorium_ingot"
                },
                {
                    "item": "bigreactors:yellorium_ingot"
                },
                {
                    "item": "bigreactors:yellorium_ingot"
                },
                {
                    "item": "bigreactors:yellorium_ingot"
                },
                {
                    "item": "bigreactors:yellorium_ingot"
                },
                {
                    "item": "bigreactors:yellorium_ingot"
                },
                {
                    "item": "bigreactors:yellorium_ingot"
                },
                {
                    "item": "bigreactors:yellorium_ingot"
                },
                {
                    "item": "bigreactors:yellorium_ingot"
                }
            ]
        }
    ]
}