{
    "buildinggadgets:construction_paste_container_t1": [
        {
            "key": {
                "i": {
                    "tag": "forge:ingots/iron"
                },
                "r": {
                    "item": "buildinggadgets:construction_paste"
                }
            },
            "pattern": [
                "iii",
                "iri",
                "iii"
            ]
        }
    ],
    "buildinggadgets:construction_block_powder": [
        {
            "ingredients": [
                {
                    "item": "minecraft:sand"
                },
                {
                    "tag": "forge:gems/lapis"
                },
                {
                    "item": "minecraft:clay_ball"
                }
            ]
        }
    ],
    "buildinggadgets:gadget_building": [
        {
            "key": {
                "i": {
                    "tag": "forge:ingots/iron"
                },
                "r": {
                    "tag": "forge:dusts/redstone"
                },
                "l": {
                    "tag": "forge:gems/lapis"
                },
                "d": {
                    "tag": "forge:gems/diamond"
                }
            },
            "pattern": [
                "iri",
                "drd",
                "ili"
            ]
        }
    ],
    "buildinggadgets:gadget_copy_paste": [
        {
            "key": {
                "i": {
                    "tag": "forge:ingots/iron"
                },
                "r": {
                    "tag": "forge:dusts/redstone"
                },
                "l": {
                    "tag": "forge:gems/lapis"
                },
                "e": {
                    "tag": "forge:gems/emerald"
                }
            },
            "pattern": [
                "iri",
                "ere",
                "ili"
            ]
        }
    ],
    "buildinggadgets:gadget_destruction": [
        {
            "key": {
                "i": {
                    "tag": "forge:ingots/iron"
                },
                "r": {
                    "tag": "forge:dusts/redstone"
                },
                "l": {
                    "tag": "forge:gems/lapis"
                },
                "e": {
                    "item": "minecraft:ender_pearl"
                }
            },
            "pattern": [
                "iri",
                "ere",
                "ili"
            ]
        }
    ],
    "buildinggadgets:gadget_exchanging": [
        {
            "key": {
                "i": {
                    "tag": "forge:ingots/iron"
                },
                "r": {
                    "tag": "forge:dusts/redstone"
                },
                "l": {
                    "tag": "forge:gems/lapis"
                },
                "d": {
                    "tag": "forge:gems/diamond"
                }
            },
            "pattern": [
                "iri",
                "dld",
                "ili"
            ]
        }
    ],
    "buildinggadgets:template_manager": [
        {
            "key": {
                "i": {
                    "tag": "forge:ingots/gold"
                },
                "r": {
                    "tag": "forge:dusts/redstone"
                },
                "l": {
                    "tag": "forge:gems/lapis"
                },
                "e": {
                    "tag": "forge:gems/emerald"
                }
            },
            "pattern": [
                "iri",
                "ere",
                "ili"
            ]
        }
    ]
}