{
    "computercraft:cable": [
        {
            "key": {
                "#": {
                    "tag": "forge:stone"
                },
                "R": {
                    "tag": "forge:dusts/redstone"
                }
            },
            "pattern": [
                " # ",
                "#R#",
                " # "
            ],
            "count": 6
        }
    ],
    "computercraft:computer_advanced": [
        {
            "key": {
                "#": {
                    "tag": "forge:ingots/gold"
                },
                "R": {
                    "tag": "forge:dusts/redstone"
                },
                "G": {
                    "tag": "forge:glass_panes"
                }
            },
            "pattern": [
                "###",
                "#R#",
                "#G#"
            ]
        }
    ],
    "computercraft:computer_command": [
        {
            "key": {
                "#": {
                    "tag": "forge:ingots/gold"
                },
                "R": {
                    "item": "minecraft:command_block"
                },
                "G": {
                    "tag": "forge:glass_panes"
                }
            },
            "pattern": [
                "###",
                "#R#",
                "#G#"
            ]
        }
    ],
    "computercraft:computer_normal": [
        {
            "key": {
                "#": {
                    "tag": "forge:stone"
                },
                "R": {
                    "tag": "forge:dusts/redstone"
                },
                "G": {
                    "tag": "forge:glass_panes"
                }
            },
            "pattern": [
                "###",
                "#R#",
                "#G#"
            ]
        }
    ],
    "computercraft:disk_drive": [
        {
            "key": {
                "#": {
                    "tag": "forge:stone"
                },
                "R": {
                    "tag": "forge:dusts/redstone"
                }
            },
            "pattern": [
                "###",
                "#R#",
                "#R#"
            ]
        }
    ],
    "computercraft:monitor_advanced": [
        {
            "key": {
                "#": {
                    "tag": "forge:ingots/gold"
                },
                "G": {
                    "tag": "forge:glass_panes"
                }
            },
            "pattern": [
                "###",
                "#G#",
                "###"
            ],
            "count": 4
        }
    ],
    "computercraft:monitor_normal": [
        {
            "key": {
                "#": {
                    "tag": "forge:stone"
                },
                "G": {
                    "tag": "forge:glass_panes"
                }
            },
            "pattern": [
                "###",
                "#G#",
                "###"
            ]
        }
    ],
    "computercraft:pocket_computer_advanced": [
        {
            "key": {
                "#": {
                    "tag": "forge:ingots/gold"
                },
                "A": {
                    "item": "minecraft:golden_apple"
                },
                "G": {
                    "tag": "forge:glass_panes"
                }
            },
            "pattern": [
                "###",
                "#A#",
                "#G#"
            ]
        }
    ],
    "computercraft:pocket_computer_normal": [
        {
            "key": {
                "#": {
                    "tag": "forge:stone"
                },
                "A": {
                    "item": "minecraft:golden_apple"
                },
                "G": {
                    "tag": "forge:glass_panes"
                }
            },
            "pattern": [
                "###",
                "#A#",
                "#G#"
            ]
        }
    ],
    "computercraft:printer": [
        {
            "key": {
                "#": {
                    "tag": "forge:stone"
                },
                "R": {
                    "tag": "forge:dusts/redstone"
                },
                "D": {
                    "tag": "forge:dyes"
                }
            },
            "pattern": [
                "###",
                "#R#",
                "#D#"
            ]
        }
    ],
    "computercraft:speaker": [
        {
            "key": {
                "#": {
                    "tag": "forge:stone"
                },
                "N": {
                    "item": "minecraft:note_block"
                },
                "R": {
                    "tag": "forge:dusts/redstone"
                }
            },
            "pattern": [
                "###",
                "#N#",
                "#R#"
            ]
        }
    ],
    "computercraft:wired_modem": [
        {
            "key": {
                "#": {
                    "tag": "forge:stone"
                },
                "R": {
                    "tag": "forge:dusts/redstone"
                }
            },
            "pattern": [
                "###",
                "#R#",
                "###"
            ]
        },
        {
            "ingredients": [
                {
                    "item": "computercraft:wired_modem_full"
                }
            ]
        }
    ],
    "computercraft:wired_modem_full": [
        {
            "ingredients": [
                {
                    "item": "computercraft:wired_modem"
                }
            ]
        }
    ],
    "computercraft:wireless_modem_advanced": [
        {
            "key": {
                "#": {
                    "tag": "forge:ingots/gold"
                },
                "E": {
                    "item": "minecraft:ender_eye"
                }
            },
            "pattern": [
                "###",
                "#E#",
                "###"
            ]
        }
    ],
    "computercraft:wireless_modem_normal": [
        {
            "key": {
                "#": {
                    "tag": "forge:stone"
                },
                "E": {
                    "tag": "forge:ender_pearls"
                }
            },
            "pattern": [
                "###",
                "#E#",
                "###"
            ]
        }
    ]
}