{
    "cookingforblockheads:black_kitchen_floor": [
        {
            "key": {
                "F": {
                    "item": "cookingforblockheads:white_kitchen_floor"
                },
                "D": {
                    "tag": "forge:dyes/black"
                }
            },
            "pattern": [
                "FFF",
                "FDF",
                "FFF"
            ],
            "count": 8
        }
    ],
    "cookingforblockheads:blue_kitchen_floor": [
        {
            "key": {
                "F": {
                    "item": "cookingforblockheads:white_kitchen_floor"
                },
                "D": {
                    "tag": "forge:dyes/blue"
                }
            },
            "pattern": [
                "FFF",
                "FDF",
                "FFF"
            ],
            "count": 8
        }
    ],
    "cookingforblockheads:brown_kitchen_floor": [
        {
            "key": {
                "F": {
                    "item": "cookingforblockheads:white_kitchen_floor"
                },
                "D": {
                    "tag": "forge:dyes/brown"
                }
            },
            "pattern": [
                "FFF",
                "FDF",
                "FFF"
            ],
            "count": 8
        }
    ],
    "cookingforblockheads:cooking_table": [
        {
            "key": {
                "S": {
                    "tag": "forge:stone"
                },
                "C": {
                    "item": "minecraft:terracotta"
                },
                "B": {
                    "item": "cookingforblockheads:crafting_book"
                }
            },
            "pattern": [
                "SSS",
                "CBC",
                "CCC"
            ]
        }
    ],
    "cookingforblockheads:crafting_book": [
        {
            "key": {
                "C": {
                    "item": "minecraft:crafting_table"
                },
                "D": {
                    "tag": "forge:gems/diamond"
                },
                "B": {
                    "item": "cookingforblockheads:recipe_book"
                }
            },
            "pattern": [
                " D ",
                "CBC",
                " D "
            ]
        }
    ],
    "cookingforblockheads:cyan_kitchen_floor": [
        {
            "key": {
                "F": {
                    "item": "cookingforblockheads:white_kitchen_floor"
                },
                "D": {
                    "tag": "forge:dyes/cyan"
                }
            },
            "pattern": [
                "FFF",
                "FDF",
                "FFF"
            ],
            "count": 8
        }
    ],
    "cookingforblockheads:fridge": [
        {
            "ingredients": [
                {
                    "tag": "forge:chests/wooden"
                },
                {
                    "item": "minecraft:iron_door"
                }
            ]
        }
    ],
    "cookingforblockheads:fruit_basket": [
        {
            "key": {
                "S": {
                    "tag": "wooden_slabs"
                },
                "P": {
                    "tag": "minecraft:wooden_pressure_plates"
                }
            },
            "pattern": [
                "SPS"
            ]
        }
    ],
    "cookingforblockheads:gray_kitchen_floor": [
        {
            "key": {
                "F": {
                    "item": "cookingforblockheads:white_kitchen_floor"
                },
                "D": {
                    "tag": "forge:dyes/gray"
                }
            },
            "pattern": [
                "FFF",
                "FDF",
                "FFF"
            ],
            "count": 8
        }
    ],
    "cookingforblockheads:green_kitchen_floor": [
        {
            "key": {
                "F": {
                    "item": "cookingforblockheads:white_kitchen_floor"
                },
                "D": {
                    "tag": "forge:dyes/green"
                }
            },
            "pattern": [
                "FFF",
                "FDF",
                "FFF"
            ],
            "count": 8
        }
    ],
    "cookingforblockheads:hanging_corner": [
        {
            "key": {
                "C": {
                    "item": "minecraft:terracotta"
                }
            },
            "pattern": [
                "CCC",
                "C C"
            ]
        }
    ],
    "cookingforblockheads:heating_unit": [
        {
            "key": {
                "N": {
                    "tag": "forge:nuggets/iron"
                },
                "I": {
                    "tag": "forge:ingots/iron"
                },
                "C": {
                    "item": "minecraft:comparator"
                }
            },
            "pattern": [
                "NNN",
                "ICI"
            ]
        }
    ],
    "cookingforblockheads:ice_unit": [
        {
            "key": {
                "S": {
                    "item": "minecraft:snowball"
                },
                "I": {
                    "tag": "forge:ingots/iron"
                },
                "C": {
                    "item": "minecraft:comparator"
                }
            },
            "pattern": [
                "SSS",
                "ICI"
            ]
        }
    ],
    "cookingforblockheads:cabinet": [
        {
            "key": {
                "C": {
                    "item": "minecraft:terracotta"
                },
                "B": {
                    "tag": "forge:chests/wooden"
                }
            },
            "pattern": [
                "CCC",
                "CBC"
            ]
        }
    ],
    "cookingforblockheads:corner": [
        {
            "key": {
                "S": {
                    "tag": "forge:stone"
                },
                "C": {
                    "item": "minecraft:terracotta"
                }
            },
            "pattern": [
                "SSS",
                "CCC",
                "CCC"
            ]
        }
    ],
    "cookingforblockheads:counter": [
        {
            "key": {
                "S": {
                    "tag": "forge:stone"
                },
                "C": {
                    "item": "minecraft:terracotta"
                },
                "B": {
                    "tag": "forge:chests/wooden"
                }
            },
            "pattern": [
                "SSS",
                "CBC",
                "CCC"
            ]
        }
    ],
    "cookingforblockheads:white_kitchen_floor": [
        {
            "key": {
                "B": {
                    "item": "minecraft:coal_block"
                },
                "W": {
                    "item": "minecraft:quartz_block"
                }
            },
            "pattern": [
                "BW",
                "WB"
            ],
            "count": 12
        },
        {
            "key": {
                "B": {
                    "item": "minecraft:white_concrete"
                },
                "W": {
                    "item": "minecraft:black_concrete"
                }
            },
            "pattern": [
                "BW",
                "WB"
            ],
            "count": 4
        }
    ],
    "cookingforblockheads:light_blue_kitchen_floor": [
        {
            "key": {
                "F": {
                    "item": "cookingforblockheads:white_kitchen_floor"
                },
                "D": {
                    "tag": "forge:dyes/light_blue"
                }
            },
            "pattern": [
                "FFF",
                "FDF",
                "FFF"
            ],
            "count": 8
        }
    ],
    "cookingforblockheads:light_gray_kitchen_floor": [
        {
            "key": {
                "F": {
                    "item": "cookingforblockheads:white_kitchen_floor"
                },
                "D": {
                    "tag": "forge:dyes/light_gray"
                }
            },
            "pattern": [
                "FFF",
                "FDF",
                "FFF"
            ],
            "count": 8
        }
    ],
    "cookingforblockheads:lime_kitchen_floor": [
        {
            "key": {
                "F": {
                    "item": "cookingforblockheads:white_kitchen_floor"
                },
                "D": {
                    "tag": "forge:dyes/lime"
                }
            },
            "pattern": [
                "FFF",
                "FDF",
                "FFF"
            ],
            "count": 8
        }
    ],
    "cookingforblockheads:magenta_kitchen_floor": [
        {
            "key": {
                "F": {
                    "item": "cookingforblockheads:white_kitchen_floor"
                },
                "D": {
                    "tag": "forge:dyes/magenta"
                }
            },
            "pattern": [
                "FFF",
                "FDF",
                "FFF"
            ],
            "count": 8
        }
    ],
    "cookingforblockheads:milk_jar": [
        {
            "key": {
                "G": {
                    "item": "minecraft:glass"
                },
                "P": {
                    "tag": "planks"
                },
                "M": {
                    "item": "minecraft:milk_bucket"
                }
            },
            "pattern": [
                "GPG",
                "GMG",
                "GGG"
            ]
        }
    ],
    "cookingforblockheads:no_filter_edition": [
        {
            "ingredients": [
                {
                    "item": "cookingforblockheads:crafting_book"
                }
            ]
        }
    ],
    "cookingforblockheads:orange_kitchen_floor": [
        {
            "key": {
                "F": {
                    "item": "cookingforblockheads:white_kitchen_floor"
                },
                "D": {
                    "tag": "forge:dyes/orange"
                }
            },
            "pattern": [
                "FFF",
                "FDF",
                "FFF"
            ],
            "count": 8
        }
    ],
    "cookingforblockheads:oven": [
        {
            "key": {
                "I": {
                    "tag": "forge:ingots/iron"
                },
                "G": {
                    "item": "minecraft:black_stained_glass"
                },
                "F": {
                    "item": "minecraft:furnace"
                }
            },
            "pattern": [
                "GGG",
                "IFI",
                "III"
            ]
        }
    ],
    "cookingforblockheads:pink_kitchen_floor": [
        {
            "key": {
                "F": {
                    "item": "cookingforblockheads:white_kitchen_floor"
                },
                "D": {
                    "tag": "forge:dyes/pink"
                }
            },
            "pattern": [
                "FFF",
                "FDF",
                "FFF"
            ],
            "count": 8
        }
    ],
    "cookingforblockheads:preservation_chamber": [
        {
            "key": {
                "R": {
                    "item": "minecraft:redstone"
                },
                "I": {
                    "tag": "forge:ingots/iron"
                },
                "C": {
                    "item": "minecraft:comparator"
                }
            },
            "pattern": [
                "RRR",
                "ICI"
            ]
        }
    ],
    "cookingforblockheads:purple_kitchen_floor": [
        {
            "key": {
                "F": {
                    "item": "cookingforblockheads:white_kitchen_floor"
                },
                "D": {
                    "tag": "forge:dyes/purple"
                }
            },
            "pattern": [
                "FFF",
                "FDF",
                "FFF"
            ],
            "count": 8
        }
    ],
    "cookingforblockheads:red_kitchen_floor": [
        {
            "key": {
                "F": {
                    "item": "cookingforblockheads:white_kitchen_floor"
                },
                "D": {
                    "tag": "forge:dyes/red"
                }
            },
            "pattern": [
                "FFF",
                "FDF",
                "FFF"
            ],
            "count": 8
        }
    ],
    "cookingforblockheads:sink": [
        {
            "key": {
                "I": {
                    "tag": "forge:ingots/iron"
                },
                "C": {
                    "item": "minecraft:terracotta"
                },
                "B": {
                    "item": "minecraft:water_bucket"
                }
            },
            "pattern": [
                "III",
                "CBC",
                "CCC"
            ]
        }
    ],
    "cookingforblockheads:spice_rack": [
        {
            "ingredients": [
                {
                    "tag": "minecraft:wooden_slabs"
                }
            ]
        }
    ],
    "cookingforblockheads:toaster": [
        {
            "key": {
                "I": {
                    "tag": "forge:ingots/iron"
                },
                "B": {
                    "item": "minecraft:stone_button"
                },
                "D": {
                    "item": "minecraft:iron_trapdoor"
                },
                "L": {
                    "item": "minecraft:lava_bucket"
                }
            },
            "pattern": [
                "  B",
                "IDI",
                "ILI"
            ]
        }
    ],
    "cookingforblockheads:tool_rack": [
        {
            "key": {
                "S": {
                    "tag": "minecraft:wooden_slabs"
                },
                "I": {
                    "tag": "forge:nuggets/iron"
                }
            },
            "pattern": [
                "SSS",
                "I I"
            ]
        }
    ],
    "cookingforblockheads:yellow_kitchen_floor": [
        {
            "key": {
                "F": {
                    "item": "cookingforblockheads:white_kitchen_floor"
                },
                "D": {
                    "tag": "forge:dyes/yellow"
                }
            },
            "pattern": [
                "FFF",
                "FDF",
                "FFF"
            ],
            "count": 8
        }
    ]
}