{
    "culinaryconstruct:culinary_station": [
        {
            "key": {
                "s": {
                    "tag": "minecraft:slabs"
                },
                "w": {
                    "item": "minecraft:crafting_table"
                }
            },
            "pattern": [
                "s",
                "w"
            ]
        }
    ]
}