{
    "elevatorid:elevator_black": [
        {
            "key": {
                "W": {
                    "item": "minecraft:black_wool"
                },
                "E": {
                    "item": "minecraft:ender_pearl"
                }
            },
            "pattern": [
                "WWW",
                "WEW",
                "WWW"
            ]
        },
        {
            "ingredients": [
                {
                    "tag": "elevatorid:elevators"
                },
                {
                    "tag": "forge:dyes/black"
                }
            ]
        }
    ],
    "elevatorid:elevator_blue": [
        {
            "key": {
                "W": {
                    "item": "minecraft:blue_wool"
                },
                "E": {
                    "item": "minecraft:ender_pearl"
                }
            },
            "pattern": [
                "WWW",
                "WEW",
                "WWW"
            ]
        },
        {
            "ingredients": [
                {
                    "tag": "elevatorid:elevators"
                },
                {
                    "tag": "forge:dyes/blue"
                }
            ]
        }
    ],
    "elevatorid:elevator_brown": [
        {
            "key": {
                "W": {
                    "item": "minecraft:brown_wool"
                },
                "E": {
                    "item": "minecraft:ender_pearl"
                }
            },
            "pattern": [
                "WWW",
                "WEW",
                "WWW"
            ]
        },
        {
            "ingredients": [
                {
                    "tag": "elevatorid:elevators"
                },
                {
                    "tag": "forge:dyes/brown"
                }
            ]
        }
    ],
    "elevatorid:elevator_cyan": [
        {
            "key": {
                "W": {
                    "item": "minecraft:cyan_wool"
                },
                "E": {
                    "item": "minecraft:ender_pearl"
                }
            },
            "pattern": [
                "WWW",
                "WEW",
                "WWW"
            ]
        },
        {
            "ingredients": [
                {
                    "tag": "elevatorid:elevators"
                },
                {
                    "tag": "forge:dyes/cyan"
                }
            ]
        }
    ],
    "elevatorid:elevator_gray": [
        {
            "key": {
                "W": {
                    "item": "minecraft:gray_wool"
                },
                "E": {
                    "item": "minecraft:ender_pearl"
                }
            },
            "pattern": [
                "WWW",
                "WEW",
                "WWW"
            ]
        },
        {
            "ingredients": [
                {
                    "tag": "elevatorid:elevators"
                },
                {
                    "tag": "forge:dyes/gray"
                }
            ]
        }
    ],
    "elevatorid:elevator_green": [
        {
            "key": {
                "W": {
                    "item": "minecraft:green_wool"
                },
                "E": {
                    "item": "minecraft:ender_pearl"
                }
            },
            "pattern": [
                "WWW",
                "WEW",
                "WWW"
            ]
        },
        {
            "ingredients": [
                {
                    "tag": "elevatorid:elevators"
                },
                {
                    "tag": "forge:dyes/green"
                }
            ]
        }
    ],
    "elevatorid:elevator_light_blue": [
        {
            "key": {
                "W": {
                    "item": "minecraft:light_blue_wool"
                },
                "E": {
                    "item": "minecraft:ender_pearl"
                }
            },
            "pattern": [
                "WWW",
                "WEW",
                "WWW"
            ]
        },
        {
            "ingredients": [
                {
                    "tag": "elevatorid:elevators"
                },
                {
                    "tag": "forge:dyes/light_blue"
                }
            ]
        }
    ],
    "elevatorid:elevator_light_gray": [
        {
            "key": {
                "W": {
                    "item": "minecraft:light_gray_wool"
                },
                "E": {
                    "item": "minecraft:ender_pearl"
                }
            },
            "pattern": [
                "WWW",
                "WEW",
                "WWW"
            ]
        },
        {
            "ingredients": [
                {
                    "tag": "elevatorid:elevators"
                },
                {
                    "tag": "forge:dyes/light_gray"
                }
            ]
        }
    ],
    "elevatorid:elevator_lime": [
        {
            "key": {
                "W": {
                    "item": "minecraft:lime_wool"
                },
                "E": {
                    "item": "minecraft:ender_pearl"
                }
            },
            "pattern": [
                "WWW",
                "WEW",
                "WWW"
            ]
        },
        {
            "ingredients": [
                {
                    "tag": "elevatorid:elevators"
                },
                {
                    "tag": "forge:dyes/lime"
                }
            ]
        }
    ],
    "elevatorid:elevator_magenta": [
        {
            "key": {
                "W": {
                    "item": "minecraft:magenta_wool"
                },
                "E": {
                    "item": "minecraft:ender_pearl"
                }
            },
            "pattern": [
                "WWW",
                "WEW",
                "WWW"
            ]
        },
        {
            "ingredients": [
                {
                    "tag": "elevatorid:elevators"
                },
                {
                    "tag": "forge:dyes/magenta"
                }
            ]
        }
    ],
    "elevatorid:elevator_orange": [
        {
            "key": {
                "W": {
                    "item": "minecraft:orange_wool"
                },
                "E": {
                    "item": "minecraft:ender_pearl"
                }
            },
            "pattern": [
                "WWW",
                "WEW",
                "WWW"
            ]
        },
        {
            "ingredients": [
                {
                    "tag": "elevatorid:elevators"
                },
                {
                    "tag": "forge:dyes/orange"
                }
            ]
        }
    ],
    "elevatorid:elevator_pink": [
        {
            "key": {
                "W": {
                    "item": "minecraft:pink_wool"
                },
                "E": {
                    "item": "minecraft:ender_pearl"
                }
            },
            "pattern": [
                "WWW",
                "WEW",
                "WWW"
            ]
        },
        {
            "ingredients": [
                {
                    "tag": "elevatorid:elevators"
                },
                {
                    "tag": "forge:dyes/pink"
                }
            ]
        }
    ],
    "elevatorid:elevator_purple": [
        {
            "key": {
                "W": {
                    "item": "minecraft:purple_wool"
                },
                "E": {
                    "item": "minecraft:ender_pearl"
                }
            },
            "pattern": [
                "WWW",
                "WEW",
                "WWW"
            ]
        },
        {
            "ingredients": [
                {
                    "tag": "elevatorid:elevators"
                },
                {
                    "tag": "forge:dyes/purple"
                }
            ]
        }
    ],
    "elevatorid:elevator_red": [
        {
            "key": {
                "W": {
                    "item": "minecraft:red_wool"
                },
                "E": {
                    "item": "minecraft:ender_pearl"
                }
            },
            "pattern": [
                "WWW",
                "WEW",
                "WWW"
            ]
        },
        {
            "ingredients": [
                {
                    "tag": "elevatorid:elevators"
                },
                {
                    "tag": "forge:dyes/red"
                }
            ]
        }
    ],
    "elevatorid:elevator_white": [
        {
            "key": {
                "W": {
                    "item": "minecraft:white_wool"
                },
                "E": {
                    "item": "minecraft:ender_pearl"
                }
            },
            "pattern": [
                "WWW",
                "WEW",
                "WWW"
            ]
        },
        {
            "ingredients": [
                {
                    "tag": "elevatorid:elevators"
                },
                {
                    "tag": "forge:dyes/white"
                }
            ]
        }
    ],
    "elevatorid:elevator_yellow": [
        {
            "key": {
                "W": {
                    "item": "minecraft:yellow_wool"
                },
                "E": {
                    "item": "minecraft:ender_pearl"
                }
            },
            "pattern": [
                "WWW",
                "WEW",
                "WWW"
            ]
        },
        {
            "ingredients": [
                {
                    "tag": "elevatorid:elevators"
                },
                {
                    "tag": "forge:dyes/yellow"
                }
            ]
        }
    ]
}