{
    "extcaves:clay_lump": [
        {
            "key": {
                "#": {
                    "item": "minecraft:clay_ball"
                }
            },
            "pattern": [
                "#"
            ],
            "count": 2
        }
    ],
    "extcaves:decoration_pot": [
        {
            "key": {
                "#": {
                    "item": "extcaves:brick_half"
                }
            },
            "pattern": [
                " # ",
                "# #",
                " # "
            ],
            "count": 1
        }
    ],
    "extcaves:decoration_pot_long": [
        {
            "key": {
                "#": {
                    "item": "extcaves:brick_half"
                }
            },
            "pattern": [
                "# #",
                "# #",
                " # "
            ],
            "count": 1
        }
    ],
    "extcaves:decoration_pot_quartz_long": [
        {
            "key": {
                "#": {
                    "item": "minecraft:quartz"
                }
            },
            "pattern": [
                "# #",
                "# #",
                " # "
            ],
            "count": 1
        }
    ],
    "extcaves:decoration_pot_quartz_short": [
        {
            "key": {
                "#": {
                    "item": "minecraft:quartz"
                }
            },
            "pattern": [
                "# #",
                " # "
            ],
            "count": 1
        }
    ],
    "extcaves:decoration_pot_short": [
        {
            "key": {
                "#": {
                    "item": "extcaves:brick_half"
                }
            },
            "pattern": [
                "# #",
                " # "
            ],
            "count": 1
        }
    ],
    "extcaves:lavastone": [
        {
            "key": {
                "#": {
                    "item": "extcaves:pebble_lavastone"
                }
            },
            "pattern": [
                "###",
                "###",
                "###"
            ],
            "count": 1
        }
    ],
    "extcaves:lavastone_slab": [
        {
            "key": {
                "#": {
                    "item": "extcaves:lavastone"
                }
            },
            "pattern": [
                "###"
            ],
            "count": 6
        }
    ],
    "extcaves:lavastone_stairs": [
        {
            "key": {
                "#": {
                    "item": "extcaves:lavastone"
                }
            },
            "pattern": [
                "#  ",
                "## ",
                "###"
            ],
            "count": 4
        }
    ],
    "extcaves:medicine_bandage": [
        {
            "key": {
                "#": {
                    "item": "extcaves:plant_fiber"
                },
                "S": {
                    "item": "minecraft:string"
                }
            },
            "pattern": [
                "#S",
                "S#"
            ],
            "count": 1
        }
    ],
    "extcaves:pebble_lavastone": [
        {
            "key": {
                "#": {
                    "item": "extcaves:lavastone"
                }
            },
            "pattern": [
                "#"
            ],
            "count": 9
        }
    ],
    "extcaves:pebble_sedimentstone": [
        {
            "key": {
                "#": {
                    "item": "extcaves:sedimentstone"
                }
            },
            "pattern": [
                "#"
            ],
            "count": 9
        }
    ],
    "extcaves:pebble_stone": [
        {
            "key": {
                "#": {
                    "item": "minecraft:stone"
                }
            },
            "pattern": [
                "#"
            ],
            "count": 9
        }
    ],
    "extcaves:picker_flint": [
        {
            "key": {
                "#": {
                    "item": "minecraft:flint"
                },
                "/": {
                    "item": "minecraft:stick"
                }
            },
            "pattern": [
                "##",
                " /"
            ],
            "count": 1
        }
    ],
    "extcaves:picker_stone": [
        {
            "key": {
                "#": {
                    "item": "extcaves:pebble_stone"
                },
                "/": {
                    "item": "minecraft:stick"
                }
            },
            "pattern": [
                "##",
                " /"
            ],
            "count": 1
        }
    ],
    "extcaves:polished_lavastone": [
        {
            "key": {
                "S": {
                    "item": "extcaves:lavastone"
                }
            },
            "pattern": [
                "SS",
                "SS"
            ],
            "count": 4
        }
    ],
    "extcaves:polished_lavastone_slab": [
        {
            "key": {
                "#": {
                    "item": "extcaves:polished_lavastone"
                }
            },
            "pattern": [
                "###"
            ],
            "count": 6
        }
    ],
    "extcaves:polished_lavastone_stairs": [
        {
            "key": {
                "#": {
                    "item": "extcaves:polished_lavastone"
                }
            },
            "pattern": [
                "#  ",
                "## ",
                "###"
            ],
            "count": 4
        }
    ],
    "extcaves:sedimentstone": [
        {
            "key": {
                "#": {
                    "item": "extcaves:pebble_sedimentstone"
                }
            },
            "pattern": [
                "###",
                "###",
                "###"
            ],
            "count": 1
        }
    ],
    "extcaves:stew_fluorescent": [
        {
            "ingredients": [
                {
                    "item": "minecraft:bowl"
                },
                {
                    "item": "extcaves:mushroom_lumishroom"
                },
                {
                    "item": "extcaves:mushroom_fluoshroom"
                }
            ],
            "count": 1
        }
    ],
    "extcaves:stew_hard": [
        {
            "ingredients": [
                {
                    "item": "minecraft:bowl"
                },
                {
                    "item": "extcaves:mushroom_rockshroom"
                },
                {
                    "item": "extcaves:pebble_stone"
                }
            ],
            "count": 1
        }
    ],
    "extcaves:stew_sticky": [
        {
            "ingredients": [
                {
                    "item": "minecraft:bowl"
                },
                {
                    "item": "extcaves:mushroom_goldishroom"
                },
                {
                    "item": "extcaves:mushroom_shinyshroom"
                }
            ],
            "count": 1
        }
    ]
}