{
    "industrialforegoing:dryrubber": [
        {
            "ingredients": [
                {
                    "item": "industrialforegoing:tinydryrubber"
                },
                {
                    "item": "industrialforegoing:tinydryrubber"
                },
                {
                    "item": "industrialforegoing:tinydryrubber"
                },
                {
                    "item": "industrialforegoing:tinydryrubber"
                },
                {
                    "item": "industrialforegoing:tinydryrubber"
                },
                {
                    "item": "industrialforegoing:tinydryrubber"
                },
                {
                    "item": "industrialforegoing:tinydryrubber"
                },
                {
                    "item": "industrialforegoing:tinydryrubber"
                },
                {
                    "item": "industrialforegoing:tinydryrubber"
                }
            ]
        }
    ],
    "industrialforegoing:laser_lens15": [
        {
            "ingredients": [
                [
                    {
                        "item": "industrialforegoing:laser_lens0"
                    },
                    {
                        "item": "industrialforegoing:laser_lens1"
                    },
                    {
                        "item": "industrialforegoing:laser_lens2"
                    },
                    {
                        "item": "industrialforegoing:laser_lens3"
                    },
                    {
                        "item": "industrialforegoing:laser_lens4"
                    },
                    {
                        "item": "industrialforegoing:laser_lens5"
                    },
                    {
                        "item": "industrialforegoing:laser_lens6"
                    },
                    {
                        "item": "industrialforegoing:laser_lens7"
                    },
                    {
                        "item": "industrialforegoing:laser_lens8"
                    },
                    {
                        "item": "industrialforegoing:laser_lens9"
                    },
                    {
                        "item": "industrialforegoing:laser_lens10"
                    },
                    {
                        "item": "industrialforegoing:laser_lens11"
                    },
                    {
                        "item": "industrialforegoing:laser_lens12"
                    },
                    {
                        "item": "industrialforegoing:laser_lens13"
                    },
                    {
                        "item": "industrialforegoing:laser_lens14"
                    },
                    {
                        "item": "industrialforegoing:laser_lens15"
                    }
                ],
                {
                    "tag": "forge:dyes/black"
                }
            ]
        }
    ],
    "industrialforegoing:laser_lens11": [
        {
            "ingredients": [
                [
                    {
                        "item": "industrialforegoing:laser_lens0"
                    },
                    {
                        "item": "industrialforegoing:laser_lens1"
                    },
                    {
                        "item": "industrialforegoing:laser_lens2"
                    },
                    {
                        "item": "industrialforegoing:laser_lens3"
                    },
                    {
                        "item": "industrialforegoing:laser_lens4"
                    },
                    {
                        "item": "industrialforegoing:laser_lens5"
                    },
                    {
                        "item": "industrialforegoing:laser_lens6"
                    },
                    {
                        "item": "industrialforegoing:laser_lens7"
                    },
                    {
                        "item": "industrialforegoing:laser_lens8"
                    },
                    {
                        "item": "industrialforegoing:laser_lens9"
                    },
                    {
                        "item": "industrialforegoing:laser_lens10"
                    },
                    {
                        "item": "industrialforegoing:laser_lens11"
                    },
                    {
                        "item": "industrialforegoing:laser_lens12"
                    },
                    {
                        "item": "industrialforegoing:laser_lens13"
                    },
                    {
                        "item": "industrialforegoing:laser_lens14"
                    },
                    {
                        "item": "industrialforegoing:laser_lens15"
                    }
                ],
                {
                    "tag": "forge:dyes/blue"
                }
            ]
        }
    ],
    "industrialforegoing:laser_lens12": [
        {
            "ingredients": [
                [
                    {
                        "item": "industrialforegoing:laser_lens0"
                    },
                    {
                        "item": "industrialforegoing:laser_lens1"
                    },
                    {
                        "item": "industrialforegoing:laser_lens2"
                    },
                    {
                        "item": "industrialforegoing:laser_lens3"
                    },
                    {
                        "item": "industrialforegoing:laser_lens4"
                    },
                    {
                        "item": "industrialforegoing:laser_lens5"
                    },
                    {
                        "item": "industrialforegoing:laser_lens6"
                    },
                    {
                        "item": "industrialforegoing:laser_lens7"
                    },
                    {
                        "item": "industrialforegoing:laser_lens8"
                    },
                    {
                        "item": "industrialforegoing:laser_lens9"
                    },
                    {
                        "item": "industrialforegoing:laser_lens10"
                    },
                    {
                        "item": "industrialforegoing:laser_lens11"
                    },
                    {
                        "item": "industrialforegoing:laser_lens12"
                    },
                    {
                        "item": "industrialforegoing:laser_lens13"
                    },
                    {
                        "item": "industrialforegoing:laser_lens14"
                    },
                    {
                        "item": "industrialforegoing:laser_lens15"
                    }
                ],
                {
                    "tag": "forge:dyes/brown"
                }
            ]
        }
    ],
    "industrialforegoing:laser_lens9": [
        {
            "ingredients": [
                [
                    {
                        "item": "industrialforegoing:laser_lens0"
                    },
                    {
                        "item": "industrialforegoing:laser_lens1"
                    },
                    {
                        "item": "industrialforegoing:laser_lens2"
                    },
                    {
                        "item": "industrialforegoing:laser_lens3"
                    },
                    {
                        "item": "industrialforegoing:laser_lens4"
                    },
                    {
                        "item": "industrialforegoing:laser_lens5"
                    },
                    {
                        "item": "industrialforegoing:laser_lens6"
                    },
                    {
                        "item": "industrialforegoing:laser_lens7"
                    },
                    {
                        "item": "industrialforegoing:laser_lens8"
                    },
                    {
                        "item": "industrialforegoing:laser_lens9"
                    },
                    {
                        "item": "industrialforegoing:laser_lens10"
                    },
                    {
                        "item": "industrialforegoing:laser_lens11"
                    },
                    {
                        "item": "industrialforegoing:laser_lens12"
                    },
                    {
                        "item": "industrialforegoing:laser_lens13"
                    },
                    {
                        "item": "industrialforegoing:laser_lens14"
                    },
                    {
                        "item": "industrialforegoing:laser_lens15"
                    }
                ],
                {
                    "tag": "forge:dyes/cyan"
                }
            ]
        }
    ],
    "industrialforegoing:laser_lens7": [
        {
            "ingredients": [
                [
                    {
                        "item": "industrialforegoing:laser_lens0"
                    },
                    {
                        "item": "industrialforegoing:laser_lens1"
                    },
                    {
                        "item": "industrialforegoing:laser_lens2"
                    },
                    {
                        "item": "industrialforegoing:laser_lens3"
                    },
                    {
                        "item": "industrialforegoing:laser_lens4"
                    },
                    {
                        "item": "industrialforegoing:laser_lens5"
                    },
                    {
                        "item": "industrialforegoing:laser_lens6"
                    },
                    {
                        "item": "industrialforegoing:laser_lens7"
                    },
                    {
                        "item": "industrialforegoing:laser_lens8"
                    },
                    {
                        "item": "industrialforegoing:laser_lens9"
                    },
                    {
                        "item": "industrialforegoing:laser_lens10"
                    },
                    {
                        "item": "industrialforegoing:laser_lens11"
                    },
                    {
                        "item": "industrialforegoing:laser_lens12"
                    },
                    {
                        "item": "industrialforegoing:laser_lens13"
                    },
                    {
                        "item": "industrialforegoing:laser_lens14"
                    },
                    {
                        "item": "industrialforegoing:laser_lens15"
                    }
                ],
                {
                    "tag": "forge:dyes/gray"
                }
            ]
        }
    ],
    "industrialforegoing:laser_lens13": [
        {
            "ingredients": [
                [
                    {
                        "item": "industrialforegoing:laser_lens0"
                    },
                    {
                        "item": "industrialforegoing:laser_lens1"
                    },
                    {
                        "item": "industrialforegoing:laser_lens2"
                    },
                    {
                        "item": "industrialforegoing:laser_lens3"
                    },
                    {
                        "item": "industrialforegoing:laser_lens4"
                    },
                    {
                        "item": "industrialforegoing:laser_lens5"
                    },
                    {
                        "item": "industrialforegoing:laser_lens6"
                    },
                    {
                        "item": "industrialforegoing:laser_lens7"
                    },
                    {
                        "item": "industrialforegoing:laser_lens8"
                    },
                    {
                        "item": "industrialforegoing:laser_lens9"
                    },
                    {
                        "item": "industrialforegoing:laser_lens10"
                    },
                    {
                        "item": "industrialforegoing:laser_lens11"
                    },
                    {
                        "item": "industrialforegoing:laser_lens12"
                    },
                    {
                        "item": "industrialforegoing:laser_lens13"
                    },
                    {
                        "item": "industrialforegoing:laser_lens14"
                    },
                    {
                        "item": "industrialforegoing:laser_lens15"
                    }
                ],
                {
                    "tag": "forge:dyes/green"
                }
            ]
        }
    ],
    "industrialforegoing:laser_lens3": [
        {
            "ingredients": [
                [
                    {
                        "item": "industrialforegoing:laser_lens0"
                    },
                    {
                        "item": "industrialforegoing:laser_lens1"
                    },
                    {
                        "item": "industrialforegoing:laser_lens2"
                    },
                    {
                        "item": "industrialforegoing:laser_lens3"
                    },
                    {
                        "item": "industrialforegoing:laser_lens4"
                    },
                    {
                        "item": "industrialforegoing:laser_lens5"
                    },
                    {
                        "item": "industrialforegoing:laser_lens6"
                    },
                    {
                        "item": "industrialforegoing:laser_lens7"
                    },
                    {
                        "item": "industrialforegoing:laser_lens8"
                    },
                    {
                        "item": "industrialforegoing:laser_lens9"
                    },
                    {
                        "item": "industrialforegoing:laser_lens10"
                    },
                    {
                        "item": "industrialforegoing:laser_lens11"
                    },
                    {
                        "item": "industrialforegoing:laser_lens12"
                    },
                    {
                        "item": "industrialforegoing:laser_lens13"
                    },
                    {
                        "item": "industrialforegoing:laser_lens14"
                    },
                    {
                        "item": "industrialforegoing:laser_lens15"
                    }
                ],
                {
                    "tag": "forge:dyes/light_blue"
                }
            ]
        }
    ],
    "industrialforegoing:laser_lens8": [
        {
            "ingredients": [
                [
                    {
                        "item": "industrialforegoing:laser_lens0"
                    },
                    {
                        "item": "industrialforegoing:laser_lens1"
                    },
                    {
                        "item": "industrialforegoing:laser_lens2"
                    },
                    {
                        "item": "industrialforegoing:laser_lens3"
                    },
                    {
                        "item": "industrialforegoing:laser_lens4"
                    },
                    {
                        "item": "industrialforegoing:laser_lens5"
                    },
                    {
                        "item": "industrialforegoing:laser_lens6"
                    },
                    {
                        "item": "industrialforegoing:laser_lens7"
                    },
                    {
                        "item": "industrialforegoing:laser_lens8"
                    },
                    {
                        "item": "industrialforegoing:laser_lens9"
                    },
                    {
                        "item": "industrialforegoing:laser_lens10"
                    },
                    {
                        "item": "industrialforegoing:laser_lens11"
                    },
                    {
                        "item": "industrialforegoing:laser_lens12"
                    },
                    {
                        "item": "industrialforegoing:laser_lens13"
                    },
                    {
                        "item": "industrialforegoing:laser_lens14"
                    },
                    {
                        "item": "industrialforegoing:laser_lens15"
                    }
                ],
                {
                    "tag": "forge:dyes/light_gray"
                }
            ]
        }
    ],
    "industrialforegoing:laser_lens5": [
        {
            "ingredients": [
                [
                    {
                        "item": "industrialforegoing:laser_lens0"
                    },
                    {
                        "item": "industrialforegoing:laser_lens1"
                    },
                    {
                        "item": "industrialforegoing:laser_lens2"
                    },
                    {
                        "item": "industrialforegoing:laser_lens3"
                    },
                    {
                        "item": "industrialforegoing:laser_lens4"
                    },
                    {
                        "item": "industrialforegoing:laser_lens5"
                    },
                    {
                        "item": "industrialforegoing:laser_lens6"
                    },
                    {
                        "item": "industrialforegoing:laser_lens7"
                    },
                    {
                        "item": "industrialforegoing:laser_lens8"
                    },
                    {
                        "item": "industrialforegoing:laser_lens9"
                    },
                    {
                        "item": "industrialforegoing:laser_lens10"
                    },
                    {
                        "item": "industrialforegoing:laser_lens11"
                    },
                    {
                        "item": "industrialforegoing:laser_lens12"
                    },
                    {
                        "item": "industrialforegoing:laser_lens13"
                    },
                    {
                        "item": "industrialforegoing:laser_lens14"
                    },
                    {
                        "item": "industrialforegoing:laser_lens15"
                    }
                ],
                {
                    "tag": "forge:dyes/lime"
                }
            ]
        }
    ],
    "industrialforegoing:laser_lens2": [
        {
            "ingredients": [
                [
                    {
                        "item": "industrialforegoing:laser_lens0"
                    },
                    {
                        "item": "industrialforegoing:laser_lens1"
                    },
                    {
                        "item": "industrialforegoing:laser_lens2"
                    },
                    {
                        "item": "industrialforegoing:laser_lens3"
                    },
                    {
                        "item": "industrialforegoing:laser_lens4"
                    },
                    {
                        "item": "industrialforegoing:laser_lens5"
                    },
                    {
                        "item": "industrialforegoing:laser_lens6"
                    },
                    {
                        "item": "industrialforegoing:laser_lens7"
                    },
                    {
                        "item": "industrialforegoing:laser_lens8"
                    },
                    {
                        "item": "industrialforegoing:laser_lens9"
                    },
                    {
                        "item": "industrialforegoing:laser_lens10"
                    },
                    {
                        "item": "industrialforegoing:laser_lens11"
                    },
                    {
                        "item": "industrialforegoing:laser_lens12"
                    },
                    {
                        "item": "industrialforegoing:laser_lens13"
                    },
                    {
                        "item": "industrialforegoing:laser_lens14"
                    },
                    {
                        "item": "industrialforegoing:laser_lens15"
                    }
                ],
                {
                    "tag": "forge:dyes/magenta"
                }
            ]
        }
    ],
    "industrialforegoing:laser_lens1": [
        {
            "ingredients": [
                [
                    {
                        "item": "industrialforegoing:laser_lens0"
                    },
                    {
                        "item": "industrialforegoing:laser_lens1"
                    },
                    {
                        "item": "industrialforegoing:laser_lens2"
                    },
                    {
                        "item": "industrialforegoing:laser_lens3"
                    },
                    {
                        "item": "industrialforegoing:laser_lens4"
                    },
                    {
                        "item": "industrialforegoing:laser_lens5"
                    },
                    {
                        "item": "industrialforegoing:laser_lens6"
                    },
                    {
                        "item": "industrialforegoing:laser_lens7"
                    },
                    {
                        "item": "industrialforegoing:laser_lens8"
                    },
                    {
                        "item": "industrialforegoing:laser_lens9"
                    },
                    {
                        "item": "industrialforegoing:laser_lens10"
                    },
                    {
                        "item": "industrialforegoing:laser_lens11"
                    },
                    {
                        "item": "industrialforegoing:laser_lens12"
                    },
                    {
                        "item": "industrialforegoing:laser_lens13"
                    },
                    {
                        "item": "industrialforegoing:laser_lens14"
                    },
                    {
                        "item": "industrialforegoing:laser_lens15"
                    }
                ],
                {
                    "tag": "forge:dyes/orange"
                }
            ]
        }
    ],
    "industrialforegoing:laser_lens6": [
        {
            "ingredients": [
                [
                    {
                        "item": "industrialforegoing:laser_lens0"
                    },
                    {
                        "item": "industrialforegoing:laser_lens1"
                    },
                    {
                        "item": "industrialforegoing:laser_lens2"
                    },
                    {
                        "item": "industrialforegoing:laser_lens3"
                    },
                    {
                        "item": "industrialforegoing:laser_lens4"
                    },
                    {
                        "item": "industrialforegoing:laser_lens5"
                    },
                    {
                        "item": "industrialforegoing:laser_lens6"
                    },
                    {
                        "item": "industrialforegoing:laser_lens7"
                    },
                    {
                        "item": "industrialforegoing:laser_lens8"
                    },
                    {
                        "item": "industrialforegoing:laser_lens9"
                    },
                    {
                        "item": "industrialforegoing:laser_lens10"
                    },
                    {
                        "item": "industrialforegoing:laser_lens11"
                    },
                    {
                        "item": "industrialforegoing:laser_lens12"
                    },
                    {
                        "item": "industrialforegoing:laser_lens13"
                    },
                    {
                        "item": "industrialforegoing:laser_lens14"
                    },
                    {
                        "item": "industrialforegoing:laser_lens15"
                    }
                ],
                {
                    "tag": "forge:dyes/pink"
                }
            ]
        }
    ],
    "industrialforegoing:laser_lens10": [
        {
            "ingredients": [
                [
                    {
                        "item": "industrialforegoing:laser_lens0"
                    },
                    {
                        "item": "industrialforegoing:laser_lens1"
                    },
                    {
                        "item": "industrialforegoing:laser_lens2"
                    },
                    {
                        "item": "industrialforegoing:laser_lens3"
                    },
                    {
                        "item": "industrialforegoing:laser_lens4"
                    },
                    {
                        "item": "industrialforegoing:laser_lens5"
                    },
                    {
                        "item": "industrialforegoing:laser_lens6"
                    },
                    {
                        "item": "industrialforegoing:laser_lens7"
                    },
                    {
                        "item": "industrialforegoing:laser_lens8"
                    },
                    {
                        "item": "industrialforegoing:laser_lens9"
                    },
                    {
                        "item": "industrialforegoing:laser_lens10"
                    },
                    {
                        "item": "industrialforegoing:laser_lens11"
                    },
                    {
                        "item": "industrialforegoing:laser_lens12"
                    },
                    {
                        "item": "industrialforegoing:laser_lens13"
                    },
                    {
                        "item": "industrialforegoing:laser_lens14"
                    },
                    {
                        "item": "industrialforegoing:laser_lens15"
                    }
                ],
                {
                    "tag": "forge:dyes/purple"
                }
            ]
        }
    ],
    "industrialforegoing:laser_lens14": [
        {
            "ingredients": [
                [
                    {
                        "item": "industrialforegoing:laser_lens0"
                    },
                    {
                        "item": "industrialforegoing:laser_lens1"
                    },
                    {
                        "item": "industrialforegoing:laser_lens2"
                    },
                    {
                        "item": "industrialforegoing:laser_lens3"
                    },
                    {
                        "item": "industrialforegoing:laser_lens4"
                    },
                    {
                        "item": "industrialforegoing:laser_lens5"
                    },
                    {
                        "item": "industrialforegoing:laser_lens6"
                    },
                    {
                        "item": "industrialforegoing:laser_lens7"
                    },
                    {
                        "item": "industrialforegoing:laser_lens8"
                    },
                    {
                        "item": "industrialforegoing:laser_lens9"
                    },
                    {
                        "item": "industrialforegoing:laser_lens10"
                    },
                    {
                        "item": "industrialforegoing:laser_lens11"
                    },
                    {
                        "item": "industrialforegoing:laser_lens12"
                    },
                    {
                        "item": "industrialforegoing:laser_lens13"
                    },
                    {
                        "item": "industrialforegoing:laser_lens14"
                    },
                    {
                        "item": "industrialforegoing:laser_lens15"
                    }
                ],
                {
                    "tag": "forge:dyes/red"
                }
            ]
        }
    ],
    "industrialforegoing:laser_lens0": [
        {
            "ingredients": [
                [
                    {
                        "item": "industrialforegoing:laser_lens0"
                    },
                    {
                        "item": "industrialforegoing:laser_lens1"
                    },
                    {
                        "item": "industrialforegoing:laser_lens2"
                    },
                    {
                        "item": "industrialforegoing:laser_lens3"
                    },
                    {
                        "item": "industrialforegoing:laser_lens4"
                    },
                    {
                        "item": "industrialforegoing:laser_lens5"
                    },
                    {
                        "item": "industrialforegoing:laser_lens6"
                    },
                    {
                        "item": "industrialforegoing:laser_lens7"
                    },
                    {
                        "item": "industrialforegoing:laser_lens8"
                    },
                    {
                        "item": "industrialforegoing:laser_lens9"
                    },
                    {
                        "item": "industrialforegoing:laser_lens10"
                    },
                    {
                        "item": "industrialforegoing:laser_lens11"
                    },
                    {
                        "item": "industrialforegoing:laser_lens12"
                    },
                    {
                        "item": "industrialforegoing:laser_lens13"
                    },
                    {
                        "item": "industrialforegoing:laser_lens14"
                    },
                    {
                        "item": "industrialforegoing:laser_lens15"
                    }
                ],
                {
                    "tag": "forge:dyes/white"
                }
            ]
        }
    ],
    "industrialforegoing:laser_lens4": [
        {
            "ingredients": [
                [
                    {
                        "item": "industrialforegoing:laser_lens0"
                    },
                    {
                        "item": "industrialforegoing:laser_lens1"
                    },
                    {
                        "item": "industrialforegoing:laser_lens2"
                    },
                    {
                        "item": "industrialforegoing:laser_lens3"
                    },
                    {
                        "item": "industrialforegoing:laser_lens4"
                    },
                    {
                        "item": "industrialforegoing:laser_lens5"
                    },
                    {
                        "item": "industrialforegoing:laser_lens6"
                    },
                    {
                        "item": "industrialforegoing:laser_lens7"
                    },
                    {
                        "item": "industrialforegoing:laser_lens8"
                    },
                    {
                        "item": "industrialforegoing:laser_lens9"
                    },
                    {
                        "item": "industrialforegoing:laser_lens10"
                    },
                    {
                        "item": "industrialforegoing:laser_lens11"
                    },
                    {
                        "item": "industrialforegoing:laser_lens12"
                    },
                    {
                        "item": "industrialforegoing:laser_lens13"
                    },
                    {
                        "item": "industrialforegoing:laser_lens14"
                    },
                    {
                        "item": "industrialforegoing:laser_lens15"
                    }
                ],
                {
                    "tag": "forge:dyes/yellow"
                }
            ]
        }
    ]
}