{
    "itemcollectors:advanced_collector": [
        {
            "key": {
                "E": {
                    "item": "minecraft:ender_eye"
                },
                "I": {
                    "item": "itemcollectors:basic_collector"
                },
                "O": {
                    "tag": "forge:obsidian"
                }
            },
            "pattern": [
                " E ",
                " I ",
                "OOO"
            ]
        }
    ],
    "itemcollectors:basic_collector": [
        {
            "key": {
                "E": {
                    "tag": "forge:ender_pearls"
                },
                "O": {
                    "tag": "forge:obsidian"
                }
            },
            "pattern": [
                " E ",
                " O ",
                "OOO"
            ]
        }
    ]
}