{
    "lanterncolors:black_coloredlantern": [
        {
            "ingredients": [
                {
                    "tag": "forge:glass_panes/black"
                },
                {
                    "tag": "lanterncolors:lanterns"
                }
            ]
        }
    ],
    "lanterncolors:blue_coloredlantern": [
        {
            "ingredients": [
                {
                    "tag": "forge:glass_panes/blue"
                },
                {
                    "tag": "lanterncolors:lanterns"
                }
            ]
        }
    ],
    "lanterncolors:brown_coloredlantern": [
        {
            "ingredients": [
                {
                    "tag": "forge:glass_panes/brown"
                },
                {
                    "tag": "lanterncolors:lanterns"
                }
            ]
        }
    ],
    "lanterncolors:cyan_coloredlantern": [
        {
            "ingredients": [
                {
                    "tag": "forge:glass_panes/cyan"
                },
                {
                    "tag": "lanterncolors:lanterns"
                }
            ]
        }
    ],
    "lanterncolors:gray_coloredlantern": [
        {
            "ingredients": [
                {
                    "tag": "forge:glass_panes/gray"
                },
                {
                    "tag": "lanterncolors:lanterns"
                }
            ]
        }
    ],
    "lanterncolors:green_coloredlantern": [
        {
            "ingredients": [
                {
                    "tag": "forge:glass_panes/green"
                },
                {
                    "tag": "lanterncolors:lanterns"
                }
            ]
        }
    ],
    "lanterncolors:light_blue_coloredlantern": [
        {
            "ingredients": [
                {
                    "tag": "forge:glass_panes/light_blue"
                },
                {
                    "tag": "lanterncolors:lanterns"
                }
            ]
        }
    ],
    "lanterncolors:light_gray_coloredlantern": [
        {
            "ingredients": [
                {
                    "tag": "forge:glass_panes/light_gray"
                },
                {
                    "tag": "lanterncolors:lanterns"
                }
            ]
        }
    ],
    "lanterncolors:lime_coloredlantern": [
        {
            "ingredients": [
                {
                    "tag": "forge:glass_panes/lime"
                },
                {
                    "tag": "lanterncolors:lanterns"
                }
            ]
        }
    ],
    "lanterncolors:magenta_coloredlantern": [
        {
            "ingredients": [
                {
                    "tag": "forge:glass_panes/magenta"
                },
                {
                    "tag": "lanterncolors:lanterns"
                }
            ]
        }
    ],
    "lanterncolors:orange_coloredlantern": [
        {
            "ingredients": [
                {
                    "tag": "forge:glass_panes/orange"
                },
                {
                    "tag": "lanterncolors:lanterns"
                }
            ]
        }
    ],
    "lanterncolors:pink_coloredlantern": [
        {
            "ingredients": [
                {
                    "tag": "forge:glass_panes/pink"
                },
                {
                    "tag": "lanterncolors:lanterns"
                }
            ]
        }
    ],
    "lanterncolors:purple_coloredlantern": [
        {
            "ingredients": [
                {
                    "tag": "forge:glass_panes/purple"
                },
                {
                    "tag": "lanterncolors:lanterns"
                }
            ]
        }
    ],
    "lanterncolors:red_coloredlantern": [
        {
            "ingredients": [
                {
                    "tag": "forge:glass_panes/red"
                },
                {
                    "tag": "lanterncolors:lanterns"
                }
            ]
        }
    ],
    "lanterncolors:white_coloredlantern": [
        {
            "ingredients": [
                {
                    "tag": "forge:glass_panes/white"
                },
                {
                    "tag": "lanterncolors:lanterns"
                }
            ]
        }
    ],
    "lanterncolors:yellow_coloredlantern": [
        {
            "ingredients": [
                {
                    "tag": "forge:glass_panes/yellow"
                },
                {
                    "tag": "lanterncolors:lanterns"
                }
            ]
        }
    ]
}