{
    "mcwbridges:acacia_log_bridge_end": [
        {
            "key": {
                "W": {
                    "item": "mcwbridges:acacia_log_bridge_middle"
                }
            },
            "pattern": [
                "W"
            ],
            "count": 1
        }
    ],
    "mcwbridges:acacia_log_bridge_middle": [
        {
            "key": {
                "F": {
                    "item": "minecraft:acacia_fence"
                },
                "W": {
                    "item": "minecraft:acacia_slab"
                }
            },
            "pattern": [
                "F F",
                "WWW"
            ],
            "count": 4
        }
    ],
    "mcwbridges:acacia_rail_bridge": [
        {
            "key": {
                "F": {
                    "item": "minecraft:acacia_fence"
                },
                "W": {
                    "item": "minecraft:acacia_slab"
                }
            },
            "pattern": [
                "F F",
                "FWF"
            ],
            "count": 4
        }
    ],
    "mcwbridges:acacia_rail_bridge_powered": [
        {
            "key": {
                "F": {
                    "item": "minecraft:redstone_torch"
                },
                "W": {
                    "item": "mcwbridges:acacia_rail_bridge"
                }
            },
            "pattern": [
                "FWF"
            ],
            "count": 1
        }
    ],
    "mcwbridges:bamboo_bridge": [
        {
            "key": {
                "F": {
                    "item": "minecraft:string"
                },
                "W": {
                    "item": "minecraft:bamboo"
                }
            },
            "pattern": [
                "WFW",
                "WWW"
            ],
            "count": 1
        }
    ],
    "mcwbridges:birch_log_bridge_end": [
        {
            "key": {
                "W": {
                    "item": "mcwbridges:birch_log_bridge_middle"
                }
            },
            "pattern": [
                "W"
            ],
            "count": 1
        }
    ],
    "mcwbridges:birch_log_bridge_middle": [
        {
            "key": {
                "F": {
                    "item": "minecraft:birch_fence"
                },
                "W": {
                    "item": "minecraft:birch_slab"
                }
            },
            "pattern": [
                "F F",
                "WWW"
            ],
            "count": 4
        }
    ],
    "mcwbridges:birch_rail_bridge": [
        {
            "key": {
                "F": {
                    "item": "minecraft:birch_fence"
                },
                "W": {
                    "item": "minecraft:birch_slab"
                }
            },
            "pattern": [
                "F F",
                "FWF"
            ],
            "count": 4
        }
    ],
    "mcwbridges:birch_rail_bridge_powered": [
        {
            "key": {
                "F": {
                    "item": "minecraft:redstone_torch"
                },
                "W": {
                    "item": "mcwbridges:birch_rail_bridge"
                }
            },
            "pattern": [
                "FWF"
            ],
            "count": 1
        }
    ],
    "mcwbridges:blackstone_bridge": [
        {
            "key": {
                "F": {
                    "item": "minecraft:blackstone_wall"
                },
                "W": {
                    "item": "minecraft:blackstone_slab"
                }
            },
            "pattern": [
                "F F",
                "WWW"
            ],
            "count": 4
        }
    ],
    "mcwbridges:blackstone_bridge_end": [
        {
            "key": {
                "W": {
                    "item": "mcwbridges:blackstone_bridge"
                }
            },
            "pattern": [
                "W"
            ],
            "count": 1
        }
    ],
    "mcwbridges:brick_bridge": [
        {
            "key": {
                "F": {
                    "item": "minecraft:brick_wall"
                },
                "W": {
                    "item": "minecraft:brick_slab"
                }
            },
            "pattern": [
                "F F",
                "WWW"
            ],
            "count": 4
        }
    ],
    "mcwbridges:brick_bridge_end": [
        {
            "key": {
                "W": {
                    "item": "mcwbridges:brick_bridge"
                }
            },
            "pattern": [
                "W"
            ],
            "count": 1
        }
    ],
    "mcwbridges:crimson_log_bridge_end": [
        {
            "key": {
                "W": {
                    "item": "mcwbridges:crimson_log_bridge_middle"
                }
            },
            "pattern": [
                "W"
            ],
            "count": 1
        }
    ],
    "mcwbridges:crimson_log_bridge_middle": [
        {
            "key": {
                "F": {
                    "item": "minecraft:crimson_fence"
                },
                "W": {
                    "item": "minecraft:crimson_slab"
                }
            },
            "pattern": [
                "F F",
                "WWW"
            ],
            "count": 4
        }
    ],
    "mcwbridges:crimson_rail_bridge": [
        {
            "key": {
                "F": {
                    "item": "minecraft:crimson_fence"
                },
                "W": {
                    "item": "minecraft:crimson_slab"
                }
            },
            "pattern": [
                "F F",
                "FWF"
            ],
            "count": 4
        }
    ],
    "mcwbridges:crimson_rail_bridge_powered": [
        {
            "key": {
                "F": {
                    "item": "minecraft:redstone_torch"
                },
                "W": {
                    "item": "mcwbridges:crimson_rail_bridge"
                }
            },
            "pattern": [
                "FWF"
            ],
            "count": 1
        }
    ],
    "mcwbridges:dark_oak_log_bridge_end": [
        {
            "key": {
                "W": {
                    "item": "mcwbridges:dark_oak_log_bridge_middle"
                }
            },
            "pattern": [
                "W"
            ],
            "count": 1
        }
    ],
    "mcwbridges:dark_oak_log_bridge_middle": [
        {
            "key": {
                "F": {
                    "item": "minecraft:dark_oak_fence"
                },
                "W": {
                    "item": "minecraft:dark_oak_slab"
                }
            },
            "pattern": [
                "F F",
                "WWW"
            ],
            "count": 4
        }
    ],
    "mcwbridges:dark_oak_rail_bridge": [
        {
            "key": {
                "F": {
                    "item": "minecraft:dark_oak_fence"
                },
                "W": {
                    "item": "minecraft:dark_oak_slab"
                }
            },
            "pattern": [
                "F F",
                "FWF"
            ],
            "count": 4
        }
    ],
    "mcwbridges:dark_oak_rail_bridge_powered": [
        {
            "key": {
                "F": {
                    "item": "minecraft:redstone_torch"
                },
                "W": {
                    "item": "mcwbridges:dark_oak_rail_bridge"
                }
            },
            "pattern": [
                "FWF"
            ],
            "count": 1
        }
    ],
    "mcwbridges:most2": [
        {
            "key": {
                "W": {
                    "item": "mcwbridges:most1"
                }
            },
            "pattern": [
                "W"
            ],
            "count": 1
        }
    ],
    "mcwbridges:most1": [
        {
            "key": {
                "A": {
                    "item": "minecraft:iron_nugget"
                },
                "I": {
                    "item": "minecraft:iron_ingot"
                }
            },
            "pattern": [
                "A A",
                "A A",
                "III"
            ],
            "count": 1
        }
    ],
    "mcwbridges:jungle_log_bridge_end": [
        {
            "key": {
                "W": {
                    "item": "mcwbridges:jungle_log_bridge_middle"
                }
            },
            "pattern": [
                "W"
            ],
            "count": 1
        }
    ],
    "mcwbridges:jungle_log_bridge_middle": [
        {
            "key": {
                "F": {
                    "item": "minecraft:jungle_fence"
                },
                "W": {
                    "item": "minecraft:jungle_slab"
                }
            },
            "pattern": [
                "F F",
                "WWW"
            ],
            "count": 4
        }
    ],
    "mcwbridges:jungle_rail_bridge": [
        {
            "key": {
                "F": {
                    "item": "minecraft:jungle_fence"
                },
                "W": {
                    "item": "minecraft:jungle_slab"
                }
            },
            "pattern": [
                "F F",
                "FWF"
            ],
            "count": 4
        }
    ],
    "mcwbridges:jungle_rail_bridge_powered": [
        {
            "key": {
                "F": {
                    "item": "minecraft:redstone_torch"
                },
                "W": {
                    "item": "mcwbridges:jungle_rail_bridge"
                }
            },
            "pattern": [
                "FWF"
            ],
            "count": 1
        }
    ],
    "mcwbridges:oak_log_bridge_end": [
        {
            "key": {
                "W": {
                    "item": "mcwbridges:oak_log_bridge_middle"
                }
            },
            "pattern": [
                "W"
            ],
            "count": 1
        }
    ],
    "mcwbridges:oak_log_bridge_middle": [
        {
            "key": {
                "F": {
                    "item": "minecraft:oak_fence"
                },
                "W": {
                    "item": "minecraft:oak_slab"
                }
            },
            "pattern": [
                "F F",
                "WWW"
            ],
            "count": 4
        }
    ],
    "mcwbridges:oak_rail_bridge": [
        {
            "key": {
                "F": {
                    "item": "minecraft:oak_fence"
                },
                "W": {
                    "item": "minecraft:oak_slab"
                }
            },
            "pattern": [
                "F F",
                "FWF"
            ],
            "count": 4
        }
    ],
    "mcwbridges:oak_rail_bridge_powered": [
        {
            "key": {
                "F": {
                    "item": "minecraft:redstone_torch"
                },
                "W": {
                    "item": "mcwbridges:oak_rail_bridge"
                }
            },
            "pattern": [
                "FWF"
            ],
            "count": 1
        }
    ],
    "mcwbridges:orange_sandstone_bridge": [
        {
            "key": {
                "F": {
                    "item": "minecraft:red_sandstone_wall"
                },
                "W": {
                    "item": "minecraft:red_sandstone_slab"
                }
            },
            "pattern": [
                "F F",
                "WWW"
            ],
            "count": 4
        }
    ],
    "mcwbridges:orange_sandstone_bridge_end": [
        {
            "key": {
                "W": {
                    "item": "mcwbridges:orange_sandstone_bridge"
                }
            },
            "pattern": [
                "W"
            ],
            "count": 1
        }
    ],
    "mcwbridges:rope_acacia_bridge": [
        {
            "key": {
                "F": {
                    "item": "minecraft:string"
                },
                "W": {
                    "item": "minecraft:acacia_slab"
                }
            },
            "pattern": [
                "F F",
                "WWW"
            ],
            "count": 4
        }
    ],
    "mcwbridges:rope_acacia_bridge_end": [
        {
            "key": {
                "F": {
                    "item": "minecraft:acacia_fence"
                },
                "S": {
                    "item": "minecraft:string"
                },
                "W": {
                    "item": "minecraft:acacia_slab"
                }
            },
            "pattern": [
                "S S",
                "F F",
                "WWW"
            ],
            "count": 4
        }
    ],
    "mcwbridges:rope_birch_bridge": [
        {
            "key": {
                "F": {
                    "item": "minecraft:string"
                },
                "W": {
                    "item": "minecraft:birch_slab"
                }
            },
            "pattern": [
                "F F",
                "WWW"
            ],
            "count": 4
        }
    ],
    "mcwbridges:rope_birch_bridge_end": [
        {
            "key": {
                "F": {
                    "item": "minecraft:birch_fence"
                },
                "S": {
                    "item": "minecraft:string"
                },
                "W": {
                    "item": "minecraft:birch_slab"
                }
            },
            "pattern": [
                "S S",
                "F F",
                "WWW"
            ],
            "count": 4
        }
    ],
    "mcwbridges:rope_crimson_bridge": [
        {
            "key": {
                "F": {
                    "item": "minecraft:string"
                },
                "W": {
                    "item": "minecraft:crimson_slab"
                }
            },
            "pattern": [
                "F F",
                "WWW"
            ],
            "count": 4
        }
    ],
    "mcwbridges:rope_crimson_bridge_end": [
        {
            "key": {
                "F": {
                    "item": "minecraft:crimson_fence"
                },
                "S": {
                    "item": "minecraft:string"
                },
                "W": {
                    "item": "minecraft:crimson_slab"
                }
            },
            "pattern": [
                "S S",
                "F F",
                "WWW"
            ],
            "count": 4
        }
    ],
    "mcwbridges:rope_dark_oak_bridge": [
        {
            "key": {
                "F": {
                    "item": "minecraft:string"
                },
                "W": {
                    "item": "minecraft:dark_oak_slab"
                }
            },
            "pattern": [
                "F F",
                "WWW"
            ],
            "count": 4
        }
    ],
    "mcwbridges:rope_dark_oak_bridge_end": [
        {
            "key": {
                "F": {
                    "item": "minecraft:dark_oak_fence"
                },
                "S": {
                    "item": "minecraft:string"
                },
                "W": {
                    "item": "minecraft:dark_oak_slab"
                }
            },
            "pattern": [
                "S S",
                "F F",
                "WWW"
            ],
            "count": 4
        }
    ],
    "mcwbridges:rope_jungle_bridge": [
        {
            "key": {
                "F": {
                    "item": "minecraft:string"
                },
                "W": {
                    "item": "minecraft:jungle_slab"
                }
            },
            "pattern": [
                "F F",
                "WWW"
            ],
            "count": 4
        }
    ],
    "mcwbridges:rope_jungle_bridge_end": [
        {
            "key": {
                "F": {
                    "item": "minecraft:jungle_fence"
                },
                "S": {
                    "item": "minecraft:string"
                },
                "W": {
                    "item": "minecraft:jungle_slab"
                }
            },
            "pattern": [
                "S S",
                "F F",
                "WWW"
            ],
            "count": 4
        }
    ],
    "mcwbridges:rope_oak_bridge": [
        {
            "key": {
                "F": {
                    "item": "minecraft:string"
                },
                "W": {
                    "item": "minecraft:oak_slab"
                }
            },
            "pattern": [
                "F F",
                "WWW"
            ],
            "count": 4
        }
    ],
    "mcwbridges:rope_oak_bridge_end": [
        {
            "key": {
                "F": {
                    "item": "minecraft:oak_fence"
                },
                "S": {
                    "item": "minecraft:string"
                },
                "W": {
                    "item": "minecraft:oak_slab"
                }
            },
            "pattern": [
                "S S",
                "F F",
                "WWW"
            ],
            "count": 4
        }
    ],
    "mcwbridges:rope_spruce_bridge": [
        {
            "key": {
                "F": {
                    "item": "minecraft:string"
                },
                "W": {
                    "item": "minecraft:spruce_slab"
                }
            },
            "pattern": [
                "F F",
                "WWW"
            ],
            "count": 4
        }
    ],
    "mcwbridges:rope_spruce_bridge_end": [
        {
            "key": {
                "F": {
                    "item": "minecraft:spruce_fence"
                },
                "S": {
                    "item": "minecraft:string"
                },
                "W": {
                    "item": "minecraft:spruce_slab"
                }
            },
            "pattern": [
                "S S",
                "F F",
                "WWW"
            ],
            "count": 4
        }
    ],
    "mcwbridges:rope_warped_bridge": [
        {
            "key": {
                "F": {
                    "item": "minecraft:string"
                },
                "W": {
                    "item": "minecraft:warped_slab"
                }
            },
            "pattern": [
                "F F",
                "WWW"
            ],
            "count": 4
        }
    ],
    "mcwbridges:rope_warped_bridge_end": [
        {
            "key": {
                "F": {
                    "item": "minecraft:warped_fence"
                },
                "S": {
                    "item": "minecraft:string"
                },
                "W": {
                    "item": "minecraft:warped_slab"
                }
            },
            "pattern": [
                "S S",
                "F F",
                "WWW"
            ],
            "count": 4
        }
    ],
    "mcwbridges:sandstone_bridge": [
        {
            "key": {
                "F": {
                    "item": "minecraft:sandstone_wall"
                },
                "W": {
                    "item": "minecraft:sandstone_slab"
                }
            },
            "pattern": [
                "F F",
                "WWW"
            ],
            "count": 4
        }
    ],
    "mcwbridges:sandstone_bridge_end": [
        {
            "key": {
                "W": {
                    "item": "mcwbridges:sandstone_bridge"
                }
            },
            "pattern": [
                "W"
            ],
            "count": 1
        }
    ],
    "mcwbridges:spruce_log_bridge_end": [
        {
            "key": {
                "W": {
                    "item": "mcwbridges:spruce_log_bridge_middle"
                }
            },
            "pattern": [
                "W"
            ],
            "count": 1
        }
    ],
    "mcwbridges:spruce_log_bridge_middle": [
        {
            "key": {
                "F": {
                    "item": "minecraft:spruce_fence"
                },
                "W": {
                    "item": "minecraft:spruce_slab"
                }
            },
            "pattern": [
                "F F",
                "WWW"
            ],
            "count": 4
        }
    ],
    "mcwbridges:spruce_rail_bridge": [
        {
            "key": {
                "F": {
                    "item": "minecraft:spruce_fence"
                },
                "W": {
                    "item": "minecraft:spruce_slab"
                }
            },
            "pattern": [
                "F F",
                "FWF"
            ],
            "count": 4
        }
    ],
    "mcwbridges:spruce_rail_bridge_powered": [
        {
            "key": {
                "F": {
                    "item": "minecraft:redstone_torch"
                },
                "W": {
                    "item": "mcwbridges:spruce_rail_bridge"
                }
            },
            "pattern": [
                "FWF"
            ],
            "count": 1
        }
    ],
    "mcwbridges:stone_brick_bridge": [
        {
            "key": {
                "F": {
                    "item": "minecraft:stone_brick_wall"
                },
                "W": {
                    "item": "minecraft:stone_brick_slab"
                }
            },
            "pattern": [
                "F F",
                "WWW"
            ],
            "count": 4
        }
    ],
    "mcwbridges:stone_brick_bridge_end": [
        {
            "key": {
                "W": {
                    "item": "mcwbridges:stone_brick_bridge"
                }
            },
            "pattern": [
                "W"
            ],
            "count": 1
        }
    ],
    "mcwbridges:warped_log_bridge_end": [
        {
            "key": {
                "W": {
                    "item": "mcwbridges:warped_log_bridge_middle"
                }
            },
            "pattern": [
                "W"
            ],
            "count": 1
        }
    ],
    "mcwbridges:warped_log_bridge_middle": [
        {
            "key": {
                "F": {
                    "item": "minecraft:warped_fence"
                },
                "W": {
                    "item": "minecraft:warped_slab"
                }
            },
            "pattern": [
                "F F",
                "WWW"
            ],
            "count": 4
        }
    ],
    "mcwbridges:warped_rail_bridge": [
        {
            "key": {
                "F": {
                    "item": "minecraft:warped_fence"
                },
                "W": {
                    "item": "minecraft:warped_slab"
                }
            },
            "pattern": [
                "F F",
                "FWF"
            ],
            "count": 4
        }
    ],
    "mcwbridges:warped_rail_bridge_powered": [
        {
            "key": {
                "F": {
                    "item": "minecraft:redstone_torch"
                },
                "W": {
                    "item": "mcwbridges:warped_rail_bridge"
                }
            },
            "pattern": [
                "FWF"
            ],
            "count": 1
        }
    ]
}