{
    "mcwdoors:acacia_barn_door": [
        {
            "key": {
                "A": {
                    "item": "minecraft:acacia_planks"
                },
                "B": {
                    "item": "mcwdoors:acacia_barn_glass_door"
                }
            },
            "pattern": [
                "A",
                "B"
            ],
            "count": 1
        }
    ],
    "mcwdoors:acacia_barn_glass_door": [
        {
            "key": {
                "A": {
                    "item": "minecraft:acacia_planks"
                },
                "B": {
                    "item": "minecraft:glass_pane"
                }
            },
            "pattern": [
                "BB",
                "AA",
                "AA"
            ],
            "count": 3
        }
    ],
    "mcwdoors:acacia_beach_door": [
        {
            "key": {
                "A": {
                    "item": "minecraft:acacia_planks"
                },
                "B": {
                    "item": "mcwdoors:print_jungle"
                }
            },
            "pattern": [
                "A",
                "B",
                "A"
            ],
            "count": 1
        }
    ],
    "mcwdoors:acacia_classic_door": [
        {
            "key": {
                "A": {
                    "item": "minecraft:acacia_planks"
                },
                "B": {
                    "item": "mcwdoors:print_oak"
                }
            },
            "pattern": [
                "A",
                "B",
                "A"
            ],
            "count": 1
        }
    ],
    "mcwdoors:acacia_cottage_door": [
        {
            "key": {
                "A": {
                    "item": "minecraft:acacia_planks"
                },
                "B": {
                    "item": "mcwdoors:print_spruce"
                }
            },
            "pattern": [
                "A",
                "B",
                "A"
            ],
            "count": 1
        }
    ],
    "mcwdoors:acacia_four_panel_door": [
        {
            "key": {
                "A": {
                    "item": "minecraft:acacia_planks"
                },
                "B": {
                    "item": "mcwdoors:print_dark_oak"
                }
            },
            "pattern": [
                "A",
                "B",
                "A"
            ],
            "count": 1
        }
    ],
    "mcwdoors:acacia_glass_door": [
        {
            "key": {
                "A": {
                    "item": "minecraft:acacia_planks"
                },
                "B": {
                    "item": "minecraft:glass_pane"
                }
            },
            "pattern": [
                "AB",
                "BB",
                "AB"
            ],
            "count": 3
        }
    ],
    "mcwdoors:acacia_japanese2_door": [
        {
            "key": {
                "A": {
                    "item": "minecraft:acacia_slab"
                },
                "B": {
                    "item": "minecraft:paper"
                }
            },
            "pattern": [
                "BB",
                "BB",
                "AA"
            ],
            "count": 3
        }
    ],
    "mcwdoors:acacia_japanese_door": [
        {
            "key": {
                "A": {
                    "item": "minecraft:acacia_planks"
                },
                "B": {
                    "item": "minecraft:paper"
                }
            },
            "pattern": [
                "BB",
                "BB",
                "AA"
            ],
            "count": 3
        }
    ],
    "mcwdoors:acacia_modern_door": [
        {
            "key": {
                "A": {
                    "item": "minecraft:acacia_planks"
                },
                "B": {
                    "item": "minecraft:glass_pane"
                }
            },
            "pattern": [
                "AB",
                "AA",
                "AB"
            ],
            "count": 3
        }
    ],
    "mcwdoors:acacia_mystic_door": [
        {
            "key": {
                "A": {
                    "item": "minecraft:acacia_planks"
                },
                "B": {
                    "item": "mcwdoors:print_mystic"
                }
            },
            "pattern": [
                "A",
                "B",
                "A"
            ],
            "count": 1
        }
    ],
    "mcwdoors:acacia_nether_door": [
        {
            "key": {
                "A": {
                    "item": "minecraft:acacia_planks"
                },
                "B": {
                    "item": "mcwdoors:print_nether"
                }
            },
            "pattern": [
                "A",
                "B",
                "A"
            ],
            "count": 1
        }
    ],
    "mcwdoors:acacia_paper_door": [
        {
            "key": {
                "A": {
                    "item": "minecraft:acacia_planks"
                },
                "B": {
                    "item": "mcwdoors:print_birch"
                }
            },
            "pattern": [
                "A",
                "B",
                "A"
            ],
            "count": 1
        }
    ],
    "mcwdoors:acacia_stable_door": [
        {
            "key": {
                "A": {
                    "item": "minecraft:acacia_planks"
                },
                "B": {
                    "item": "minecraft:iron_bars"
                }
            },
            "pattern": [
                "BB",
                "AA",
                "AA"
            ],
            "count": 3
        }
    ],
    "mcwdoors:acacia_stable_head_door": [
        {
            "key": {
                "A": {
                    "item": "mcwdoors:acacia_stable_door"
                }
            },
            "pattern": [
                "A"
            ],
            "count": 1
        }
    ],
    "mcwdoors:acacia_western_door": [
        {
            "key": {
                "A": {
                    "item": "minecraft:acacia_planks"
                },
                "B": {
                    "item": "minecraft:acacia_slab"
                }
            },
            "pattern": [
                "  A",
                "ABA",
                "AAA"
            ],
            "count": 3
        }
    ],
    "mcwdoors:birch_barn_door": [
        {
            "key": {
                "A": {
                    "item": "minecraft:birch_planks"
                },
                "B": {
                    "item": "mcwdoors:birch_barn_glass_door"
                }
            },
            "pattern": [
                "A",
                "B"
            ],
            "count": 1
        }
    ],
    "mcwdoors:birch_barn_glass_door": [
        {
            "key": {
                "A": {
                    "item": "minecraft:birch_planks"
                },
                "B": {
                    "item": "minecraft:glass_pane"
                }
            },
            "pattern": [
                "BB",
                "AA",
                "AA"
            ],
            "count": 3
        }
    ],
    "mcwdoors:birch_beach_door": [
        {
            "key": {
                "A": {
                    "item": "minecraft:birch_planks"
                },
                "B": {
                    "item": "mcwdoors:print_jungle"
                }
            },
            "pattern": [
                "A",
                "B",
                "A"
            ],
            "count": 1
        }
    ],
    "mcwdoors:birch_classic_door": [
        {
            "key": {
                "A": {
                    "item": "minecraft:birch_planks"
                },
                "B": {
                    "item": "mcwdoors:print_oak"
                }
            },
            "pattern": [
                "A",
                "B",
                "A"
            ],
            "count": 1
        }
    ],
    "mcwdoors:birch_cottage_door": [
        {
            "key": {
                "A": {
                    "item": "minecraft:birch_planks"
                },
                "B": {
                    "item": "mcwdoors:print_spruce"
                }
            },
            "pattern": [
                "A",
                "B",
                "A"
            ],
            "count": 1
        }
    ],
    "mcwdoors:birch_four_panel_door": [
        {
            "key": {
                "A": {
                    "item": "minecraft:birch_planks"
                },
                "B": {
                    "item": "mcwdoors:print_dark_oak"
                }
            },
            "pattern": [
                "A",
                "B",
                "A"
            ],
            "count": 1
        }
    ],
    "mcwdoors:birch_glass_door": [
        {
            "key": {
                "A": {
                    "item": "minecraft:birch_planks"
                },
                "B": {
                    "item": "minecraft:glass_pane"
                }
            },
            "pattern": [
                "AB",
                "BB",
                "AB"
            ],
            "count": 3
        }
    ],
    "mcwdoors:birch_japanese2_door": [
        {
            "key": {
                "A": {
                    "item": "minecraft:birch_slab"
                },
                "B": {
                    "item": "minecraft:paper"
                }
            },
            "pattern": [
                "BB",
                "BB",
                "AA"
            ],
            "count": 3
        }
    ],
    "mcwdoors:birch_japanese_door": [
        {
            "key": {
                "A": {
                    "item": "minecraft:birch_planks"
                },
                "B": {
                    "item": "minecraft:paper"
                }
            },
            "pattern": [
                "BB",
                "BB",
                "AA"
            ],
            "count": 3
        }
    ],
    "mcwdoors:birch_modern_door": [
        {
            "key": {
                "A": {
                    "item": "minecraft:birch_planks"
                },
                "B": {
                    "item": "minecraft:glass_pane"
                }
            },
            "pattern": [
                "AB",
                "AA",
                "AB"
            ],
            "count": 3
        }
    ],
    "mcwdoors:birch_mystic_door": [
        {
            "key": {
                "A": {
                    "item": "minecraft:birch_planks"
                },
                "B": {
                    "item": "mcwdoors:print_mystic"
                }
            },
            "pattern": [
                "A",
                "B",
                "A"
            ],
            "count": 1
        }
    ],
    "mcwdoors:birch_nether_door": [
        {
            "key": {
                "A": {
                    "item": "minecraft:birch_planks"
                },
                "B": {
                    "item": "mcwdoors:print_nether"
                }
            },
            "pattern": [
                "A",
                "B",
                "A"
            ],
            "count": 1
        }
    ],
    "mcwdoors:birch_stable_door": [
        {
            "key": {
                "A": {
                    "item": "minecraft:birch_planks"
                },
                "B": {
                    "item": "minecraft:iron_bars"
                }
            },
            "pattern": [
                "BB",
                "AA",
                "AA"
            ],
            "count": 3
        }
    ],
    "mcwdoors:birch_stable_head_door": [
        {
            "key": {
                "A": {
                    "item": "mcwdoors:birch_stable_door"
                }
            },
            "pattern": [
                "A"
            ],
            "count": 1
        }
    ],
    "mcwdoors:birch_tropical_door": [
        {
            "key": {
                "A": {
                    "item": "minecraft:birch_planks"
                },
                "B": {
                    "item": "mcwdoors:print_acacia"
                }
            },
            "pattern": [
                "A",
                "B",
                "A"
            ],
            "count": 1
        }
    ],
    "mcwdoors:birch_western_door": [
        {
            "key": {
                "A": {
                    "item": "minecraft:birch_planks"
                },
                "B": {
                    "item": "minecraft:birch_slab"
                }
            },
            "pattern": [
                "  A",
                "ABA",
                "AAA"
            ],
            "count": 3
        }
    ],
    "mcwdoors:crimson_barn_door": [
        {
            "key": {
                "A": {
                    "item": "minecraft:crimson_planks"
                },
                "B": {
                    "item": "mcwdoors:crimson_barn_glass_door"
                }
            },
            "pattern": [
                "A",
                "B"
            ],
            "count": 1
        }
    ],
    "mcwdoors:crimson_barn_glass_door": [
        {
            "key": {
                "A": {
                    "item": "minecraft:crimson_planks"
                },
                "B": {
                    "item": "minecraft:glass_pane"
                }
            },
            "pattern": [
                "BB",
                "AA",
                "AA"
            ],
            "count": 3
        }
    ],
    "mcwdoors:crimson_beach_door": [
        {
            "key": {
                "A": {
                    "item": "minecraft:crimson_planks"
                },
                "B": {
                    "item": "mcwdoors:print_jungle"
                }
            },
            "pattern": [
                "A",
                "B",
                "A"
            ],
            "count": 1
        }
    ],
    "mcwdoors:crimson_classic_door": [
        {
            "key": {
                "A": {
                    "item": "minecraft:crimson_planks"
                },
                "B": {
                    "item": "mcwdoors:print_oak"
                }
            },
            "pattern": [
                "A",
                "B",
                "A"
            ],
            "count": 1
        }
    ],
    "mcwdoors:crimson_cottage_door": [
        {
            "key": {
                "A": {
                    "item": "minecraft:crimson_planks"
                },
                "B": {
                    "item": "mcwdoors:print_spruce"
                }
            },
            "pattern": [
                "A",
                "B",
                "A"
            ],
            "count": 1
        }
    ],
    "mcwdoors:crimson_four_panel_door": [
        {
            "key": {
                "A": {
                    "item": "minecraft:crimson_planks"
                },
                "B": {
                    "item": "mcwdoors:print_dark_oak"
                }
            },
            "pattern": [
                "A",
                "B",
                "A"
            ],
            "count": 1
        }
    ],
    "mcwdoors:crimson_glass_door": [
        {
            "key": {
                "A": {
                    "item": "minecraft:crimson_planks"
                },
                "B": {
                    "item": "minecraft:glass_pane"
                }
            },
            "pattern": [
                "AB",
                "BB",
                "AB"
            ],
            "count": 3
        }
    ],
    "mcwdoors:crimson_japanese2_door": [
        {
            "key": {
                "A": {
                    "item": "minecraft:crimson_slab"
                },
                "B": {
                    "item": "minecraft:paper"
                }
            },
            "pattern": [
                "BB",
                "BB",
                "AA"
            ],
            "count": 3
        }
    ],
    "mcwdoors:crimson_japanese_door": [
        {
            "key": {
                "A": {
                    "item": "minecraft:crimson_planks"
                },
                "B": {
                    "item": "minecraft:paper"
                }
            },
            "pattern": [
                "BB",
                "BB",
                "AA"
            ],
            "count": 3
        }
    ],
    "mcwdoors:crimson_modern_door": [
        {
            "key": {
                "A": {
                    "item": "minecraft:crimson_planks"
                },
                "B": {
                    "item": "minecraft:glass_pane"
                }
            },
            "pattern": [
                "AB",
                "AA",
                "AB"
            ],
            "count": 3
        }
    ],
    "mcwdoors:crimson_mystic_door": [
        {
            "key": {
                "A": {
                    "item": "minecraft:crimson_planks"
                },
                "B": {
                    "item": "mcwdoors:print_mystic"
                }
            },
            "pattern": [
                "A",
                "B",
                "A"
            ],
            "count": 1
        }
    ],
    "mcwdoors:crimson_paper_door": [
        {
            "key": {
                "A": {
                    "item": "minecraft:crimson_planks"
                },
                "B": {
                    "item": "mcwdoors:print_nether"
                }
            },
            "pattern": [
                "A",
                "B",
                "A"
            ],
            "count": 1
        },
        {
            "key": {
                "A": {
                    "item": "minecraft:crimson_planks"
                },
                "B": {
                    "item": "mcwdoors:print_birch"
                }
            },
            "pattern": [
                "A",
                "B",
                "A"
            ],
            "count": 1
        }
    ],
    "mcwdoors:crimson_stable_door": [
        {
            "key": {
                "A": {
                    "item": "minecraft:crimson_planks"
                },
                "B": {
                    "item": "minecraft:iron_bars"
                }
            },
            "pattern": [
                "BB",
                "AA",
                "AA"
            ],
            "count": 3
        }
    ],
    "mcwdoors:crimson_stable_head_door": [
        {
            "key": {
                "A": {
                    "item": "mcwdoors:crimson_stable_door"
                }
            },
            "pattern": [
                "A"
            ],
            "count": 1
        }
    ],
    "mcwdoors:crimson_tropical_door": [
        {
            "key": {
                "A": {
                    "item": "minecraft:crimson_planks"
                },
                "B": {
                    "item": "mcwdoors:print_acacia"
                }
            },
            "pattern": [
                "A",
                "B",
                "A"
            ],
            "count": 1
        }
    ],
    "mcwdoors:crimson_western_door": [
        {
            "key": {
                "A": {
                    "item": "minecraft:crimson_planks"
                },
                "B": {
                    "item": "minecraft:crimson_slab"
                }
            },
            "pattern": [
                "  A",
                "ABA",
                "AAA"
            ],
            "count": 3
        }
    ],
    "mcwdoors:dark_oak_barn_door": [
        {
            "key": {
                "A": {
                    "item": "minecraft:dark_oak_planks"
                },
                "B": {
                    "item": "mcwdoors:dark_oak_barn_glass_door"
                }
            },
            "pattern": [
                "A",
                "B"
            ],
            "count": 1
        }
    ],
    "mcwdoors:dark_oak_barn_glass_door": [
        {
            "key": {
                "A": {
                    "item": "minecraft:dark_oak_planks"
                },
                "B": {
                    "item": "minecraft:glass_pane"
                }
            },
            "pattern": [
                "BB",
                "AA",
                "AA"
            ],
            "count": 3
        }
    ],
    "mcwdoors:dark_oak_beach_door": [
        {
            "key": {
                "A": {
                    "item": "minecraft:dark_oak_planks"
                },
                "B": {
                    "item": "mcwdoors:print_jungle"
                }
            },
            "pattern": [
                "A",
                "B",
                "A"
            ],
            "count": 1
        }
    ],
    "mcwdoors:dark_oak_classic_door": [
        {
            "key": {
                "A": {
                    "item": "minecraft:dark_oak_planks"
                },
                "B": {
                    "item": "mcwdoors:print_oak"
                }
            },
            "pattern": [
                "A",
                "B",
                "A"
            ],
            "count": 1
        }
    ],
    "mcwdoors:dark_oak_cottage_door": [
        {
            "key": {
                "A": {
                    "item": "minecraft:dark_oak_planks"
                },
                "B": {
                    "item": "mcwdoors:print_spruce"
                }
            },
            "pattern": [
                "A",
                "B",
                "A"
            ],
            "count": 1
        }
    ],
    "mcwdoors:dark_oak_glass_door": [
        {
            "key": {
                "A": {
                    "item": "minecraft:dark_oak_planks"
                },
                "B": {
                    "item": "minecraft:glass_pane"
                }
            },
            "pattern": [
                "AB",
                "BB",
                "AB"
            ],
            "count": 3
        }
    ],
    "mcwdoors:dark_oak_japanese2_door": [
        {
            "key": {
                "A": {
                    "item": "minecraft:dark_oak_slab"
                },
                "B": {
                    "item": "minecraft:paper"
                }
            },
            "pattern": [
                "BB",
                "BB",
                "AA"
            ],
            "count": 3
        }
    ],
    "mcwdoors:dark_oak_japanese_door": [
        {
            "key": {
                "A": {
                    "item": "minecraft:dark_oak_planks"
                },
                "B": {
                    "item": "minecraft:paper"
                }
            },
            "pattern": [
                "BB",
                "BB",
                "AA"
            ],
            "count": 3
        }
    ],
    "mcwdoors:dark_oak_modern_door": [
        {
            "key": {
                "A": {
                    "item": "minecraft:dark_oak_planks"
                },
                "B": {
                    "item": "minecraft:glass_pane"
                }
            },
            "pattern": [
                "AB",
                "AA",
                "AB"
            ],
            "count": 3
        }
    ],
    "mcwdoors:dark_oak_mystic_door": [
        {
            "key": {
                "A": {
                    "item": "minecraft:dark_oak_planks"
                },
                "B": {
                    "item": "mcwdoors:print_mystic"
                }
            },
            "pattern": [
                "A",
                "B",
                "A"
            ],
            "count": 1
        }
    ],
    "mcwdoors:dark_oak_nether_door": [
        {
            "key": {
                "A": {
                    "item": "minecraft:dark_oak_planks"
                },
                "B": {
                    "item": "mcwdoors:print_nether"
                }
            },
            "pattern": [
                "A",
                "B",
                "A"
            ],
            "count": 1
        }
    ],
    "mcwdoors:dark_oak_paper_door": [
        {
            "key": {
                "A": {
                    "item": "minecraft:dark_oak_planks"
                },
                "B": {
                    "item": "mcwdoors:print_birch"
                }
            },
            "pattern": [
                "A",
                "B",
                "A"
            ],
            "count": 1
        }
    ],
    "mcwdoors:dark_oak_stable_door": [
        {
            "key": {
                "A": {
                    "item": "minecraft:dark_oak_planks"
                },
                "B": {
                    "item": "minecraft:iron_bars"
                }
            },
            "pattern": [
                "BB",
                "AA",
                "AA"
            ],
            "count": 3
        }
    ],
    "mcwdoors:dark_oak_stable_head_door": [
        {
            "key": {
                "A": {
                    "item": "mcwdoors:dark_oak_stable_door"
                }
            },
            "pattern": [
                "A"
            ],
            "count": 1
        }
    ],
    "mcwdoors:dark_oak_tropical_door": [
        {
            "key": {
                "A": {
                    "item": "minecraft:dark_oak_planks"
                },
                "B": {
                    "item": "mcwdoors:print_acacia"
                }
            },
            "pattern": [
                "A",
                "B",
                "A"
            ],
            "count": 1
        }
    ],
    "mcwdoors:dark_oak_western_door": [
        {
            "key": {
                "A": {
                    "item": "minecraft:dark_oak_planks"
                },
                "B": {
                    "item": "minecraft:dark_oak_slab"
                }
            },
            "pattern": [
                "  A",
                "ABA",
                "AAA"
            ],
            "count": 3
        }
    ],
    "mcwdoors:jail_door": [
        {
            "key": {
                "B": {
                    "item": "minecraft:iron_bars"
                }
            },
            "pattern": [
                "BB",
                "BB",
                "BB"
            ],
            "count": 1
        }
    ],
    "mcwdoors:jungle_barn_door": [
        {
            "key": {
                "A": {
                    "item": "minecraft:jungle_planks"
                },
                "B": {
                    "item": "mcwdoors:jungle_barn_glass_door"
                }
            },
            "pattern": [
                "A",
                "B"
            ],
            "count": 1
        }
    ],
    "mcwdoors:jungle_barn_glass_door": [
        {
            "key": {
                "A": {
                    "item": "minecraft:jungle_planks"
                },
                "B": {
                    "item": "minecraft:glass_pane"
                }
            },
            "pattern": [
                "BB",
                "AA",
                "AA"
            ],
            "count": 3
        }
    ],
    "mcwdoors:jungle_classic_door": [
        {
            "key": {
                "A": {
                    "item": "minecraft:jungle_planks"
                },
                "B": {
                    "item": "mcwdoors:print_oak"
                }
            },
            "pattern": [
                "A",
                "B",
                "A"
            ],
            "count": 1
        }
    ],
    "mcwdoors:jungle_cottage_door": [
        {
            "key": {
                "A": {
                    "item": "minecraft:jungle_planks"
                },
                "B": {
                    "item": "mcwdoors:print_spruce"
                }
            },
            "pattern": [
                "A",
                "B",
                "A"
            ],
            "count": 1
        }
    ],
    "mcwdoors:jungle_four_panel_door": [
        {
            "key": {
                "A": {
                    "item": "minecraft:jungle_planks"
                },
                "B": {
                    "item": "mcwdoors:print_dark_oak"
                }
            },
            "pattern": [
                "A",
                "B",
                "A"
            ],
            "count": 1
        }
    ],
    "mcwdoors:jungle_glass_door": [
        {
            "key": {
                "A": {
                    "item": "minecraft:jungle_planks"
                },
                "B": {
                    "item": "minecraft:glass_pane"
                }
            },
            "pattern": [
                "AB",
                "BB",
                "AB"
            ],
            "count": 3
        }
    ],
    "mcwdoors:jungle_japanese2_door": [
        {
            "key": {
                "A": {
                    "item": "minecraft:jungle_slab"
                },
                "B": {
                    "item": "minecraft:paper"
                }
            },
            "pattern": [
                "BB",
                "BB",
                "AA"
            ],
            "count": 3
        }
    ],
    "mcwdoors:jungle_japanese_door": [
        {
            "key": {
                "A": {
                    "item": "minecraft:jungle_planks"
                },
                "B": {
                    "item": "minecraft:paper"
                }
            },
            "pattern": [
                "BB",
                "BB",
                "AA"
            ],
            "count": 3
        }
    ],
    "mcwdoors:jungle_modern_door": [
        {
            "key": {
                "A": {
                    "item": "minecraft:jungle_planks"
                },
                "B": {
                    "item": "minecraft:glass_pane"
                }
            },
            "pattern": [
                "AB",
                "AA",
                "AB"
            ],
            "count": 3
        }
    ],
    "mcwdoors:jungle_mystic_door": [
        {
            "key": {
                "A": {
                    "item": "minecraft:jungle_planks"
                },
                "B": {
                    "item": "mcwdoors:print_mystic"
                }
            },
            "pattern": [
                "A",
                "B",
                "A"
            ],
            "count": 1
        }
    ],
    "mcwdoors:jungle_nether_door": [
        {
            "key": {
                "A": {
                    "item": "minecraft:jungle_planks"
                },
                "B": {
                    "item": "mcwdoors:print_nether"
                }
            },
            "pattern": [
                "A",
                "B",
                "A"
            ],
            "count": 1
        }
    ],
    "mcwdoors:jungle_paper_door": [
        {
            "key": {
                "A": {
                    "item": "minecraft:jungle_planks"
                },
                "B": {
                    "item": "mcwdoors:print_birch"
                }
            },
            "pattern": [
                "A",
                "B",
                "A"
            ],
            "count": 1
        }
    ],
    "mcwdoors:jungle_stable_door": [
        {
            "key": {
                "A": {
                    "item": "minecraft:jungle_planks"
                },
                "B": {
                    "item": "minecraft:iron_bars"
                }
            },
            "pattern": [
                "BB",
                "AA",
                "AA"
            ],
            "count": 3
        }
    ],
    "mcwdoors:jungle_stable_head_door": [
        {
            "key": {
                "A": {
                    "item": "mcwdoors:jungle_stable_door"
                }
            },
            "pattern": [
                "A"
            ],
            "count": 1
        }
    ],
    "mcwdoors:jungle_tropical_door": [
        {
            "key": {
                "A": {
                    "item": "minecraft:jungle_planks"
                },
                "B": {
                    "item": "mcwdoors:print_acacia"
                }
            },
            "pattern": [
                "A",
                "B",
                "A"
            ],
            "count": 1
        }
    ],
    "mcwdoors:jungle_western_door": [
        {
            "key": {
                "A": {
                    "item": "minecraft:jungle_planks"
                },
                "B": {
                    "item": "minecraft:jungle_slab"
                }
            },
            "pattern": [
                "  A",
                "ABA",
                "AAA"
            ],
            "count": 3
        }
    ],
    "mcwdoors:metal_door": [
        {
            "key": {
                "B": {
                    "item": "minecraft:iron_nugget"
                },
                "A": {
                    "item": "minecraft:iron_ingot"
                }
            },
            "pattern": [
                "AA",
                "AB",
                "AA"
            ],
            "count": 2
        }
    ],
    "mcwdoors:metal_hospital_door": [
        {
            "key": {
                "B": {
                    "item": "minecraft:iron_nugget"
                },
                "A": {
                    "item": "minecraft:iron_ingot"
                },
                "C": {
                    "item": "minecraft:glass_pane"
                }
            },
            "pattern": [
                "CA",
                "BB",
                "AA"
            ],
            "count": 2
        }
    ],
    "mcwdoors:metal_reinforced_door": [
        {
            "key": {
                "A": {
                    "item": "minecraft:iron_nugget"
                },
                "B": {
                    "item": "mcwdoors:metal_door"
                }
            },
            "pattern": [
                "AAA",
                "ABA",
                "AAA"
            ],
            "count": 1
        }
    ],
    "mcwdoors:metal_warning_door": [
        {
            "key": {
                "B": {
                    "item": "mcwdoors:metal_windowed_door"
                },
                "A": {
                    "item": "minecraft:iron_nugget"
                }
            },
            "pattern": [
                "ABA"
            ],
            "count": 1
        }
    ],
    "mcwdoors:metal_windowed_door": [
        {
            "key": {
                "B": {
                    "item": "minecraft:glass_pane"
                },
                "A": {
                    "item": "mcwdoors:metal_door"
                }
            },
            "pattern": [
                "B",
                "A"
            ],
            "count": 1
        }
    ],
    "mcwdoors:oak_barn_door": [
        {
            "key": {
                "A": {
                    "item": "minecraft:oak_planks"
                },
                "B": {
                    "item": "mcwdoors:oak_barn_glass_door"
                }
            },
            "pattern": [
                "A",
                "B"
            ],
            "count": 1
        }
    ],
    "mcwdoors:oak_barn_glass_door": [
        {
            "key": {
                "A": {
                    "item": "minecraft:oak_planks"
                },
                "B": {
                    "item": "minecraft:glass_pane"
                }
            },
            "pattern": [
                "BB",
                "AA",
                "AA"
            ],
            "count": 3
        }
    ],
    "mcwdoors:oak_beach_door": [
        {
            "key": {
                "A": {
                    "item": "minecraft:oak_planks"
                },
                "B": {
                    "item": "mcwdoors:print_jungle"
                }
            },
            "pattern": [
                "A",
                "B",
                "A"
            ],
            "count": 1
        }
    ],
    "mcwdoors:oak_cottage_door": [
        {
            "key": {
                "A": {
                    "item": "minecraft:oak_planks"
                },
                "B": {
                    "item": "mcwdoors:print_spruce"
                }
            },
            "pattern": [
                "A",
                "B",
                "A"
            ],
            "count": 1
        }
    ],
    "mcwdoors:oak_four_panel_door": [
        {
            "key": {
                "A": {
                    "item": "minecraft:oak_planks"
                },
                "B": {
                    "item": "mcwdoors:print_dark_oak"
                }
            },
            "pattern": [
                "A",
                "B",
                "A"
            ],
            "count": 1
        }
    ],
    "mcwdoors:oak_glass_door": [
        {
            "key": {
                "A": {
                    "item": "minecraft:oak_planks"
                },
                "B": {
                    "item": "minecraft:glass_pane"
                }
            },
            "pattern": [
                "AB",
                "BB",
                "AB"
            ],
            "count": 3
        }
    ],
    "mcwdoors:oak_japanese2_door": [
        {
            "key": {
                "A": {
                    "item": "minecraft:oak_slab"
                },
                "B": {
                    "item": "minecraft:paper"
                }
            },
            "pattern": [
                "BB",
                "BB",
                "AA"
            ],
            "count": 3
        }
    ],
    "mcwdoors:oak_japanese_door": [
        {
            "key": {
                "A": {
                    "item": "minecraft:oak_planks"
                },
                "B": {
                    "item": "minecraft:paper"
                }
            },
            "pattern": [
                "BB",
                "BB",
                "AA"
            ],
            "count": 3
        }
    ],
    "mcwdoors:oak_modern_door": [
        {
            "key": {
                "A": {
                    "item": "minecraft:oak_planks"
                },
                "B": {
                    "item": "minecraft:glass_pane"
                }
            },
            "pattern": [
                "AB",
                "AA",
                "AB"
            ],
            "count": 3
        }
    ],
    "mcwdoors:oak_mystic_door": [
        {
            "key": {
                "A": {
                    "item": "minecraft:oak_planks"
                },
                "B": {
                    "item": "mcwdoors:print_mystic"
                }
            },
            "pattern": [
                "A",
                "B",
                "A"
            ],
            "count": 1
        }
    ],
    "mcwdoors:oak_nether_door": [
        {
            "key": {
                "A": {
                    "item": "minecraft:oak_planks"
                },
                "B": {
                    "item": "mcwdoors:print_nether"
                }
            },
            "pattern": [
                "A",
                "B",
                "A"
            ],
            "count": 1
        }
    ],
    "mcwdoors:oak_paper_door": [
        {
            "key": {
                "A": {
                    "item": "minecraft:oak_planks"
                },
                "B": {
                    "item": "mcwdoors:print_birch"
                }
            },
            "pattern": [
                "A",
                "B",
                "A"
            ],
            "count": 1
        }
    ],
    "mcwdoors:oak_stable_door": [
        {
            "key": {
                "A": {
                    "item": "minecraft:oak_planks"
                },
                "B": {
                    "item": "minecraft:iron_bars"
                }
            },
            "pattern": [
                "BB",
                "AA",
                "AA"
            ],
            "count": 3
        }
    ],
    "mcwdoors:oak_stable_head_door": [
        {
            "key": {
                "A": {
                    "item": "mcwdoors:oak_stable_door"
                }
            },
            "pattern": [
                "A"
            ],
            "count": 1
        }
    ],
    "mcwdoors:oak_tropical_door": [
        {
            "key": {
                "A": {
                    "item": "minecraft:oak_planks"
                },
                "B": {
                    "item": "mcwdoors:print_acacia"
                }
            },
            "pattern": [
                "A",
                "B",
                "A"
            ],
            "count": 1
        }
    ],
    "mcwdoors:oak_western_door": [
        {
            "key": {
                "A": {
                    "item": "minecraft:oak_planks"
                },
                "B": {
                    "item": "minecraft:oak_slab"
                }
            },
            "pattern": [
                "  A",
                "ABA",
                "AAA"
            ],
            "count": 3
        }
    ],
    "mcwdoors:print_acacia": [
        {
            "key": {
                "A": {
                    "item": "minecraft:paper"
                },
                "B": {
                    "item": "minecraft:acacia_door"
                }
            },
            "pattern": [
                " A ",
                "ABA",
                " A "
            ],
            "count": 4
        }
    ],
    "mcwdoors:print_birch": [
        {
            "key": {
                "A": {
                    "item": "minecraft:paper"
                },
                "B": {
                    "item": "minecraft:birch_door"
                }
            },
            "pattern": [
                " A ",
                "ABA",
                " A "
            ],
            "count": 4
        }
    ],
    "mcwdoors:print_dark_oak": [
        {
            "key": {
                "A": {
                    "item": "minecraft:paper"
                },
                "B": {
                    "item": "minecraft:dark_oak_door"
                }
            },
            "pattern": [
                " A ",
                "ABA",
                " A "
            ],
            "count": 4
        }
    ],
    "mcwdoors:print_jungle": [
        {
            "key": {
                "A": {
                    "item": "minecraft:paper"
                },
                "B": {
                    "item": "minecraft:jungle_door"
                }
            },
            "pattern": [
                " A ",
                "ABA",
                " A "
            ],
            "count": 4
        }
    ],
    "mcwdoors:print_mystic": [
        {
            "key": {
                "A": {
                    "item": "minecraft:paper"
                },
                "B": {
                    "item": "minecraft:warped_door"
                }
            },
            "pattern": [
                " A ",
                "ABA",
                " A "
            ],
            "count": 4
        }
    ],
    "mcwdoors:print_nether": [
        {
            "key": {
                "A": {
                    "item": "minecraft:paper"
                },
                "B": {
                    "item": "minecraft:crimson_door"
                }
            },
            "pattern": [
                " A ",
                "ABA",
                " A "
            ],
            "count": 4
        }
    ],
    "mcwdoors:print_oak": [
        {
            "key": {
                "A": {
                    "item": "minecraft:paper"
                },
                "B": {
                    "item": "minecraft:oak_door"
                }
            },
            "pattern": [
                " A ",
                "ABA",
                " A "
            ],
            "count": 4
        }
    ],
    "mcwdoors:print_spruce": [
        {
            "key": {
                "A": {
                    "item": "minecraft:paper"
                },
                "B": {
                    "item": "minecraft:spruce_door"
                }
            },
            "pattern": [
                " A ",
                "ABA",
                " A "
            ],
            "count": 4
        }
    ],
    "mcwdoors:spruce_barn_door": [
        {
            "key": {
                "A": {
                    "item": "minecraft:spruce_planks"
                },
                "B": {
                    "item": "mcwdoors:spruce_barn_glass_door"
                }
            },
            "pattern": [
                "A",
                "B"
            ],
            "count": 1
        }
    ],
    "mcwdoors:spruce_barn_glass_door": [
        {
            "key": {
                "A": {
                    "item": "minecraft:spruce_planks"
                },
                "B": {
                    "item": "minecraft:glass_pane"
                }
            },
            "pattern": [
                "BB",
                "AA",
                "AA"
            ],
            "count": 3
        }
    ],
    "mcwdoors:spruce_beach_door": [
        {
            "key": {
                "A": {
                    "item": "minecraft:spruce_planks"
                },
                "B": {
                    "item": "mcwdoors:print_jungle"
                }
            },
            "pattern": [
                "A",
                "B",
                "A"
            ],
            "count": 1
        }
    ],
    "mcwdoors:spruce_classic_door": [
        {
            "key": {
                "A": {
                    "item": "minecraft:spruce_planks"
                },
                "B": {
                    "item": "mcwdoors:print_oak"
                }
            },
            "pattern": [
                "A",
                "B",
                "A"
            ],
            "count": 1
        }
    ],
    "mcwdoors:spruce_four_panel_door": [
        {
            "key": {
                "A": {
                    "item": "minecraft:spruce_planks"
                },
                "B": {
                    "item": "mcwdoors:print_dark_oak"
                }
            },
            "pattern": [
                "A",
                "B",
                "A"
            ],
            "count": 1
        }
    ],
    "mcwdoors:spruce_glass_door": [
        {
            "key": {
                "A": {
                    "item": "minecraft:spruce_planks"
                },
                "B": {
                    "item": "minecraft:glass_pane"
                }
            },
            "pattern": [
                "AB",
                "BB",
                "AB"
            ],
            "count": 3
        }
    ],
    "mcwdoors:spruce_japanese2_door": [
        {
            "key": {
                "A": {
                    "item": "minecraft:spruce_slab"
                },
                "B": {
                    "item": "minecraft:paper"
                }
            },
            "pattern": [
                "BB",
                "BB",
                "AA"
            ],
            "count": 3
        }
    ],
    "mcwdoors:spruce_japanese_door": [
        {
            "key": {
                "A": {
                    "item": "minecraft:spruce_planks"
                },
                "B": {
                    "item": "minecraft:paper"
                }
            },
            "pattern": [
                "BB",
                "BB",
                "AA"
            ],
            "count": 3
        }
    ],
    "mcwdoors:spruce_modern_door": [
        {
            "key": {
                "A": {
                    "item": "minecraft:spruce_planks"
                },
                "B": {
                    "item": "minecraft:glass_pane"
                }
            },
            "pattern": [
                "AB",
                "AA",
                "AB"
            ],
            "count": 3
        }
    ],
    "mcwdoors:spruce_mystic_door": [
        {
            "key": {
                "A": {
                    "item": "minecraft:spruce_planks"
                },
                "B": {
                    "item": "mcwdoors:print_mystic"
                }
            },
            "pattern": [
                "A",
                "B",
                "A"
            ],
            "count": 1
        }
    ],
    "mcwdoors:spruce_nether_door": [
        {
            "key": {
                "A": {
                    "item": "minecraft:spruce_planks"
                },
                "B": {
                    "item": "mcwdoors:print_nether"
                }
            },
            "pattern": [
                "A",
                "B",
                "A"
            ],
            "count": 1
        }
    ],
    "mcwdoors:spruce_paper_door": [
        {
            "key": {
                "A": {
                    "item": "minecraft:spruce_planks"
                },
                "B": {
                    "item": "mcwdoors:print_birch"
                }
            },
            "pattern": [
                "A",
                "B",
                "A"
            ],
            "count": 1
        }
    ],
    "mcwdoors:spruce_stable_door": [
        {
            "key": {
                "A": {
                    "item": "minecraft:spruce_planks"
                },
                "B": {
                    "item": "minecraft:iron_bars"
                }
            },
            "pattern": [
                "BB",
                "AA",
                "AA"
            ],
            "count": 3
        }
    ],
    "mcwdoors:spruce_stable_head_door": [
        {
            "key": {
                "A": {
                    "item": "mcwdoors:spruce_stable_door"
                }
            },
            "pattern": [
                "A"
            ],
            "count": 1
        }
    ],
    "mcwdoors:spruce_tropical_door": [
        {
            "key": {
                "A": {
                    "item": "minecraft:spruce_planks"
                },
                "B": {
                    "item": "mcwdoors:print_acacia"
                }
            },
            "pattern": [
                "A",
                "B",
                "A"
            ],
            "count": 1
        }
    ],
    "mcwdoors:spruce_western_door": [
        {
            "key": {
                "A": {
                    "item": "minecraft:spruce_planks"
                },
                "B": {
                    "item": "minecraft:spruce_slab"
                }
            },
            "pattern": [
                "  A",
                "ABA",
                "AAA"
            ],
            "count": 3
        }
    ],
    "mcwdoors:warped_barn_door": [
        {
            "key": {
                "A": {
                    "item": "minecraft:warped_planks"
                },
                "B": {
                    "item": "mcwdoors:warped_barn_glass_door"
                }
            },
            "pattern": [
                "A",
                "B"
            ],
            "count": 1
        }
    ],
    "mcwdoors:warped_barn_glass_door": [
        {
            "key": {
                "A": {
                    "item": "minecraft:warped_planks"
                },
                "B": {
                    "item": "minecraft:glass_pane"
                }
            },
            "pattern": [
                "BB",
                "AA",
                "AA"
            ],
            "count": 3
        }
    ],
    "mcwdoors:warped_beach_door": [
        {
            "key": {
                "A": {
                    "item": "minecraft:warped_planks"
                },
                "B": {
                    "item": "mcwdoors:print_jungle"
                }
            },
            "pattern": [
                "A",
                "B",
                "A"
            ],
            "count": 1
        }
    ],
    "mcwdoors:warped_classic_door": [
        {
            "key": {
                "A": {
                    "item": "minecraft:warped_planks"
                },
                "B": {
                    "item": "mcwdoors:print_oak"
                }
            },
            "pattern": [
                "A",
                "B",
                "A"
            ],
            "count": 1
        }
    ],
    "mcwdoors:warped_cottage_door": [
        {
            "key": {
                "A": {
                    "item": "minecraft:warped_planks"
                },
                "B": {
                    "item": "mcwdoors:print_spruce"
                }
            },
            "pattern": [
                "A",
                "B",
                "A"
            ],
            "count": 1
        }
    ],
    "mcwdoors:warped_four_panel_door": [
        {
            "key": {
                "A": {
                    "item": "minecraft:warped_planks"
                },
                "B": {
                    "item": "mcwdoors:print_dark_oak"
                }
            },
            "pattern": [
                "A",
                "B",
                "A"
            ],
            "count": 1
        }
    ],
    "mcwdoors:warped_glass_door": [
        {
            "key": {
                "A": {
                    "item": "minecraft:warped_planks"
                },
                "B": {
                    "item": "minecraft:glass_pane"
                }
            },
            "pattern": [
                "AB",
                "BB",
                "AB"
            ],
            "count": 3
        }
    ],
    "mcwdoors:warped_japanese2_door": [
        {
            "key": {
                "A": {
                    "item": "minecraft:warped_slab"
                },
                "B": {
                    "item": "minecraft:paper"
                }
            },
            "pattern": [
                "BB",
                "BB",
                "AA"
            ],
            "count": 3
        }
    ],
    "mcwdoors:warped_japanese_door": [
        {
            "key": {
                "A": {
                    "item": "minecraft:warped_planks"
                },
                "B": {
                    "item": "minecraft:paper"
                }
            },
            "pattern": [
                "BB",
                "BB",
                "AA"
            ],
            "count": 3
        }
    ],
    "mcwdoors:warped_modern_door": [
        {
            "key": {
                "A": {
                    "item": "minecraft:warped_planks"
                },
                "B": {
                    "item": "minecraft:glass_pane"
                }
            },
            "pattern": [
                "AB",
                "AA",
                "AB"
            ],
            "count": 3
        }
    ],
    "mcwdoors:warped_paper_door": [
        {
            "key": {
                "A": {
                    "item": "minecraft:warped_planks"
                },
                "B": {
                    "item": "mcwdoors:print_mystic"
                }
            },
            "pattern": [
                "A",
                "B",
                "A"
            ],
            "count": 1
        },
        {
            "key": {
                "A": {
                    "item": "minecraft:warped_planks"
                },
                "B": {
                    "item": "mcwdoors:print_birch"
                }
            },
            "pattern": [
                "A",
                "B",
                "A"
            ],
            "count": 1
        }
    ],
    "mcwdoors:warped_nether_door": [
        {
            "key": {
                "A": {
                    "item": "minecraft:warped_planks"
                },
                "B": {
                    "item": "mcwdoors:print_nether"
                }
            },
            "pattern": [
                "A",
                "B",
                "A"
            ],
            "count": 1
        }
    ],
    "mcwdoors:warped_stable_door": [
        {
            "key": {
                "A": {
                    "item": "minecraft:warped_planks"
                },
                "B": {
                    "item": "minecraft:iron_bars"
                }
            },
            "pattern": [
                "BB",
                "AA",
                "AA"
            ],
            "count": 3
        }
    ],
    "mcwdoors:warped_stable_head_door": [
        {
            "key": {
                "A": {
                    "item": "mcwdoors:warped_stable_door"
                }
            },
            "pattern": [
                "A"
            ],
            "count": 1
        }
    ],
    "mcwdoors:warped_tropical_door": [
        {
            "key": {
                "A": {
                    "item": "minecraft:warped_planks"
                },
                "B": {
                    "item": "mcwdoors:print_acacia"
                }
            },
            "pattern": [
                "A",
                "B",
                "A"
            ],
            "count": 1
        }
    ],
    "mcwdoors:warped_western_door": [
        {
            "key": {
                "A": {
                    "item": "minecraft:warped_planks"
                },
                "B": {
                    "item": "minecraft:warped_slab"
                }
            },
            "pattern": [
                "  A",
                "ABA",
                "AAA"
            ],
            "count": 3
        }
    ]
}