{
    "mcwtrpdoors:acacia_barn_trapdoor": [
        {
            "key": {
                "A": {
                    "item": "minecraft:acacia_planks"
                },
                "B": {
                    "item": "mcwtrpdoors:acacia_glass_trapdoor"
                }
            },
            "pattern": [
                "A",
                "B"
            ],
            "count": 1
        }
    ],
    "mcwtrpdoors:acacia_barred_trapdoor": [
        {
            "key": {
                "A": {
                    "item": "minecraft:acacia_planks"
                },
                "B": {
                    "item": "mcwtrpdoors:print_barred"
                }
            },
            "pattern": [
                "A",
                "B",
                "A"
            ],
            "count": 1
        }
    ],
    "mcwtrpdoors:acacia_beach_trapdoor": [
        {
            "key": {
                "A": {
                    "item": "minecraft:acacia_planks"
                },
                "B": {
                    "item": "mcwtrpdoors:print_beach"
                }
            },
            "pattern": [
                "A",
                "B",
                "A"
            ],
            "count": 1
        }
    ],
    "mcwtrpdoors:acacia_classic_trapdoor": [
        {
            "key": {
                "A": {
                    "item": "minecraft:acacia_planks"
                },
                "B": {
                    "item": "mcwtrpdoors:print_classic"
                }
            },
            "pattern": [
                "A",
                "B",
                "A"
            ],
            "count": 1
        }
    ],
    "mcwtrpdoors:acacia_cottage_trapdoor": [
        {
            "key": {
                "A": {
                    "item": "minecraft:acacia_planks"
                },
                "B": {
                    "item": "mcwtrpdoors:print_cottage"
                }
            },
            "pattern": [
                "A",
                "B",
                "A"
            ],
            "count": 1
        }
    ],
    "mcwtrpdoors:acacia_four_panel_trapdoor": [
        {
            "key": {
                "A": {
                    "item": "minecraft:acacia_planks"
                },
                "B": {
                    "item": "mcwtrpdoors:print_four_panel"
                }
            },
            "pattern": [
                "A",
                "B",
                "A"
            ],
            "count": 1
        }
    ],
    "mcwtrpdoors:acacia_glass_trapdoor": [
        {
            "key": {
                "A": {
                    "item": "minecraft:acacia_planks"
                },
                "B": {
                    "item": "minecraft:glass_pane"
                }
            },
            "pattern": [
                "ABA",
                "ABA"
            ],
            "count": 2
        }
    ],
    "mcwtrpdoors:acacia_mystic_trapdoor": [
        {
            "key": {
                "A": {
                    "item": "minecraft:acacia_planks"
                },
                "B": {
                    "item": "mcwtrpdoors:print_mystic"
                }
            },
            "pattern": [
                "A",
                "B",
                "A"
            ],
            "count": 1
        }
    ],
    "mcwtrpdoors:acacia_paper_trapdoor": [
        {
            "key": {
                "A": {
                    "item": "minecraft:acacia_planks"
                },
                "B": {
                    "item": "mcwtrpdoors:print_paper"
                }
            },
            "pattern": [
                "A",
                "B",
                "A"
            ],
            "count": 1
        }
    ],
    "mcwtrpdoors:birch_barn_trapdoor": [
        {
            "key": {
                "A": {
                    "item": "minecraft:birch_planks"
                },
                "B": {
                    "item": "mcwtrpdoors:birch_glass_trapdoor"
                }
            },
            "pattern": [
                "A",
                "B"
            ],
            "count": 1
        }
    ],
    "mcwtrpdoors:birch_barred_trapdoor": [
        {
            "key": {
                "A": {
                    "item": "minecraft:birch_planks"
                },
                "B": {
                    "item": "mcwtrpdoors:print_barred"
                }
            },
            "pattern": [
                "A",
                "B",
                "A"
            ],
            "count": 1
        }
    ],
    "mcwtrpdoors:birch_beach_trapdoor": [
        {
            "key": {
                "A": {
                    "item": "minecraft:birch_planks"
                },
                "B": {
                    "item": "mcwtrpdoors:print_beach"
                }
            },
            "pattern": [
                "A",
                "B",
                "A"
            ],
            "count": 1
        }
    ],
    "mcwtrpdoors:birch_classic_trapdoor": [
        {
            "key": {
                "A": {
                    "item": "minecraft:birch_planks"
                },
                "B": {
                    "item": "mcwtrpdoors:print_classic"
                }
            },
            "pattern": [
                "A",
                "B",
                "A"
            ],
            "count": 1
        }
    ],
    "mcwtrpdoors:birch_cottage_trapdoor": [
        {
            "key": {
                "A": {
                    "item": "minecraft:birch_planks"
                },
                "B": {
                    "item": "mcwtrpdoors:print_cottage"
                }
            },
            "pattern": [
                "A",
                "B",
                "A"
            ],
            "count": 1
        }
    ],
    "mcwtrpdoors:birch_four_panel_trapdoor": [
        {
            "key": {
                "A": {
                    "item": "minecraft:birch_planks"
                },
                "B": {
                    "item": "mcwtrpdoors:print_four_panel"
                }
            },
            "pattern": [
                "A",
                "B",
                "A"
            ],
            "count": 1
        }
    ],
    "mcwtrpdoors:birch_glass_trapdoor": [
        {
            "key": {
                "A": {
                    "item": "minecraft:birch_planks"
                },
                "B": {
                    "item": "minecraft:glass_pane"
                }
            },
            "pattern": [
                "ABA",
                "ABA"
            ],
            "count": 2
        }
    ],
    "mcwtrpdoors:birch_mystic_trapdoor": [
        {
            "key": {
                "A": {
                    "item": "minecraft:birch_planks"
                },
                "B": {
                    "item": "mcwtrpdoors:print_mystic"
                }
            },
            "pattern": [
                "A",
                "B",
                "A"
            ],
            "count": 1
        }
    ],
    "mcwtrpdoors:birch_tropical_trapdoor": [
        {
            "key": {
                "A": {
                    "item": "minecraft:birch_planks"
                },
                "B": {
                    "item": "mcwtrpdoors:print_tropical"
                }
            },
            "pattern": [
                "A",
                "B",
                "A"
            ],
            "count": 1
        }
    ],
    "mcwtrpdoors:crimson_barn_trapdoor": [
        {
            "key": {
                "A": {
                    "item": "minecraft:crimson_planks"
                },
                "B": {
                    "item": "mcwtrpdoors:crimson_glass_trapdoor"
                }
            },
            "pattern": [
                "A",
                "B"
            ],
            "count": 1
        }
    ],
    "mcwtrpdoors:crimson_beach_trapdoor": [
        {
            "key": {
                "A": {
                    "item": "minecraft:crimson_planks"
                },
                "B": {
                    "item": "mcwtrpdoors:print_beach"
                }
            },
            "pattern": [
                "A",
                "B",
                "A"
            ],
            "count": 1
        }
    ],
    "mcwtrpdoors:crimson_classic_trapdoor": [
        {
            "key": {
                "A": {
                    "item": "minecraft:crimson_planks"
                },
                "B": {
                    "item": "mcwtrpdoors:print_classic"
                }
            },
            "pattern": [
                "A",
                "B",
                "A"
            ],
            "count": 1
        }
    ],
    "mcwtrpdoors:crimson_cottage_trapdoor": [
        {
            "key": {
                "A": {
                    "item": "minecraft:crimson_planks"
                },
                "B": {
                    "item": "mcwtrpdoors:print_cottage"
                }
            },
            "pattern": [
                "A",
                "B",
                "A"
            ],
            "count": 1
        }
    ],
    "mcwtrpdoors:crimson_four_panel_trapdoor": [
        {
            "key": {
                "A": {
                    "item": "minecraft:crimson_planks"
                },
                "B": {
                    "item": "mcwtrpdoors:print_four_panel"
                }
            },
            "pattern": [
                "A",
                "B",
                "A"
            ],
            "count": 1
        }
    ],
    "mcwtrpdoors:crimson_glass_trapdoor": [
        {
            "key": {
                "A": {
                    "item": "minecraft:crimson_planks"
                },
                "B": {
                    "item": "minecraft:glass_pane"
                }
            },
            "pattern": [
                "ABA",
                "ABA"
            ],
            "count": 2
        }
    ],
    "mcwtrpdoors:crimson_mystic_trapdoor": [
        {
            "key": {
                "A": {
                    "item": "minecraft:crimson_planks"
                },
                "B": {
                    "item": "mcwtrpdoors:print_mystic"
                }
            },
            "pattern": [
                "A",
                "B",
                "A"
            ],
            "count": 1
        }
    ],
    "mcwtrpdoors:crimson_paper_trapdoor": [
        {
            "key": {
                "A": {
                    "item": "minecraft:crimson_planks"
                },
                "B": {
                    "item": "mcwtrpdoors:print_paper"
                }
            },
            "pattern": [
                "A",
                "B",
                "A"
            ],
            "count": 1
        }
    ],
    "mcwtrpdoors:crimson_tropical_trapdoor": [
        {
            "key": {
                "A": {
                    "item": "minecraft:crimson_planks"
                },
                "B": {
                    "item": "mcwtrpdoors:print_tropical"
                }
            },
            "pattern": [
                "A",
                "B",
                "A"
            ],
            "count": 1
        }
    ],
    "mcwtrpdoors:dark_oak_barn_trapdoor": [
        {
            "key": {
                "A": {
                    "item": "minecraft:dark_oak_planks"
                },
                "B": {
                    "item": "mcwtrpdoors:dark_oak_glass_trapdoor"
                }
            },
            "pattern": [
                "A",
                "B"
            ],
            "count": 1
        }
    ],
    "mcwtrpdoors:dark_oak_barred_trapdoor": [
        {
            "key": {
                "A": {
                    "item": "minecraft:dark_oak_planks"
                },
                "B": {
                    "item": "mcwtrpdoors:print_barred"
                }
            },
            "pattern": [
                "A",
                "B",
                "A"
            ],
            "count": 1
        }
    ],
    "mcwtrpdoors:dark_oak_beach_trapdoor": [
        {
            "key": {
                "A": {
                    "item": "minecraft:dark_oak_planks"
                },
                "B": {
                    "item": "mcwtrpdoors:print_beach"
                }
            },
            "pattern": [
                "A",
                "B",
                "A"
            ],
            "count": 1
        }
    ],
    "mcwtrpdoors:dark_oak_classic_trapdoor": [
        {
            "key": {
                "A": {
                    "item": "minecraft:dark_oak_planks"
                },
                "B": {
                    "item": "mcwtrpdoors:print_classic"
                }
            },
            "pattern": [
                "A",
                "B",
                "A"
            ],
            "count": 1
        }
    ],
    "mcwtrpdoors:dark_oak_cottage_trapdoor": [
        {
            "key": {
                "A": {
                    "item": "minecraft:dark_oak_planks"
                },
                "B": {
                    "item": "mcwtrpdoors:print_cottage"
                }
            },
            "pattern": [
                "A",
                "B",
                "A"
            ],
            "count": 1
        }
    ],
    "mcwtrpdoors:dark_oak_glass_trapdoor": [
        {
            "key": {
                "A": {
                    "item": "minecraft:dark_oak_planks"
                },
                "B": {
                    "item": "minecraft:glass_pane"
                }
            },
            "pattern": [
                "ABA",
                "ABA"
            ],
            "count": 2
        }
    ],
    "mcwtrpdoors:dark_oak_mystic_trapdoor": [
        {
            "key": {
                "A": {
                    "item": "minecraft:dark_oak_planks"
                },
                "B": {
                    "item": "mcwtrpdoors:print_mystic"
                }
            },
            "pattern": [
                "A",
                "B",
                "A"
            ],
            "count": 1
        }
    ],
    "mcwtrpdoors:dark_oak_paper_trapdoor": [
        {
            "key": {
                "A": {
                    "item": "minecraft:dark_oak_planks"
                },
                "B": {
                    "item": "mcwtrpdoors:print_paper"
                }
            },
            "pattern": [
                "A",
                "B",
                "A"
            ],
            "count": 1
        }
    ],
    "mcwtrpdoors:dark_oak_tropical_trapdoor": [
        {
            "key": {
                "A": {
                    "item": "minecraft:dark_oak_planks"
                },
                "B": {
                    "item": "mcwtrpdoors:print_tropical"
                }
            },
            "pattern": [
                "A",
                "B",
                "A"
            ],
            "count": 1
        }
    ],
    "mcwtrpdoors:jungle_barn_trapdoor": [
        {
            "key": {
                "A": {
                    "item": "minecraft:jungle_planks"
                },
                "B": {
                    "item": "mcwtrpdoors:jungle_glass_trapdoor"
                }
            },
            "pattern": [
                "A",
                "B"
            ],
            "count": 1
        }
    ],
    "mcwtrpdoors:jungle_barred_trapdoor": [
        {
            "key": {
                "A": {
                    "item": "minecraft:jungle_planks"
                },
                "B": {
                    "item": "mcwtrpdoors:print_barred"
                }
            },
            "pattern": [
                "A",
                "B",
                "A"
            ],
            "count": 1
        }
    ],
    "mcwtrpdoors:jungle_classic_trapdoor": [
        {
            "key": {
                "A": {
                    "item": "minecraft:jungle_planks"
                },
                "B": {
                    "item": "mcwtrpdoors:print_classic"
                }
            },
            "pattern": [
                "A",
                "B",
                "A"
            ],
            "count": 1
        }
    ],
    "mcwtrpdoors:jungle_cottage_trapdoor": [
        {
            "key": {
                "A": {
                    "item": "minecraft:jungle_planks"
                },
                "B": {
                    "item": "mcwtrpdoors:print_cottage"
                }
            },
            "pattern": [
                "A",
                "B",
                "A"
            ],
            "count": 1
        }
    ],
    "mcwtrpdoors:jungle_four_panel_trapdoor": [
        {
            "key": {
                "A": {
                    "item": "minecraft:jungle_planks"
                },
                "B": {
                    "item": "mcwtrpdoors:print_four_panel"
                }
            },
            "pattern": [
                "A",
                "B",
                "A"
            ],
            "count": 1
        }
    ],
    "mcwtrpdoors:jungle_glass_trapdoor": [
        {
            "key": {
                "A": {
                    "item": "minecraft:jungle_planks"
                },
                "B": {
                    "item": "minecraft:glass_pane"
                }
            },
            "pattern": [
                "ABA",
                "ABA"
            ],
            "count": 2
        }
    ],
    "mcwtrpdoors:jungle_mystic_trapdoor": [
        {
            "key": {
                "A": {
                    "item": "minecraft:jungle_planks"
                },
                "B": {
                    "item": "mcwtrpdoors:print_mystic"
                }
            },
            "pattern": [
                "A",
                "B",
                "A"
            ],
            "count": 1
        }
    ],
    "mcwtrpdoors:jungle_paper_trapdoor": [
        {
            "key": {
                "A": {
                    "item": "minecraft:jungle_planks"
                },
                "B": {
                    "item": "mcwtrpdoors:print_paper"
                }
            },
            "pattern": [
                "A",
                "B",
                "A"
            ],
            "count": 1
        }
    ],
    "mcwtrpdoors:jungle_tropical_trapdoor": [
        {
            "key": {
                "A": {
                    "item": "minecraft:jungle_planks"
                },
                "B": {
                    "item": "mcwtrpdoors:print_tropical"
                }
            },
            "pattern": [
                "A",
                "B",
                "A"
            ],
            "count": 1
        }
    ],
    "mcwtrpdoors:oak_barn_trapdoor": [
        {
            "key": {
                "A": {
                    "item": "minecraft:oak_planks"
                },
                "B": {
                    "item": "mcwtrpdoors:oak_glass_trapdoor"
                }
            },
            "pattern": [
                "A",
                "B"
            ],
            "count": 1
        }
    ],
    "mcwtrpdoors:oak_barred_trapdoor": [
        {
            "key": {
                "A": {
                    "item": "minecraft:oak_planks"
                },
                "B": {
                    "item": "mcwtrpdoors:print_barred"
                }
            },
            "pattern": [
                "A",
                "B",
                "A"
            ],
            "count": 1
        }
    ],
    "mcwtrpdoors:oak_beach_trapdoor": [
        {
            "key": {
                "A": {
                    "item": "minecraft:oak_planks"
                },
                "B": {
                    "item": "mcwtrpdoors:print_beach"
                }
            },
            "pattern": [
                "A",
                "B",
                "A"
            ],
            "count": 1
        }
    ],
    "mcwtrpdoors:oak_cottage_trapdoor": [
        {
            "key": {
                "A": {
                    "item": "minecraft:oak_planks"
                },
                "B": {
                    "item": "mcwtrpdoors:print_cottage"
                }
            },
            "pattern": [
                "A",
                "B",
                "A"
            ],
            "count": 1
        }
    ],
    "mcwtrpdoors:oak_four_panel_trapdoor": [
        {
            "key": {
                "A": {
                    "item": "minecraft:oak_planks"
                },
                "B": {
                    "item": "mcwtrpdoors:print_four_panel"
                }
            },
            "pattern": [
                "A",
                "B",
                "A"
            ],
            "count": 1
        }
    ],
    "mcwtrpdoors:oak_glass_trapdoor": [
        {
            "key": {
                "A": {
                    "item": "minecraft:oak_planks"
                },
                "B": {
                    "item": "minecraft:glass_pane"
                }
            },
            "pattern": [
                "ABA",
                "ABA"
            ],
            "count": 2
        }
    ],
    "mcwtrpdoors:oak_mystic_trapdoor": [
        {
            "key": {
                "A": {
                    "item": "minecraft:oak_planks"
                },
                "B": {
                    "item": "mcwtrpdoors:print_mystic"
                }
            },
            "pattern": [
                "A",
                "B",
                "A"
            ],
            "count": 1
        }
    ],
    "mcwtrpdoors:oak_paper_trapdoor": [
        {
            "key": {
                "A": {
                    "item": "minecraft:oak_planks"
                },
                "B": {
                    "item": "mcwtrpdoors:print_paper"
                }
            },
            "pattern": [
                "A",
                "B",
                "A"
            ],
            "count": 1
        }
    ],
    "mcwtrpdoors:oak_tropical_trapdoor": [
        {
            "key": {
                "A": {
                    "item": "minecraft:oak_planks"
                },
                "B": {
                    "item": "mcwtrpdoors:print_tropical"
                }
            },
            "pattern": [
                "A",
                "B",
                "A"
            ],
            "count": 1
        }
    ],
    "mcwtrpdoors:print_barred": [
        {
            "key": {
                "A": {
                    "item": "minecraft:paper"
                },
                "B": {
                    "item": "minecraft:crimson_trapdoor"
                }
            },
            "pattern": [
                " A ",
                "ABA",
                " A "
            ],
            "count": 4
        }
    ],
    "mcwtrpdoors:print_beach": [
        {
            "key": {
                "A": {
                    "item": "minecraft:paper"
                },
                "B": {
                    "item": "minecraft:jungle_trapdoor"
                }
            },
            "pattern": [
                " A ",
                "ABA",
                " A "
            ],
            "count": 4
        }
    ],
    "mcwtrpdoors:print_classic": [
        {
            "key": {
                "A": {
                    "item": "minecraft:paper"
                },
                "B": {
                    "item": "minecraft:oak_trapdoor"
                }
            },
            "pattern": [
                " A ",
                "ABA",
                " A "
            ],
            "count": 4
        }
    ],
    "mcwtrpdoors:print_cottage": [
        {
            "key": {
                "A": {
                    "item": "minecraft:paper"
                },
                "B": {
                    "item": "minecraft:spruce_trapdoor"
                }
            },
            "pattern": [
                " A ",
                "ABA",
                " A "
            ],
            "count": 4
        }
    ],
    "mcwtrpdoors:print_four_panel": [
        {
            "key": {
                "A": {
                    "item": "minecraft:paper"
                },
                "B": {
                    "item": "minecraft:dark_oak_trapdoor"
                }
            },
            "pattern": [
                " A ",
                "ABA",
                " A "
            ],
            "count": 4
        }
    ],
    "mcwtrpdoors:print_mystic": [
        {
            "key": {
                "A": {
                    "item": "minecraft:paper"
                },
                "B": {
                    "item": "minecraft:warped_trapdoor"
                }
            },
            "pattern": [
                " A ",
                "ABA",
                " A "
            ],
            "count": 4
        }
    ],
    "mcwtrpdoors:print_paper": [
        {
            "key": {
                "A": {
                    "item": "minecraft:paper"
                },
                "B": {
                    "item": "minecraft:birch_trapdoor"
                }
            },
            "pattern": [
                " A ",
                "ABA",
                " A "
            ],
            "count": 4
        }
    ],
    "mcwtrpdoors:print_tropical": [
        {
            "key": {
                "A": {
                    "item": "minecraft:paper"
                },
                "B": {
                    "item": "minecraft:acacia_trapdoor"
                }
            },
            "pattern": [
                " A ",
                "ABA",
                " A "
            ],
            "count": 4
        }
    ],
    "mcwtrpdoors:spruce_barn_trapdoor": [
        {
            "key": {
                "A": {
                    "item": "minecraft:spruce_planks"
                },
                "B": {
                    "item": "mcwtrpdoors:spruce_glass_trapdoor"
                }
            },
            "pattern": [
                "A",
                "B"
            ],
            "count": 1
        }
    ],
    "mcwtrpdoors:spruce_barred_trapdoor": [
        {
            "key": {
                "A": {
                    "item": "minecraft:spruce_planks"
                },
                "B": {
                    "item": "mcwtrpdoors:print_barred"
                }
            },
            "pattern": [
                "A",
                "B",
                "A"
            ],
            "count": 1
        }
    ],
    "mcwtrpdoors:spruce_beach_trapdoor": [
        {
            "key": {
                "A": {
                    "item": "minecraft:spruce_planks"
                },
                "B": {
                    "item": "mcwtrpdoors:print_beach"
                }
            },
            "pattern": [
                "A",
                "B",
                "A"
            ],
            "count": 1
        }
    ],
    "mcwtrpdoors:spruce_classic_trapdoor": [
        {
            "key": {
                "A": {
                    "item": "minecraft:spruce_planks"
                },
                "B": {
                    "item": "mcwtrpdoors:print_classic"
                }
            },
            "pattern": [
                "A",
                "B",
                "A"
            ],
            "count": 1
        }
    ],
    "mcwtrpdoors:spruce_four_panel_trapdoor": [
        {
            "key": {
                "A": {
                    "item": "minecraft:spruce_planks"
                },
                "B": {
                    "item": "mcwtrpdoors:print_four_panel"
                }
            },
            "pattern": [
                "A",
                "B",
                "A"
            ],
            "count": 1
        }
    ],
    "mcwtrpdoors:spruce_glass_trapdoor": [
        {
            "key": {
                "A": {
                    "item": "minecraft:spruce_planks"
                },
                "B": {
                    "item": "minecraft:glass_pane"
                }
            },
            "pattern": [
                "ABA",
                "ABA"
            ],
            "count": 2
        }
    ],
    "mcwtrpdoors:spruce_mystic_trapdoor": [
        {
            "key": {
                "A": {
                    "item": "minecraft:spruce_planks"
                },
                "B": {
                    "item": "mcwtrpdoors:print_mystic"
                }
            },
            "pattern": [
                "A",
                "B",
                "A"
            ],
            "count": 1
        }
    ],
    "mcwtrpdoors:spruce_paper_trapdoor": [
        {
            "key": {
                "A": {
                    "item": "minecraft:spruce_planks"
                },
                "B": {
                    "item": "mcwtrpdoors:print_paper"
                }
            },
            "pattern": [
                "A",
                "B",
                "A"
            ],
            "count": 1
        }
    ],
    "mcwtrpdoors:spruce_tropical_trapdoor": [
        {
            "key": {
                "A": {
                    "item": "minecraft:spruce_planks"
                },
                "B": {
                    "item": "mcwtrpdoors:print_tropical"
                }
            },
            "pattern": [
                "A",
                "B",
                "A"
            ],
            "count": 1
        }
    ],
    "mcwtrpdoors:warped_barn_trapdoor": [
        {
            "key": {
                "A": {
                    "item": "minecraft:warped_planks"
                },
                "B": {
                    "item": "mcwtrpdoors:warped_glass_trapdoor"
                }
            },
            "pattern": [
                "A",
                "B"
            ],
            "count": 1
        }
    ],
    "mcwtrpdoors:warped_barred_trapdoor": [
        {
            "key": {
                "A": {
                    "item": "minecraft:warped_planks"
                },
                "B": {
                    "item": "mcwtrpdoors:print_barred"
                }
            },
            "pattern": [
                "A",
                "B",
                "A"
            ],
            "count": 1
        }
    ],
    "mcwtrpdoors:warped_beach_trapdoor": [
        {
            "key": {
                "A": {
                    "item": "minecraft:warped_planks"
                },
                "B": {
                    "item": "mcwtrpdoors:print_beach"
                }
            },
            "pattern": [
                "A",
                "B",
                "A"
            ],
            "count": 1
        }
    ],
    "mcwtrpdoors:warped_classic_trapdoor": [
        {
            "key": {
                "A": {
                    "item": "minecraft:warped_planks"
                },
                "B": {
                    "item": "mcwtrpdoors:print_classic"
                }
            },
            "pattern": [
                "A",
                "B",
                "A"
            ],
            "count": 1
        }
    ],
    "mcwtrpdoors:warped_cottage_trapdoor": [
        {
            "key": {
                "A": {
                    "item": "minecraft:warped_planks"
                },
                "B": {
                    "item": "mcwtrpdoors:print_cottage"
                }
            },
            "pattern": [
                "A",
                "B",
                "A"
            ],
            "count": 1
        }
    ],
    "mcwtrpdoors:warped_four_panel_trapdoor": [
        {
            "key": {
                "A": {
                    "item": "minecraft:warped_planks"
                },
                "B": {
                    "item": "mcwtrpdoors:print_four_panel"
                }
            },
            "pattern": [
                "A",
                "B",
                "A"
            ],
            "count": 1
        }
    ],
    "mcwtrpdoors:warped_glass_trapdoor": [
        {
            "key": {
                "A": {
                    "item": "minecraft:warped_planks"
                },
                "B": {
                    "item": "minecraft:glass_pane"
                }
            },
            "pattern": [
                "ABA",
                "ABA"
            ],
            "count": 2
        }
    ],
    "mcwtrpdoors:warped_paper_trapdoor": [
        {
            "key": {
                "A": {
                    "item": "minecraft:warped_planks"
                },
                "B": {
                    "item": "mcwtrpdoors:print_paper"
                }
            },
            "pattern": [
                "A",
                "B",
                "A"
            ],
            "count": 1
        }
    ],
    "mcwtrpdoors:warped_tropical_trapdoor": [
        {
            "key": {
                "A": {
                    "item": "minecraft:warped_planks"
                },
                "B": {
                    "item": "mcwtrpdoors:print_tropical"
                }
            },
            "pattern": [
                "A",
                "B",
                "A"
            ],
            "count": 1
        }
    ]
}