{
    "mekanismtools:diamond_paxel": [
        {
            "key": {
                "A": {
                    "item": "minecraft:diamond_axe"
                },
                "P": {
                    "item": "minecraft:diamond_pickaxe"
                },
                "S": {
                    "item": "minecraft:diamond_shovel"
                },
                "R": {
                    "tag": "forge:rods/wooden"
                }
            },
            "pattern": [
                "APS",
                " R ",
                " R "
            ]
        }
    ],
    "mekanismtools:gold_paxel": [
        {
            "key": {
                "A": {
                    "item": "minecraft:golden_axe"
                },
                "P": {
                    "item": "minecraft:golden_pickaxe"
                },
                "S": {
                    "item": "minecraft:golden_shovel"
                },
                "R": {
                    "tag": "forge:rods/wooden"
                }
            },
            "pattern": [
                "APS",
                " R ",
                " R "
            ]
        }
    ],
    "mekanismtools:iron_paxel": [
        {
            "key": {
                "A": {
                    "item": "minecraft:iron_axe"
                },
                "P": {
                    "item": "minecraft:iron_pickaxe"
                },
                "S": {
                    "item": "minecraft:iron_shovel"
                },
                "R": {
                    "tag": "forge:rods/wooden"
                }
            },
            "pattern": [
                "APS",
                " R ",
                " R "
            ]
        }
    ],
    "mekanismtools:stone_paxel": [
        {
            "key": {
                "A": {
                    "item": "minecraft:stone_axe"
                },
                "P": {
                    "item": "minecraft:stone_pickaxe"
                },
                "S": {
                    "item": "minecraft:stone_shovel"
                },
                "R": {
                    "tag": "forge:rods/wooden"
                }
            },
            "pattern": [
                "APS",
                " R ",
                " R "
            ]
        }
    ],
    "mekanismtools:wood_paxel": [
        {
            "key": {
                "A": {
                    "item": "minecraft:wooden_axe"
                },
                "P": {
                    "item": "minecraft:wooden_pickaxe"
                },
                "S": {
                    "item": "minecraft:wooden_shovel"
                },
                "R": {
                    "tag": "forge:rods/wooden"
                }
            },
            "pattern": [
                "APS",
                " R ",
                " R "
            ]
        }
    ]
}