{
    "minicoal2:minicharcoal": [
        {
            "ingredients": [
                {
                    "item": "minecraft:charcoal"
                }
            ],
            "count": 8
        }
    ],
    "minicoal2:minicoal": [
        {
            "ingredients": [
                {
                    "item": "minecraft:coal"
                }
            ],
            "count": 8
        }
    ]
}