{
    "mythicbotany:alfsteel_armor_upgrade": [
        {
            "ingredients": [
                {
                    "item": "mythicbotany:alfsteel_ingot"
                },
                {
                    "item": "mythicbotany:alfsteel_ingot"
                },
                {
                    "tag": "forge:dusts/mana"
                }
            ]
        }
    ],
    "mythicbotany:alfsteel_block": [
        {
            "key": {
                "a": {
                    "item": "mythicbotany:alfsteel_ingot"
                }
            },
            "pattern": [
                "aaa",
                "aaa",
                "aaa"
            ]
        }
    ],
    "mythicbotany:alfsteel_ingot": [
        {
            "ingredients": [
                {
                    "item": "mythicbotany:alfsteel_block"
                }
            ],
            "count": 9
        },
        {
            "key": {
                "a": {
                    "item": "mythicbotany:alfsteel_nugget"
                }
            },
            "pattern": [
                "aaa",
                "aaa",
                "aaa"
            ]
        }
    ],
    "mythicbotany:alfsteel_nugget": [
        {
            "ingredients": [
                {
                    "item": "mythicbotany:alfsteel_ingot"
                }
            ],
            "count": 9
        }
    ],
    "mythicbotany:alfsteel_pylon": [
        {
            "key": {
                "n": {
                    "item": "mythicbotany:alfsteel_nugget"
                },
                "g": {
                    "item": "minecraft:ghast_tear"
                },
                "p": {
                    "item": "botania:natura_pylon"
                }
            },
            "pattern": [
                " n ",
                "npn",
                " g "
            ]
        }
    ],
    "mythicbotany:aquapanthus_floating": [
        {
            "ingredients": [
                {
                    "tag": "botania:floating_flowers"
                },
                {
                    "item": "mythicbotany:aquapanthus"
                }
            ]
        }
    ],
    "mythicbotany:exoblaze_floating": [
        {
            "ingredients": [
                {
                    "tag": "botania:floating_flowers"
                },
                {
                    "item": "mythicbotany:exoblaze"
                }
            ]
        }
    ],
    "mythicbotany:fire_ring": [
        {
            "key": {
                "m": {
                    "item": "botania:elementium_ingot"
                },
                "g": {
                    "item": "mythicbotany:muspelheim_rune"
                }
            },
            "pattern": [
                "gm ",
                "m m",
                " m "
            ]
        }
    ],
    "mythicbotany:hellebore_floating": [
        {
            "ingredients": [
                {
                    "tag": "botania:floating_flowers"
                },
                {
                    "item": "mythicbotany:hellebore"
                }
            ]
        }
    ],
    "mythicbotany:ice_ring": [
        {
            "key": {
                "m": {
                    "item": "botania:elementium_ingot"
                },
                "g": {
                    "item": "mythicbotany:niflheim_rune"
                }
            },
            "pattern": [
                "gm ",
                "m m",
                " m "
            ]
        }
    ],
    "mythicbotany:mana_collector": [
        {
            "key": {
                "d": {
                    "item": "botania:glimmering_dreamwood"
                },
                "g": {
                    "item": "botania:gaia_ingot"
                },
                "p": {
                    "item": "botania:pixie_dust"
                },
                "m": {
                    "item": "mythicbotany:vanaheim_rune"
                }
            },
            "pattern": [
                "dgd",
                "dpd",
                "dmd"
            ]
        }
    ],
    "mythicbotany:mana_infuser": [
        {
            "key": {
                "e": {
                    "tag": "forge:ingots/elementium"
                },
                "d": {
                    "item": "botania:glimmering_dreamwood"
                },
                "a": {
                    "item": "mythicbotany:asgard_rune"
                },
                "w": {
                    "tag": "botania:runes/spring"
                },
                "x": {
                    "tag": "botania:runes/summer"
                },
                "y": {
                    "tag": "botania:runes/autumn"
                },
                "z": {
                    "tag": "botania:runes/winter"
                }
            },
            "pattern": [
                "eee",
                "wdz",
                "xay"
            ]
        }
    ],
    "mythicbotany:raindeletia_floating": [
        {
            "ingredients": [
                {
                    "tag": "botania:floating_flowers"
                },
                {
                    "item": "mythicbotany:raindeletia"
                }
            ]
        }
    ],
    "mythicbotany:wither_aconite_floating": [
        {
            "ingredients": [
                {
                    "tag": "botania:floating_flowers"
                },
                {
                    "item": "mythicbotany:wither_aconite"
                }
            ]
        }
    ]
}