{
    "psi:cad_assembler": [
        {
            "key": {
                "I": {
                    "tag": "forge:ingots/iron"
                },
                "P": {
                    "item": "minecraft:piston"
                }
            },
            "pattern": [
                "IPI",
                "I I",
                " I "
            ]
        }
    ],
    "psi:cad_assembly_ebony_psimetal": [
        {
            "key": {
                "I": {
                    "tag": "forge:ingots/ebony_psimetal"
                }
            },
            "pattern": [
                "III",
                "I  "
            ]
        }
    ],
    "psi:cad_assembly_gold": [
        {
            "key": {
                "I": {
                    "tag": "forge:ingots/gold"
                }
            },
            "pattern": [
                "III",
                "I  "
            ]
        }
    ],
    "psi:cad_assembly_iron": [
        {
            "key": {
                "I": {
                    "tag": "forge:ingots/iron"
                }
            },
            "pattern": [
                "III",
                "I  "
            ]
        }
    ],
    "psi:cad_assembly_ivory_psimetal": [
        {
            "key": {
                "I": {
                    "tag": "forge:ingots/ivory_psimetal"
                }
            },
            "pattern": [
                "III",
                "I  "
            ]
        }
    ],
    "psi:cad_assembly_psimetal": [
        {
            "key": {
                "I": {
                    "tag": "forge:ingots/psimetal"
                }
            },
            "pattern": [
                "III",
                "I  "
            ]
        }
    ],
    "psi:cad_battery_basic": [
        {
            "key": {
                "I": {
                    "tag": "forge:ingots/iron"
                },
                "D": {
                    "tag": "psi:psidust"
                },
                "G": {
                    "tag": "forge:ingots/gold"
                }
            },
            "pattern": [
                "I",
                "D",
                "G"
            ]
        }
    ],
    "psi:cad_battery_extended": [
        {
            "key": {
                "I": {
                    "tag": "forge:ingots/iron"
                },
                "D": {
                    "tag": "forge:ingots/psimetal"
                },
                "G": {
                    "tag": "forge:ingots/gold"
                }
            },
            "pattern": [
                "I",
                "D",
                "G"
            ]
        }
    ],
    "psi:cad_battery_ultradense": [
        {
            "key": {
                "I": {
                    "tag": "forge:ingots/iron"
                },
                "D": {
                    "tag": "forge:gems/psigem"
                },
                "G": {
                    "tag": "forge:ingots/gold"
                }
            },
            "pattern": [
                "I",
                "D",
                "G"
            ]
        }
    ],
    "psi:cad_colorizer_black": [
        {
            "key": {
                "D": {
                    "tag": "psi:psidust"
                },
                "I": {
                    "tag": "forge:ingots/iron"
                },
                "G": {
                    "tag": "forge:glass"
                },
                "C": {
                    "tag": "forge:dyes/black"
                }
            },
            "pattern": [
                " D ",
                "GCG",
                " I "
            ]
        }
    ],
    "psi:cad_colorizer_blue": [
        {
            "key": {
                "D": {
                    "tag": "psi:psidust"
                },
                "I": {
                    "tag": "forge:ingots/iron"
                },
                "G": {
                    "tag": "forge:glass"
                },
                "C": {
                    "tag": "forge:dyes/blue"
                }
            },
            "pattern": [
                " D ",
                "GCG",
                " I "
            ]
        }
    ],
    "psi:cad_colorizer_brown": [
        {
            "key": {
                "D": {
                    "tag": "psi:psidust"
                },
                "I": {
                    "tag": "forge:ingots/iron"
                },
                "G": {
                    "tag": "forge:glass"
                },
                "C": {
                    "tag": "forge:dyes/brown"
                }
            },
            "pattern": [
                " D ",
                "GCG",
                " I "
            ]
        }
    ],
    "psi:cad_colorizer_cyan": [
        {
            "key": {
                "D": {
                    "tag": "psi:psidust"
                },
                "I": {
                    "tag": "forge:ingots/iron"
                },
                "G": {
                    "tag": "forge:glass"
                },
                "C": {
                    "tag": "forge:dyes/cyan"
                }
            },
            "pattern": [
                " D ",
                "GCG",
                " I "
            ]
        }
    ],
    "psi:cad_colorizer_empty": [
        {
            "key": {
                "D": {
                    "tag": "psi:psidust"
                },
                "G": {
                    "tag": "forge:glass"
                },
                "I": {
                    "tag": "forge:ingots/iron"
                }
            },
            "pattern": [
                " D ",
                "G G",
                " I "
            ]
        }
    ],
    "psi:cad_colorizer_gray": [
        {
            "key": {
                "D": {
                    "tag": "psi:psidust"
                },
                "I": {
                    "tag": "forge:ingots/iron"
                },
                "G": {
                    "tag": "forge:glass"
                },
                "C": {
                    "tag": "forge:dyes/gray"
                }
            },
            "pattern": [
                " D ",
                "GCG",
                " I "
            ]
        }
    ],
    "psi:cad_colorizer_green": [
        {
            "key": {
                "D": {
                    "tag": "psi:psidust"
                },
                "I": {
                    "tag": "forge:ingots/iron"
                },
                "G": {
                    "tag": "forge:glass"
                },
                "C": {
                    "tag": "forge:dyes/green"
                }
            },
            "pattern": [
                " D ",
                "GCG",
                " I "
            ]
        }
    ],
    "psi:cad_colorizer_light_blue": [
        {
            "key": {
                "D": {
                    "tag": "psi:psidust"
                },
                "I": {
                    "tag": "forge:ingots/iron"
                },
                "G": {
                    "tag": "forge:glass"
                },
                "C": {
                    "tag": "forge:dyes/light_blue"
                }
            },
            "pattern": [
                " D ",
                "GCG",
                " I "
            ]
        }
    ],
    "psi:cad_colorizer_light_gray": [
        {
            "key": {
                "D": {
                    "tag": "psi:psidust"
                },
                "I": {
                    "tag": "forge:ingots/iron"
                },
                "G": {
                    "tag": "forge:glass"
                },
                "C": {
                    "tag": "forge:dyes/light_gray"
                }
            },
            "pattern": [
                " D ",
                "GCG",
                " I "
            ]
        }
    ],
    "psi:cad_colorizer_lime": [
        {
            "key": {
                "D": {
                    "tag": "psi:psidust"
                },
                "I": {
                    "tag": "forge:ingots/iron"
                },
                "G": {
                    "tag": "forge:glass"
                },
                "C": {
                    "tag": "forge:dyes/lime"
                }
            },
            "pattern": [
                " D ",
                "GCG",
                " I "
            ]
        }
    ],
    "psi:cad_colorizer_magenta": [
        {
            "key": {
                "D": {
                    "tag": "psi:psidust"
                },
                "I": {
                    "tag": "forge:ingots/iron"
                },
                "G": {
                    "tag": "forge:glass"
                },
                "C": {
                    "tag": "forge:dyes/magenta"
                }
            },
            "pattern": [
                " D ",
                "GCG",
                " I "
            ]
        }
    ],
    "psi:cad_colorizer_orange": [
        {
            "key": {
                "D": {
                    "tag": "psi:psidust"
                },
                "I": {
                    "tag": "forge:ingots/iron"
                },
                "G": {
                    "tag": "forge:glass"
                },
                "C": {
                    "tag": "forge:dyes/orange"
                }
            },
            "pattern": [
                " D ",
                "GCG",
                " I "
            ]
        }
    ],
    "psi:cad_colorizer_pink": [
        {
            "key": {
                "D": {
                    "tag": "psi:psidust"
                },
                "I": {
                    "tag": "forge:ingots/iron"
                },
                "G": {
                    "tag": "forge:glass"
                },
                "C": {
                    "tag": "forge:dyes/pink"
                }
            },
            "pattern": [
                " D ",
                "GCG",
                " I "
            ]
        }
    ],
    "psi:cad_colorizer_psi": [
        {
            "key": {
                "D": {
                    "tag": "psi:psidust"
                },
                "I": {
                    "tag": "forge:ingots/iron"
                },
                "G": {
                    "tag": "forge:glass"
                },
                "C": {
                    "tag": "psi:psidust"
                }
            },
            "pattern": [
                " D ",
                "GCG",
                " I "
            ]
        }
    ],
    "psi:cad_colorizer_purple": [
        {
            "key": {
                "D": {
                    "tag": "psi:psidust"
                },
                "I": {
                    "tag": "forge:ingots/iron"
                },
                "G": {
                    "tag": "forge:glass"
                },
                "C": {
                    "tag": "forge:dyes/purple"
                }
            },
            "pattern": [
                " D ",
                "GCG",
                " I "
            ]
        }
    ],
    "psi:cad_colorizer_rainbow": [
        {
            "key": {
                "D": {
                    "tag": "psi:psidust"
                },
                "I": {
                    "tag": "forge:ingots/iron"
                },
                "G": {
                    "tag": "forge:glass"
                },
                "C": {
                    "tag": "forge:gems/prismarine"
                }
            },
            "pattern": [
                " D ",
                "GCG",
                " I "
            ]
        }
    ],
    "psi:cad_colorizer_red": [
        {
            "key": {
                "D": {
                    "tag": "psi:psidust"
                },
                "I": {
                    "tag": "forge:ingots/iron"
                },
                "G": {
                    "tag": "forge:glass"
                },
                "C": {
                    "tag": "forge:dyes/red"
                }
            },
            "pattern": [
                " D ",
                "GCG",
                " I "
            ]
        }
    ],
    "psi:cad_colorizer_white": [
        {
            "key": {
                "D": {
                    "tag": "psi:psidust"
                },
                "I": {
                    "tag": "forge:ingots/iron"
                },
                "G": {
                    "tag": "forge:glass"
                },
                "C": {
                    "tag": "forge:dyes/white"
                }
            },
            "pattern": [
                " D ",
                "GCG",
                " I "
            ]
        }
    ],
    "psi:cad_colorizer_yellow": [
        {
            "key": {
                "D": {
                    "tag": "psi:psidust"
                },
                "I": {
                    "tag": "forge:ingots/iron"
                },
                "G": {
                    "tag": "forge:glass"
                },
                "C": {
                    "tag": "forge:dyes/yellow"
                }
            },
            "pattern": [
                " D ",
                "GCG",
                " I "
            ]
        }
    ],
    "psi:cad_core_basic": [
        {
            "key": {
                "I": {
                    "tag": "forge:ingots/iron"
                },
                "D": {
                    "tag": "psi:psidust"
                }
            },
            "pattern": [
                " I ",
                "IDI",
                " I "
            ]
        }
    ],
    "psi:cad_core_conductive": [
        {
            "key": {
                "I": {
                    "tag": "forge:ingots/psimetal"
                },
                "D": {
                    "tag": "forge:dusts/glowstone"
                }
            },
            "pattern": [
                " I ",
                "IDI",
                " I "
            ]
        }
    ],
    "psi:cad_core_hyperclocked": [
        {
            "key": {
                "I": {
                    "tag": "forge:ingots/psimetal"
                },
                "D": {
                    "tag": "forge:dusts/redstone"
                },
                "G": {
                    "tag": "forge:gems/psigem"
                }
            },
            "pattern": [
                " G ",
                "IDI",
                " G "
            ]
        }
    ],
    "psi:cad_core_overclocked": [
        {
            "key": {
                "I": {
                    "tag": "forge:ingots/psimetal"
                },
                "D": {
                    "tag": "forge:dusts/redstone"
                }
            },
            "pattern": [
                " I ",
                "IDI",
                " I "
            ]
        }
    ],
    "psi:cad_core_radiative": [
        {
            "key": {
                "I": {
                    "tag": "forge:ingots/psimetal"
                },
                "D": {
                    "tag": "forge:dusts/glowstone"
                },
                "G": {
                    "tag": "forge:gems/psigem"
                }
            },
            "pattern": [
                " G ",
                "IDI",
                " G "
            ]
        }
    ],
    "psi:cad_socket_basic": [
        {
            "key": {
                "I": {
                    "tag": "forge:ingots/iron"
                },
                "D": {
                    "tag": "psi:psidust"
                }
            },
            "pattern": [
                "DI ",
                "I  "
            ]
        }
    ],
    "psi:cad_socket_huge": [
        {
            "key": {
                "I": {
                    "tag": "forge:ingots/psimetal"
                },
                "D": {
                    "tag": "forge:dusts/glowstone"
                },
                "G": {
                    "tag": "forge:gems/psigem"
                }
            },
            "pattern": [
                "DI ",
                "IG "
            ]
        }
    ],
    "psi:cad_socket_large": [
        {
            "key": {
                "I": {
                    "tag": "forge:ingots/psimetal"
                },
                "D": {
                    "tag": "forge:dusts/glowstone"
                }
            },
            "pattern": [
                "DI ",
                "I  "
            ]
        }
    ],
    "psi:cad_socket_signaling": [
        {
            "key": {
                "I": {
                    "tag": "forge:ingots/psimetal"
                },
                "D": {
                    "tag": "forge:dusts/redstone"
                }
            },
            "pattern": [
                "DI ",
                "I  "
            ]
        }
    ],
    "psi:cad_socket_transmissive": [
        {
            "key": {
                "I": {
                    "tag": "forge:ingots/psimetal"
                },
                "D": {
                    "tag": "forge:dusts/redstone"
                },
                "G": {
                    "tag": "forge:gems/psigem"
                }
            },
            "pattern": [
                "DI ",
                "IG "
            ]
        }
    ],
    "psi:detonator": [
        {
            "key": {
                "P": {
                    "tag": "psi:psidust"
                },
                "B": {
                    "tag": "minecraft:buttons"
                },
                "I": {
                    "tag": "forge:ingots/iron"
                }
            },
            "pattern": [
                " B ",
                "IPI"
            ]
        }
    ],
    "psi:ebony_psimetal_block": [
        {
            "ingredients": [
                {
                    "item": "psi:ebony_psimetal"
                },
                {
                    "item": "psi:ebony_psimetal"
                },
                {
                    "item": "psi:ebony_psimetal"
                },
                {
                    "item": "psi:ebony_psimetal"
                },
                {
                    "item": "psi:ebony_psimetal"
                },
                {
                    "item": "psi:ebony_psimetal"
                },
                {
                    "item": "psi:ebony_psimetal"
                },
                {
                    "item": "psi:ebony_psimetal"
                },
                {
                    "item": "psi:ebony_psimetal"
                }
            ]
        }
    ],
    "psi:ebony_psimetal": [
        {
            "key": {
                "S": {
                    "tag": "psi:ebony_substance"
                },
                "I": {
                    "tag": "forge:ingots/psimetal"
                }
            },
            "pattern": [
                "SSS",
                "SIS",
                "SSS"
            ]
        }
    ],
    "psi:exosuit_controller": [
        {
            "key": {
                "R": {
                    "tag": "forge:dusts/redstone"
                },
                "G": {
                    "tag": "forge:glass"
                },
                "I": {
                    "tag": "forge:ingots/psimetal"
                }
            },
            "pattern": [
                "R",
                "G",
                "I"
            ]
        }
    ],
    "psi:exosuit_sensor_heat": [
        {
            "key": {
                "M": {
                    "item": "minecraft:fire_charge"
                },
                "R": {
                    "tag": "forge:ingots/iron"
                },
                "I": {
                    "tag": "forge:ingots/psimetal"
                }
            },
            "pattern": [
                " I ",
                "IMR",
                " R "
            ]
        }
    ],
    "psi:exosuit_sensor_light": [
        {
            "key": {
                "M": {
                    "tag": "forge:dusts/glowstone"
                },
                "R": {
                    "tag": "forge:ingots/iron"
                },
                "I": {
                    "tag": "forge:ingots/psimetal"
                }
            },
            "pattern": [
                " I ",
                "IMR",
                " R "
            ]
        }
    ],
    "psi:exosuit_sensor_stress": [
        {
            "key": {
                "M": {
                    "item": "minecraft:glistering_melon_slice"
                },
                "R": {
                    "tag": "forge:ingots/iron"
                },
                "I": {
                    "tag": "forge:ingots/psimetal"
                }
            },
            "pattern": [
                " I ",
                "IMR",
                " R "
            ]
        }
    ],
    "psi:exosuit_sensor_trigger": [
        {
            "key": {
                "M": {
                    "item": "minecraft:gunpowder"
                },
                "R": {
                    "tag": "forge:ingots/iron"
                },
                "I": {
                    "tag": "forge:ingots/psimetal"
                }
            },
            "pattern": [
                " I ",
                "IMR",
                " R "
            ]
        }
    ],
    "psi:exosuit_sensor_water": [
        {
            "key": {
                "M": {
                    "tag": "forge:gems/prismarine"
                },
                "R": {
                    "tag": "forge:ingots/iron"
                },
                "I": {
                    "tag": "forge:ingots/psimetal"
                }
            },
            "pattern": [
                " I ",
                "IMR",
                " R "
            ]
        }
    ],
    "psi:ivory_psimetal_block": [
        {
            "ingredients": [
                {
                    "item": "psi:ivory_psimetal"
                },
                {
                    "item": "psi:ivory_psimetal"
                },
                {
                    "item": "psi:ivory_psimetal"
                },
                {
                    "item": "psi:ivory_psimetal"
                },
                {
                    "item": "psi:ivory_psimetal"
                },
                {
                    "item": "psi:ivory_psimetal"
                },
                {
                    "item": "psi:ivory_psimetal"
                },
                {
                    "item": "psi:ivory_psimetal"
                },
                {
                    "item": "psi:ivory_psimetal"
                }
            ]
        }
    ],
    "psi:ivory_psimetal": [
        {
            "key": {
                "S": {
                    "tag": "psi:ivory_substance"
                },
                "I": {
                    "tag": "forge:ingots/psimetal"
                }
            },
            "pattern": [
                "SSS",
                "SIS",
                "SSS"
            ]
        }
    ],
    "psi:programmer": [
        {
            "key": {
                "I": {
                    "tag": "forge:ingots/iron"
                },
                "D": {
                    "tag": "psi:psidust"
                }
            },
            "pattern": [
                "IDI",
                "I I",
                " I "
            ]
        }
    ],
    "psi:psidust_block": [
        {
            "ingredients": [
                {
                    "item": "psi:psidust"
                },
                {
                    "item": "psi:psidust"
                },
                {
                    "item": "psi:psidust"
                },
                {
                    "item": "psi:psidust"
                },
                {
                    "item": "psi:psidust"
                },
                {
                    "item": "psi:psidust"
                },
                {
                    "item": "psi:psidust"
                },
                {
                    "item": "psi:psidust"
                },
                {
                    "item": "psi:psidust"
                }
            ]
        }
    ],
    "psi:psigem_block": [
        {
            "ingredients": [
                {
                    "item": "psi:psigem"
                },
                {
                    "item": "psi:psigem"
                },
                {
                    "item": "psi:psigem"
                },
                {
                    "item": "psi:psigem"
                },
                {
                    "item": "psi:psigem"
                },
                {
                    "item": "psi:psigem"
                },
                {
                    "item": "psi:psigem"
                },
                {
                    "item": "psi:psigem"
                },
                {
                    "item": "psi:psigem"
                }
            ]
        }
    ],
    "psi:psimetal_axe": [
        {
            "key": {
                "P": {
                    "tag": "forge:ingots/psimetal"
                },
                "G": {
                    "tag": "forge:gems/psigem"
                },
                "I": {
                    "tag": "forge:ingots/iron"
                }
            },
            "pattern": [
                "GP",
                "PI",
                " I"
            ]
        }
    ],
    "psi:psimetal_block": [
        {
            "ingredients": [
                {
                    "item": "psi:psimetal"
                },
                {
                    "item": "psi:psimetal"
                },
                {
                    "item": "psi:psimetal"
                },
                {
                    "item": "psi:psimetal"
                },
                {
                    "item": "psi:psimetal"
                },
                {
                    "item": "psi:psimetal"
                },
                {
                    "item": "psi:psimetal"
                },
                {
                    "item": "psi:psimetal"
                },
                {
                    "item": "psi:psimetal"
                }
            ]
        }
    ],
    "psi:psimetal_exosuit_boots": [
        {
            "key": {
                "P": {
                    "tag": "forge:ingots/psimetal"
                },
                "G": {
                    "tag": "forge:gems/psigem"
                }
            },
            "pattern": [
                "G G",
                "P P"
            ]
        }
    ],
    "psi:psimetal_exosuit_chestplate": [
        {
            "key": {
                "P": {
                    "tag": "forge:ingots/psimetal"
                },
                "G": {
                    "tag": "forge:gems/psigem"
                }
            },
            "pattern": [
                "P P",
                "GPG",
                "PPP"
            ]
        }
    ],
    "psi:psimetal_exosuit_helmet": [
        {
            "key": {
                "P": {
                    "tag": "forge:ingots/psimetal"
                },
                "G": {
                    "tag": "forge:gems/psigem"
                }
            },
            "pattern": [
                "GPG",
                "P P"
            ]
        }
    ],
    "psi:psimetal_exosuit_leggings": [
        {
            "key": {
                "P": {
                    "tag": "forge:ingots/psimetal"
                },
                "G": {
                    "tag": "forge:gems/psigem"
                }
            },
            "pattern": [
                "GPG",
                "P P",
                "P P"
            ]
        }
    ],
    "psi:psimetal_pickaxe": [
        {
            "key": {
                "P": {
                    "tag": "forge:ingots/psimetal"
                },
                "G": {
                    "tag": "forge:gems/psigem"
                },
                "I": {
                    "tag": "forge:ingots/iron"
                }
            },
            "pattern": [
                "PGP",
                " I ",
                " I "
            ]
        }
    ],
    "psi:black_psimetal_plate": [
        {
            "key": {
                "C": {
                    "tag": "minecraft:coals"
                },
                "I": {
                    "tag": "forge:ingots/psimetal"
                }
            },
            "pattern": [
                " C ",
                "CIC",
                " C "
            ]
        }
    ],
    "psi:lit_black_psimetal_plate": [
        {
            "ingredients": [
                {
                    "tag": "forge:dusts/glowstone"
                },
                {
                    "item": "psi:black_psimetal_plate"
                }
            ]
        }
    ],
    "psi:white_psimetal_plate": [
        {
            "key": {
                "C": {
                    "tag": "forge:gems/quartz"
                },
                "I": {
                    "tag": "forge:ingots/psimetal"
                }
            },
            "pattern": [
                " C ",
                "CIC",
                " C "
            ]
        }
    ],
    "psi:lit_white_psimetal_plate": [
        {
            "ingredients": [
                {
                    "tag": "forge:dusts/glowstone"
                },
                {
                    "item": "psi:white_psimetal_plate"
                }
            ]
        }
    ],
    "psi:psimetal_shovel": [
        {
            "key": {
                "P": {
                    "tag": "forge:ingots/psimetal"
                },
                "G": {
                    "tag": "forge:gems/psigem"
                },
                "I": {
                    "tag": "forge:ingots/iron"
                }
            },
            "pattern": [
                "GP",
                " I",
                " I"
            ]
        }
    ],
    "psi:psimetal_sword": [
        {
            "key": {
                "P": {
                    "tag": "forge:ingots/psimetal"
                },
                "G": {
                    "tag": "forge:gems/psigem"
                },
                "I": {
                    "tag": "forge:ingots/iron"
                }
            },
            "pattern": [
                "P",
                "G",
                "I"
            ]
        }
    ],
    "psi:spell_bullet": [
        {
            "key": {
                "I": {
                    "tag": "forge:ingots/iron"
                },
                "D": {
                    "tag": "psi:psidust"
                }
            },
            "pattern": [
                "ID"
            ]
        }
    ],
    "psi:spell_bullet_charge": [
        {
            "key": {
                "I": {
                    "tag": "forge:ingots/iron"
                },
                "D": {
                    "tag": "psi:psidust"
                },
                "A": {
                    "tag": "forge:dusts/redstone"
                }
            },
            "pattern": [
                "AID"
            ]
        }
    ],
    "psi:spell_bullet_circle": [
        {
            "key": {
                "I": {
                    "tag": "forge:ingots/iron"
                },
                "D": {
                    "tag": "psi:psidust"
                },
                "A": [
                    {
                        "tag": "forge:slimeballs"
                    },
                    {
                        "item": "minecraft:snowball"
                    }
                ]
            },
            "pattern": [
                "AID"
            ]
        }
    ],
    "psi:spell_bullet_grenade": [
        {
            "key": {
                "I": {
                    "tag": "forge:ingots/iron"
                },
                "D": {
                    "tag": "psi:psidust"
                },
                "A": {
                    "tag": "forge:gunpowder"
                }
            },
            "pattern": [
                "AID"
            ]
        }
    ],
    "psi:spell_bullet_loop": [
        {
            "key": {
                "I": {
                    "tag": "forge:ingots/iron"
                },
                "D": {
                    "tag": "psi:psidust"
                },
                "A": {
                    "tag": "forge:string"
                }
            },
            "pattern": [
                "AID"
            ]
        }
    ],
    "psi:spell_bullet_mine": [
        {
            "key": {
                "I": {
                    "tag": "forge:ingots/iron"
                },
                "D": {
                    "tag": "psi:psidust"
                },
                "A": {
                    "tag": "minecraft:buttons"
                }
            },
            "pattern": [
                "AID"
            ]
        }
    ],
    "psi:spell_bullet_projectile": [
        {
            "key": {
                "I": {
                    "tag": "forge:ingots/iron"
                },
                "D": {
                    "tag": "psi:psidust"
                },
                "A": {
                    "tag": "minecraft:arrows"
                }
            },
            "pattern": [
                "AID"
            ]
        }
    ],
    "psi:spell_drive": [
        {
            "key": {
                "I": {
                    "tag": "forge:ingots/psimetal"
                },
                "R": {
                    "tag": "forge:dusts/redstone"
                }
            },
            "pattern": [
                "I",
                "R",
                "I"
            ]
        }
    ],
    "psi:vector_ruler": [
        {
            "key": {
                "D": {
                    "tag": "psi:psidust"
                },
                "I": {
                    "tag": "forge:ingots/iron"
                }
            },
            "pattern": [
                "D",
                "I",
                "I"
            ]
        }
    ]
}