{
    "refinedstorage:1024k_fluid_storage_block": [
        {
            "key": {
                "M": {
                    "item": "refinedstorage:machine_casing"
                },
                "R": {
                    "item": "minecraft:redstone"
                },
                "P": {
                    "item": "refinedstorage:1024k_fluid_storage_part"
                },
                "E": {
                    "item": "refinedstorage:quartz_enriched_iron"
                }
            },
            "pattern": [
                "EPE",
                "EME",
                "ERE"
            ]
        }
    ],
    "refinedstorage:1024k_fluid_storage_disk": [
        {
            "key": {
                "G": {
                    "tag": "forge:glass"
                },
                "R": {
                    "item": "minecraft:redstone"
                },
                "P": {
                    "item": "refinedstorage:1024k_fluid_storage_part"
                },
                "E": {
                    "item": "refinedstorage:quartz_enriched_iron"
                }
            },
            "pattern": [
                "GRG",
                "RPR",
                "EEE"
            ]
        },
        {
            "ingredients": [
                {
                    "item": "refinedstorage:storage_housing"
                },
                {
                    "item": "refinedstorage:1024k_fluid_storage_part"
                }
            ]
        }
    ],
    "refinedstorage:1024k_fluid_storage_part": [
        {
            "key": {
                "P": {
                    "item": "refinedstorage:improved_processor"
                },
                "E": {
                    "item": "refinedstorage:quartz_enriched_iron"
                },
                "S": {
                    "item": "refinedstorage:256k_fluid_storage_part"
                },
                "R": {
                    "item": "minecraft:bucket"
                }
            },
            "pattern": [
                "PEP",
                "SRS",
                "PSP"
            ]
        }
    ],
    "refinedstorage:16k_storage_block": [
        {
            "key": {
                "M": {
                    "item": "refinedstorage:machine_casing"
                },
                "R": {
                    "item": "minecraft:redstone"
                },
                "P": {
                    "item": "refinedstorage:16k_storage_part"
                },
                "E": {
                    "item": "refinedstorage:quartz_enriched_iron"
                }
            },
            "pattern": [
                "EPE",
                "EME",
                "ERE"
            ]
        }
    ],
    "refinedstorage:16k_storage_disk": [
        {
            "key": {
                "G": {
                    "tag": "forge:glass"
                },
                "R": {
                    "item": "minecraft:redstone"
                },
                "P": {
                    "item": "refinedstorage:16k_storage_part"
                },
                "E": {
                    "item": "refinedstorage:quartz_enriched_iron"
                }
            },
            "pattern": [
                "GRG",
                "RPR",
                "EEE"
            ]
        },
        {
            "ingredients": [
                {
                    "item": "refinedstorage:storage_housing"
                },
                {
                    "item": "refinedstorage:16k_storage_part"
                }
            ]
        }
    ],
    "refinedstorage:16k_storage_part": [
        {
            "key": {
                "P": {
                    "item": "refinedstorage:improved_processor"
                },
                "E": {
                    "item": "refinedstorage:quartz_enriched_iron"
                },
                "S": {
                    "item": "refinedstorage:4k_storage_part"
                },
                "R": {
                    "item": "minecraft:redstone"
                }
            },
            "pattern": [
                "PEP",
                "SRS",
                "PSP"
            ]
        }
    ],
    "refinedstorage:1k_storage_block": [
        {
            "key": {
                "M": {
                    "item": "refinedstorage:machine_casing"
                },
                "R": {
                    "item": "minecraft:redstone"
                },
                "P": {
                    "item": "refinedstorage:1k_storage_part"
                },
                "E": {
                    "item": "refinedstorage:quartz_enriched_iron"
                }
            },
            "pattern": [
                "EPE",
                "EME",
                "ERE"
            ]
        }
    ],
    "refinedstorage:1k_storage_disk": [
        {
            "key": {
                "G": {
                    "tag": "forge:glass"
                },
                "R": {
                    "item": "minecraft:redstone"
                },
                "P": {
                    "item": "refinedstorage:1k_storage_part"
                },
                "E": {
                    "item": "refinedstorage:quartz_enriched_iron"
                }
            },
            "pattern": [
                "GRG",
                "RPR",
                "EEE"
            ]
        },
        {
            "ingredients": [
                {
                    "item": "refinedstorage:storage_housing"
                },
                {
                    "item": "refinedstorage:1k_storage_part"
                }
            ]
        }
    ],
    "refinedstorage:1k_storage_part": [
        {
            "key": {
                "S": {
                    "tag": "refinedstorage:silicon"
                },
                "E": {
                    "item": "refinedstorage:quartz_enriched_iron"
                },
                "G": {
                    "tag": "forge:glass"
                },
                "R": {
                    "item": "minecraft:redstone"
                }
            },
            "pattern": [
                "SES",
                "GRG",
                "SGS"
            ]
        }
    ],
    "refinedstorage:256k_fluid_storage_block": [
        {
            "key": {
                "M": {
                    "item": "refinedstorage:machine_casing"
                },
                "R": {
                    "item": "minecraft:redstone"
                },
                "P": {
                    "item": "refinedstorage:256k_fluid_storage_part"
                },
                "E": {
                    "item": "refinedstorage:quartz_enriched_iron"
                }
            },
            "pattern": [
                "EPE",
                "EME",
                "ERE"
            ]
        }
    ],
    "refinedstorage:256k_fluid_storage_disk": [
        {
            "key": {
                "G": {
                    "tag": "forge:glass"
                },
                "R": {
                    "item": "minecraft:redstone"
                },
                "P": {
                    "item": "refinedstorage:256k_fluid_storage_part"
                },
                "E": {
                    "item": "refinedstorage:quartz_enriched_iron"
                }
            },
            "pattern": [
                "GRG",
                "RPR",
                "EEE"
            ]
        },
        {
            "ingredients": [
                {
                    "item": "refinedstorage:storage_housing"
                },
                {
                    "item": "refinedstorage:256k_fluid_storage_part"
                }
            ]
        }
    ],
    "refinedstorage:256k_fluid_storage_part": [
        {
            "key": {
                "P": {
                    "item": "refinedstorage:basic_processor"
                },
                "E": {
                    "item": "refinedstorage:quartz_enriched_iron"
                },
                "S": {
                    "item": "refinedstorage:64k_fluid_storage_part"
                },
                "R": {
                    "item": "minecraft:bucket"
                }
            },
            "pattern": [
                "PEP",
                "SRS",
                "PSP"
            ]
        }
    ],
    "refinedstorage:4096k_fluid_storage_block": [
        {
            "key": {
                "M": {
                    "item": "refinedstorage:machine_casing"
                },
                "R": {
                    "item": "minecraft:redstone"
                },
                "P": {
                    "item": "refinedstorage:4096k_fluid_storage_part"
                },
                "E": {
                    "item": "refinedstorage:quartz_enriched_iron"
                }
            },
            "pattern": [
                "EPE",
                "EME",
                "ERE"
            ]
        }
    ],
    "refinedstorage:4096k_fluid_storage_disk": [
        {
            "key": {
                "G": {
                    "tag": "forge:glass"
                },
                "R": {
                    "item": "minecraft:redstone"
                },
                "P": {
                    "item": "refinedstorage:4096k_fluid_storage_part"
                },
                "E": {
                    "item": "refinedstorage:quartz_enriched_iron"
                }
            },
            "pattern": [
                "GRG",
                "RPR",
                "EEE"
            ]
        },
        {
            "ingredients": [
                {
                    "item": "refinedstorage:storage_housing"
                },
                {
                    "item": "refinedstorage:4096k_fluid_storage_part"
                }
            ]
        }
    ],
    "refinedstorage:4096k_fluid_storage_part": [
        {
            "key": {
                "P": {
                    "item": "refinedstorage:advanced_processor"
                },
                "E": {
                    "item": "refinedstorage:quartz_enriched_iron"
                },
                "S": {
                    "item": "refinedstorage:1024k_fluid_storage_part"
                },
                "R": {
                    "item": "minecraft:bucket"
                }
            },
            "pattern": [
                "PEP",
                "SRS",
                "PSP"
            ]
        }
    ],
    "refinedstorage:4k_storage_block": [
        {
            "key": {
                "M": {
                    "item": "refinedstorage:machine_casing"
                },
                "R": {
                    "item": "minecraft:redstone"
                },
                "P": {
                    "item": "refinedstorage:4k_storage_part"
                },
                "E": {
                    "item": "refinedstorage:quartz_enriched_iron"
                }
            },
            "pattern": [
                "EPE",
                "EME",
                "ERE"
            ]
        }
    ],
    "refinedstorage:4k_storage_disk": [
        {
            "key": {
                "G": {
                    "tag": "forge:glass"
                },
                "R": {
                    "item": "minecraft:redstone"
                },
                "P": {
                    "item": "refinedstorage:4k_storage_part"
                },
                "E": {
                    "item": "refinedstorage:quartz_enriched_iron"
                }
            },
            "pattern": [
                "GRG",
                "RPR",
                "EEE"
            ]
        },
        {
            "ingredients": [
                {
                    "item": "refinedstorage:storage_housing"
                },
                {
                    "item": "refinedstorage:4k_storage_part"
                }
            ]
        }
    ],
    "refinedstorage:4k_storage_part": [
        {
            "key": {
                "P": {
                    "item": "refinedstorage:basic_processor"
                },
                "E": {
                    "item": "refinedstorage:quartz_enriched_iron"
                },
                "S": {
                    "item": "refinedstorage:1k_storage_part"
                },
                "R": {
                    "item": "minecraft:redstone"
                }
            },
            "pattern": [
                "PEP",
                "SRS",
                "PSP"
            ]
        }
    ],
    "refinedstorage:64k_fluid_storage_block": [
        {
            "key": {
                "M": {
                    "item": "refinedstorage:machine_casing"
                },
                "R": {
                    "item": "minecraft:redstone"
                },
                "P": {
                    "item": "refinedstorage:64k_fluid_storage_part"
                },
                "E": {
                    "item": "refinedstorage:quartz_enriched_iron"
                }
            },
            "pattern": [
                "EPE",
                "EME",
                "ERE"
            ]
        }
    ],
    "refinedstorage:64k_fluid_storage_disk": [
        {
            "key": {
                "G": {
                    "tag": "forge:glass"
                },
                "R": {
                    "item": "minecraft:redstone"
                },
                "P": {
                    "item": "refinedstorage:64k_fluid_storage_part"
                },
                "E": {
                    "item": "refinedstorage:quartz_enriched_iron"
                }
            },
            "pattern": [
                "GRG",
                "RPR",
                "EEE"
            ]
        },
        {
            "ingredients": [
                {
                    "item": "refinedstorage:storage_housing"
                },
                {
                    "item": "refinedstorage:64k_fluid_storage_part"
                }
            ]
        }
    ],
    "refinedstorage:64k_fluid_storage_part": [
        {
            "key": {
                "S": {
                    "tag": "refinedstorage:silicon"
                },
                "E": {
                    "item": "refinedstorage:quartz_enriched_iron"
                },
                "G": {
                    "tag": "forge:glass"
                },
                "R": {
                    "item": "minecraft:bucket"
                }
            },
            "pattern": [
                "SES",
                "GRG",
                "SGS"
            ]
        }
    ],
    "refinedstorage:64k_storage_block": [
        {
            "key": {
                "M": {
                    "item": "refinedstorage:machine_casing"
                },
                "R": {
                    "item": "minecraft:redstone"
                },
                "P": {
                    "item": "refinedstorage:64k_storage_part"
                },
                "E": {
                    "item": "refinedstorage:quartz_enriched_iron"
                }
            },
            "pattern": [
                "EPE",
                "EME",
                "ERE"
            ]
        }
    ],
    "refinedstorage:64k_storage_disk": [
        {
            "key": {
                "G": {
                    "tag": "forge:glass"
                },
                "R": {
                    "item": "minecraft:redstone"
                },
                "P": {
                    "item": "refinedstorage:64k_storage_part"
                },
                "E": {
                    "item": "refinedstorage:quartz_enriched_iron"
                }
            },
            "pattern": [
                "GRG",
                "RPR",
                "EEE"
            ]
        },
        {
            "ingredients": [
                {
                    "item": "refinedstorage:storage_housing"
                },
                {
                    "item": "refinedstorage:64k_storage_part"
                }
            ]
        }
    ],
    "refinedstorage:64k_storage_part": [
        {
            "key": {
                "P": {
                    "item": "refinedstorage:advanced_processor"
                },
                "E": {
                    "item": "refinedstorage:quartz_enriched_iron"
                },
                "S": {
                    "item": "refinedstorage:16k_storage_part"
                },
                "R": {
                    "item": "minecraft:redstone"
                }
            },
            "pattern": [
                "PEP",
                "SRS",
                "PSP"
            ]
        }
    ],
    "refinedstorage:quartz_enriched_iron_block": [
        {
            "key": {
                "E": {
                    "item": "refinedstorage:quartz_enriched_iron"
                }
            },
            "pattern": [
                "EEE",
                "EEE",
                "EEE"
            ]
        }
    ],
    "refinedstorage:cable": [
        {
            "key": {
                "E": {
                    "item": "refinedstorage:quartz_enriched_iron"
                },
                "G": {
                    "tag": "forge:glass"
                },
                "R": {
                    "item": "minecraft:redstone"
                }
            },
            "pattern": [
                "EEE",
                "GRG",
                "EEE"
            ],
            "count": 12
        }
    ],
    "refinedstorage:construction_core": [
        {
            "ingredients": [
                {
                    "item": "refinedstorage:basic_processor"
                },
                {
                    "item": "minecraft:glowstone_dust"
                }
            ]
        }
    ],
    "refinedstorage:constructor": [
        {
            "key": {
                "E": {
                    "item": "refinedstorage:quartz_enriched_iron"
                },
                "C": {
                    "item": "refinedstorage:construction_core"
                },
                "R": {
                    "item": "minecraft:redstone"
                },
                "M": {
                    "item": "refinedstorage:cable"
                },
                "I": {
                    "item": "refinedstorage:improved_processor"
                }
            },
            "pattern": [
                "ECE",
                "RMR",
                "EIE"
            ]
        }
    ],
    "refinedstorage:controller": [
        {
            "key": {
                "E": {
                    "item": "refinedstorage:quartz_enriched_iron"
                },
                "P": {
                    "item": "refinedstorage:advanced_processor"
                },
                "S": {
                    "tag": "refinedstorage:silicon"
                },
                "M": {
                    "item": "refinedstorage:machine_casing"
                }
            },
            "pattern": [
                "EPE",
                "SMS",
                "ESE"
            ]
        }
    ],
    "refinedstorage:crafter": [
        {
            "key": {
                "E": {
                    "item": "refinedstorage:quartz_enriched_iron"
                },
                "C": {
                    "item": "refinedstorage:construction_core"
                },
                "A": {
                    "item": "refinedstorage:advanced_processor"
                },
                "M": {
                    "item": "refinedstorage:machine_casing"
                },
                "D": {
                    "item": "refinedstorage:destruction_core"
                }
            },
            "pattern": [
                "ECE",
                "AMA",
                "EDE"
            ]
        }
    ],
    "refinedstorage:crafter_manager": [
        {
            "key": {
                "P": {
                    "item": "refinedstorage:advanced_processor"
                },
                "C": {
                    "tag": "refinedstorage:crafter"
                },
                "G": {
                    "tag": "forge:glass"
                },
                "E": {
                    "item": "refinedstorage:quartz_enriched_iron"
                },
                "M": {
                    "item": "refinedstorage:machine_casing"
                }
            },
            "pattern": [
                "PCG",
                "EMG",
                "PCG"
            ]
        }
    ],
    "refinedstorage:crafting_monitor": [
        {
            "key": {
                "P": {
                    "item": "refinedstorage:improved_processor"
                },
                "A": {
                    "item": "refinedstorage:pattern"
                },
                "G": {
                    "tag": "forge:glass"
                },
                "E": {
                    "item": "refinedstorage:quartz_enriched_iron"
                },
                "M": {
                    "item": "refinedstorage:machine_casing"
                }
            },
            "pattern": [
                "PAG",
                "EMG",
                "PAG"
            ]
        }
    ],
    "refinedstorage:crafting_upgrade": [
        {
            "key": {
                "E": {
                    "item": "refinedstorage:quartz_enriched_iron"
                },
                "C": {
                    "tag": "refinedstorage:crafting_tables"
                },
                "O": {
                    "item": "refinedstorage:construction_core"
                },
                "U": {
                    "item": "refinedstorage:upgrade"
                }
            },
            "pattern": [
                "EOE",
                "CUC",
                "EEE"
            ]
        }
    ],
    "refinedstorage:destruction_core": [
        {
            "ingredients": [
                {
                    "item": "refinedstorage:basic_processor"
                },
                {
                    "item": "minecraft:quartz"
                }
            ]
        }
    ],
    "refinedstorage:destructor": [
        {
            "key": {
                "E": {
                    "item": "refinedstorage:quartz_enriched_iron"
                },
                "D": {
                    "item": "refinedstorage:destruction_core"
                },
                "R": {
                    "item": "minecraft:redstone"
                },
                "M": {
                    "item": "refinedstorage:cable"
                },
                "I": {
                    "item": "refinedstorage:improved_processor"
                }
            },
            "pattern": [
                "EDE",
                "RMR",
                "EIE"
            ]
        }
    ],
    "refinedstorage:detector": [
        {
            "key": {
                "E": {
                    "item": "refinedstorage:quartz_enriched_iron"
                },
                "C": {
                    "item": "minecraft:comparator"
                },
                "R": {
                    "item": "minecraft:redstone_torch"
                },
                "M": {
                    "item": "refinedstorage:machine_casing"
                },
                "P": {
                    "item": "refinedstorage:improved_processor"
                }
            },
            "pattern": [
                "ERE",
                "CMC",
                "EPE"
            ]
        }
    ],
    "refinedstorage:disk_drive": [
        {
            "key": {
                "E": {
                    "item": "refinedstorage:quartz_enriched_iron"
                },
                "C": {
                    "tag": "forge:chests"
                },
                "M": {
                    "item": "refinedstorage:machine_casing"
                },
                "P": {
                    "item": "refinedstorage:advanced_processor"
                }
            },
            "pattern": [
                "ECE",
                "EME",
                "EPE"
            ]
        }
    ],
    "refinedstorage:disk_manipulator": [
        {
            "key": {
                "E": {
                    "item": "refinedstorage:quartz_enriched_iron"
                },
                "S": {
                    "item": "refinedstorage:storage_housing"
                },
                "C": {
                    "item": "refinedstorage:construction_core"
                },
                "M": {
                    "item": "refinedstorage:machine_casing"
                },
                "D": {
                    "item": "refinedstorage:destruction_core"
                }
            },
            "pattern": [
                "ESE",
                "CMD",
                "ESE"
            ]
        }
    ],
    "refinedstorage:exporter": [
        {
            "ingredients": [
                {
                    "item": "refinedstorage:cable"
                },
                {
                    "item": "refinedstorage:construction_core"
                },
                {
                    "item": "refinedstorage:improved_processor"
                }
            ]
        }
    ],
    "refinedstorage:external_storage": [
        {
            "key": {
                "C": {
                    "item": "refinedstorage:construction_core"
                },
                "E": {
                    "item": "refinedstorage:quartz_enriched_iron"
                },
                "D": {
                    "item": "refinedstorage:destruction_core"
                },
                "H": {
                    "tag": "forge:chests"
                },
                "M": {
                    "item": "refinedstorage:cable"
                },
                "P": {
                    "item": "refinedstorage:improved_processor"
                }
            },
            "pattern": [
                "CED",
                "HMH",
                "EPE"
            ]
        }
    ],
    "refinedstorage:filter": [
        {
            "key": {
                "E": {
                    "item": "refinedstorage:quartz_enriched_iron"
                },
                "P": {
                    "item": "minecraft:paper"
                },
                "H": {
                    "item": "minecraft:hopper"
                }
            },
            "pattern": [
                "EPE",
                "PHP",
                "EPE"
            ]
        }
    ],
    "refinedstorage:fluid_interface": [
        {
            "ingredients": [
                {
                    "item": "refinedstorage:interface"
                },
                {
                    "item": "refinedstorage:advanced_processor"
                },
                {
                    "item": "minecraft:bucket"
                }
            ]
        }
    ],
    "refinedstorage:grid": [
        {
            "key": {
                "P": {
                    "item": "refinedstorage:improved_processor"
                },
                "C": {
                    "item": "refinedstorage:construction_core"
                },
                "G": {
                    "tag": "forge:glass"
                },
                "E": {
                    "item": "refinedstorage:quartz_enriched_iron"
                },
                "M": {
                    "item": "refinedstorage:machine_casing"
                },
                "D": {
                    "item": "refinedstorage:destruction_core"
                }
            },
            "pattern": [
                "PCG",
                "EMG",
                "PDG"
            ]
        }
    ],
    "refinedstorage:importer": [
        {
            "ingredients": [
                {
                    "item": "refinedstorage:cable"
                },
                {
                    "item": "refinedstorage:destruction_core"
                },
                {
                    "item": "refinedstorage:improved_processor"
                }
            ]
        }
    ],
    "refinedstorage:interface": [
        {
            "key": {
                "I": {
                    "item": "refinedstorage:importer"
                },
                "E": {
                    "item": "refinedstorage:exporter"
                },
                "M": {
                    "item": "refinedstorage:machine_casing"
                },
                "R": {
                    "item": "minecraft:redstone"
                },
                "U": {
                    "item": "refinedstorage:quartz_enriched_iron"
                }
            },
            "pattern": [
                "UIU",
                "RMR",
                "UEU"
            ]
        }
    ],
    "refinedstorage:machine_casing": [
        {
            "key": {
                "E": {
                    "item": "refinedstorage:quartz_enriched_iron"
                },
                "S": {
                    "tag": "forge:stone"
                }
            },
            "pattern": [
                "EEE",
                "ESE",
                "EEE"
            ]
        }
    ],
    "refinedstorage:network_card": [
        {
            "key": {
                "E": {
                    "item": "refinedstorage:quartz_enriched_iron"
                },
                "P": {
                    "item": "minecraft:paper"
                },
                "A": {
                    "item": "refinedstorage:advanced_processor"
                }
            },
            "pattern": [
                "EEE",
                "PAP",
                "EEE"
            ]
        }
    ],
    "refinedstorage:network_receiver": [
        {
            "key": {
                "E": {
                    "tag": "forge:ender_pearls"
                },
                "C": {
                    "item": "refinedstorage:construction_core"
                },
                "M": {
                    "item": "refinedstorage:machine_casing"
                },
                "D": {
                    "item": "refinedstorage:destruction_core"
                },
                "A": {
                    "item": "refinedstorage:advanced_processor"
                },
                "N": {
                    "item": "minecraft:netherite_ingot"
                }
            },
            "pattern": [
                "ANA",
                "CMD",
                "EEE"
            ]
        }
    ],
    "refinedstorage:network_transmitter": [
        {
            "key": {
                "E": {
                    "tag": "forge:ender_pearls"
                },
                "C": {
                    "item": "refinedstorage:construction_core"
                },
                "M": {
                    "item": "refinedstorage:machine_casing"
                },
                "D": {
                    "item": "refinedstorage:destruction_core"
                },
                "A": {
                    "item": "refinedstorage:advanced_processor"
                },
                "N": {
                    "item": "minecraft:netherite_ingot"
                }
            },
            "pattern": [
                "EEE",
                "CMD",
                "ANA"
            ]
        }
    ],
    "refinedstorage:pattern": [
        {
            "key": {
                "G": {
                    "tag": "forge:glass"
                },
                "R": {
                    "item": "minecraft:redstone"
                },
                "E": {
                    "item": "refinedstorage:quartz_enriched_iron"
                }
            },
            "pattern": [
                "GRG",
                "RGR",
                "EEE"
            ]
        }
    ],
    "refinedstorage:portable_grid": [
        {
            "key": {
                "E": {
                    "item": "refinedstorage:quartz_enriched_iron"
                },
                "G": {
                    "tag": "refinedstorage:grid"
                },
                "F": {
                    "item": "refinedstorage:fluid_grid"
                },
                "C": {
                    "tag": "refinedstorage:controller"
                }
            },
            "pattern": [
                "EGE",
                "ECE",
                "EFE"
            ]
        }
    ],
    "refinedstorage:processor_binding": [
        {
            "key": {
                "S": {
                    "tag": "forge:string"
                },
                "L": {
                    "tag": "forge:slimeballs"
                }
            },
            "pattern": [
                "   ",
                "SLS",
                "   "
            ],
            "count": 8
        }
    ],
    "refinedstorage:quartz_enriched_iron": [
        {
            "key": {
                "I": {
                    "item": "minecraft:iron_ingot"
                },
                "Q": {
                    "item": "minecraft:quartz"
                }
            },
            "pattern": [
                "II",
                "IQ"
            ],
            "count": 4
        },
        {
            "ingredients": [
                {
                    "item": "refinedstorage:quartz_enriched_iron_block"
                }
            ],
            "count": 9
        }
    ],
    "refinedstorage:range_upgrade": [
        {
            "key": {
                "E": {
                    "item": "refinedstorage:quartz_enriched_iron"
                },
                "P": {
                    "tag": "forge:ender_pearls"
                },
                "U": {
                    "item": "refinedstorage:upgrade"
                }
            },
            "pattern": [
                "EPE",
                "PUP",
                "EEE"
            ]
        }
    ],
    "refinedstorage:raw_advanced_processor": [
        {
            "ingredients": [
                {
                    "item": "refinedstorage:processor_binding"
                },
                {
                    "item": "minecraft:diamond"
                },
                {
                    "tag": "refinedstorage:silicon"
                },
                {
                    "item": "minecraft:redstone"
                }
            ]
        }
    ],
    "refinedstorage:raw_basic_processor": [
        {
            "ingredients": [
                {
                    "item": "refinedstorage:processor_binding"
                },
                {
                    "item": "minecraft:iron_ingot"
                },
                {
                    "tag": "refinedstorage:silicon"
                },
                {
                    "item": "minecraft:redstone"
                }
            ]
        }
    ],
    "refinedstorage:raw_improved_processor": [
        {
            "ingredients": [
                {
                    "item": "refinedstorage:processor_binding"
                },
                {
                    "item": "minecraft:gold_ingot"
                },
                {
                    "tag": "refinedstorage:silicon"
                },
                {
                    "item": "minecraft:redstone"
                }
            ]
        }
    ],
    "refinedstorage:regulator_upgrade": [
        {
            "key": {
                "E": {
                    "item": "refinedstorage:quartz_enriched_iron"
                },
                "R": {
                    "item": "minecraft:redstone"
                },
                "C": {
                    "item": "minecraft:comparator"
                },
                "U": {
                    "item": "refinedstorage:upgrade"
                }
            },
            "pattern": [
                "ECE",
                "RUR",
                "EEE"
            ]
        }
    ],
    "refinedstorage:relay": [
        {
            "ingredients": [
                {
                    "item": "refinedstorage:machine_casing"
                },
                {
                    "item": "refinedstorage:cable"
                },
                {
                    "item": "minecraft:redstone_torch"
                }
            ]
        }
    ],
    "refinedstorage:security_card": [
        {
            "key": {
                "E": {
                    "item": "refinedstorage:quartz_enriched_iron"
                },
                "C": {
                    "item": "refinedstorage:network_card"
                },
                "A": {
                    "item": "refinedstorage:advanced_processor"
                }
            },
            "pattern": [
                "EEE",
                "CAC",
                "EEE"
            ]
        }
    ],
    "refinedstorage:security_manager": [
        {
            "key": {
                "E": {
                    "item": "refinedstorage:quartz_enriched_iron"
                },
                "C": {
                    "tag": "forge:chests"
                },
                "S": {
                    "item": "refinedstorage:security_card"
                },
                "M": {
                    "item": "refinedstorage:machine_casing"
                }
            },
            "pattern": [
                "ECE",
                "SMS",
                "ESE"
            ]
        }
    ],
    "refinedstorage:speed_upgrade": [
        {
            "key": {
                "E": {
                    "item": "refinedstorage:quartz_enriched_iron"
                },
                "S": {
                    "item": "minecraft:sugar"
                },
                "U": {
                    "item": "refinedstorage:upgrade"
                }
            },
            "pattern": [
                "ESE",
                "SUS",
                "EEE"
            ]
        }
    ],
    "refinedstorage:stack_upgrade": [
        {
            "key": {
                "U": {
                    "item": "minecraft:sugar"
                },
                "S": {
                    "item": "refinedstorage:speed_upgrade"
                }
            },
            "pattern": [
                "USU",
                "SUS",
                "USU"
            ]
        }
    ],
    "refinedstorage:storage_housing": [
        {
            "key": {
                "G": {
                    "tag": "forge:glass"
                },
                "R": {
                    "item": "minecraft:redstone"
                },
                "E": {
                    "item": "refinedstorage:quartz_enriched_iron"
                }
            },
            "pattern": [
                "GRG",
                "R R",
                "EEE"
            ]
        }
    ],
    "refinedstorage:storage_monitor": [
        {
            "key": {
                "P": {
                    "item": "refinedstorage:basic_processor"
                },
                "C": {
                    "item": "refinedstorage:construction_core"
                },
                "G": {
                    "tag": "forge:glass"
                },
                "E": {
                    "item": "refinedstorage:quartz_enriched_iron"
                },
                "M": {
                    "item": "refinedstorage:machine_casing"
                },
                "D": {
                    "item": "refinedstorage:destruction_core"
                }
            },
            "pattern": [
                "PCG",
                "EMG",
                "PDG"
            ]
        }
    ],
    "refinedstorage:upgrade": [
        {
            "key": {
                "E": {
                    "item": "refinedstorage:quartz_enriched_iron"
                },
                "G": {
                    "tag": "forge:glass"
                },
                "P": {
                    "item": "refinedstorage:improved_processor"
                }
            },
            "pattern": [
                "EGE",
                "EPE",
                "EGE"
            ]
        }
    ],
    "refinedstorage:wireless_crafting_monitor": [
        {
            "key": {
                "E": {
                    "item": "refinedstorage:quartz_enriched_iron"
                },
                "P": {
                    "tag": "forge:ender_pearls"
                },
                "M": {
                    "tag": "refinedstorage:crafting_monitor"
                },
                "A": {
                    "item": "refinedstorage:advanced_processor"
                }
            },
            "pattern": [
                "EPE",
                "EME",
                "EAE"
            ]
        }
    ],
    "refinedstorage:wireless_fluid_grid": [
        {
            "key": {
                "E": {
                    "item": "refinedstorage:quartz_enriched_iron"
                },
                "P": {
                    "tag": "forge:ender_pearls"
                },
                "G": {
                    "tag": "refinedstorage:fluid_grid"
                },
                "A": {
                    "item": "refinedstorage:advanced_processor"
                }
            },
            "pattern": [
                "EPE",
                "EGE",
                "EAE"
            ]
        }
    ],
    "refinedstorage:wireless_grid": [
        {
            "key": {
                "E": {
                    "item": "refinedstorage:quartz_enriched_iron"
                },
                "P": {
                    "tag": "forge:ender_pearls"
                },
                "G": {
                    "tag": "refinedstorage:grid"
                },
                "A": {
                    "item": "refinedstorage:advanced_processor"
                }
            },
            "pattern": [
                "EPE",
                "EGE",
                "EAE"
            ]
        }
    ],
    "refinedstorage:wireless_transmitter": [
        {
            "key": {
                "E": {
                    "item": "refinedstorage:quartz_enriched_iron"
                },
                "A": {
                    "item": "refinedstorage:advanced_processor"
                },
                "M": {
                    "item": "refinedstorage:machine_casing"
                },
                "P": {
                    "tag": "forge:ender_pearls"
                }
            },
            "pattern": [
                "EPE",
                "EME",
                "EAE"
            ]
        }
    ],
    "refinedstorage:wrench": [
        {
            "key": {
                "E": {
                    "item": "refinedstorage:quartz_enriched_iron"
                },
                "P": {
                    "item": "refinedstorage:basic_processor"
                }
            },
            "pattern": [
                "EPE",
                "EEE",
                " E "
            ]
        }
    ]
}