{
    "restrictions:attractor": [
        {
            "key": {
                "f": {
                    "item": "minecraft:feather"
                },
                "P": {
                    "item": "minecraft:sticky_piston"
                },
                "r": {
                    "item": "minecraft:redstone"
                }
            },
            "pattern": [
                "frf",
                "rPr",
                "frf"
            ]
        }
    ],
    "restrictions:glassboots": [
        {
            "key": {
                "g": {
                    "tag": "forge:glass_panes"
                },
                "G": {
                    "tag": "forge:glass"
                }
            },
            "pattern": [
                "   ",
                "g g",
                "G G"
            ]
        }
    ],
    "restrictions:oneway": [
        {
            "key": {
                "f": {
                    "tag": "forge:slimeballs"
                },
                "P": {
                    "item": "minecraft:rail"
                },
                "r": {
                    "item": "minecraft:redstone"
                }
            },
            "pattern": [
                "frf",
                "rPr",
                "frf"
            ]
        }
    ],
    "restrictions:oneway_wall": [
        {
            "key": {
                "f": {
                    "tag": "forge:slimeballs"
                },
                "P": {
                    "tag": "forge:glass"
                },
                "r": {
                    "item": "minecraft:redstone"
                }
            },
            "pattern": [
                "frf",
                "rPr",
                "frf"
            ]
        }
    ],
    "restrictions:pusher": [
        {
            "key": {
                "f": {
                    "item": "minecraft:feather"
                },
                "P": {
                    "item": "minecraft:piston"
                },
                "r": {
                    "item": "minecraft:redstone"
                }
            },
            "pattern": [
                "frf",
                "rPr",
                "frf"
            ]
        }
    ]
}