{
    "rftoolsbase:crafting_card": [
        {
            "key": {
                "c": {
                    "item": "minecraft:crafting_table"
                },
                "r": {
                    "item": "minecraft:redstone"
                },
                "p": {
                    "item": "minecraft:paper"
                }
            },
            "pattern": [
                "pc",
                "rp"
            ],
            "count": 8
        }
    ],
    "rftoolsbase:dimensionalshard": [
        {
            "key": {
                "q": {
                    "item": "minecraft:quartz"
                },
                "r": {
                    "item": "minecraft:redstone"
                },
                "c": {
                    "item": "minecraft:prismarine_shard"
                },
                "d": {
                    "item": "minecraft:diamond"
                },
                "e": {
                    "item": "minecraft:emerald"
                },
                "g": {
                    "item": "minecraft:gold_ingot"
                },
                "G": {
                    "item": "minecraft:glowstone_dust"
                },
                "i": {
                    "item": "minecraft:iron_ingot"
                },
                "L": {
                    "item": "minecraft:glass"
                }
            },
            "pattern": [
                "deg",
                "irG",
                "qcL"
            ]
        }
    ],
    "rftoolsbase:filter_module": [
        {
            "key": {
                "h": {
                    "item": "minecraft:hopper"
                },
                "r": {
                    "item": "minecraft:redstone"
                },
                "p": {
                    "item": "minecraft:paper"
                },
                "i": {
                    "item": "minecraft:iron_ingot"
                }
            },
            "pattern": [
                " h ",
                "rir",
                " p "
            ]
        }
    ],
    "rftoolsbase:information_screen": [
        {
            "key": {
                "-": {
                    "tag": "forge:glass_panes"
                },
                "A": {
                    "item": "rftoolsbase:machine_base"
                },
                "r": {
                    "item": "minecraft:redstone"
                }
            },
            "pattern": [
                "---",
                "rAr"
            ]
        }
    ],
    "rftoolsbase:infused_diamond": [
        {
            "key": {
                "s": {
                    "item": "rftoolsbase:dimensionalshard"
                },
                "d": {
                    "item": "minecraft:diamond"
                }
            },
            "pattern": [
                "sss",
                "sds",
                "sss"
            ]
        }
    ],
    "rftoolsbase:infused_enderpearl": [
        {
            "key": {
                "s": {
                    "item": "rftoolsbase:dimensionalshard"
                },
                "d": {
                    "item": "minecraft:ender_pearl"
                }
            },
            "pattern": [
                "sss",
                "sds",
                "sss"
            ]
        }
    ],
    "rftoolsbase:machine_base": [
        {
            "key": {
                "g": {
                    "item": "minecraft:gold_nugget"
                },
                "s": {
                    "tag": "forge:stone"
                }
            },
            "pattern": [
                "ggg",
                "sss"
            ]
        }
    ],
    "rftoolsbase:machine_frame": [
        {
            "key": {
                "g": {
                    "item": "minecraft:gold_nugget"
                },
                "i": {
                    "item": "minecraft:iron_ingot"
                },
                "l": {
                    "tag": "forge:dyes/blue"
                }
            },
            "pattern": [
                "ili",
                "g g",
                "ili"
            ]
        }
    ],
    "rftoolsbase:machine_infuser": [
        {
            "key": {
                "r": {
                    "item": "minecraft:redstone"
                },
                "s": {
                    "item": "rftoolsbase:dimensionalshard"
                },
                "d": {
                    "item": "minecraft:diamond"
                },
                "M": {
                    "item": "rftoolsbase:machine_frame"
                }
            },
            "pattern": [
                "srs",
                "dMd",
                "srs"
            ]
        }
    ],
    "rftoolsbase:manual": [
        {
            "key": {
                "X": {
                    "item": "minecraft:book"
                },
                "g": {
                    "tag": "forge:nuggets/iron"
                }
            },
            "pattern": [
                "Xg",
                "gg"
            ]
        }
    ],
    "rftoolsbase:smartwrench": [
        {
            "key": {
                "i": {
                    "item": "minecraft:iron_ingot"
                },
                "l": {
                    "tag": "forge:dyes/blue"
                }
            },
            "pattern": [
                "  i",
                " l ",
                "l  "
            ]
        }
    ],
    "rftoolsbase:tablet": [
        {
            "key": {
                "g": {
                    "tag": "forge:nuggets/gold"
                },
                "Q": {
                    "tag": "forge:storage_blocks/quartz"
                },
                "R": {
                    "item": "minecraft:redstone_block"
                },
                "e": {
                    "item": "minecraft:emerald"
                }
            },
            "pattern": [
                "geg",
                "RQR",
                "gRg"
            ]
        }
    ]
}