{
    "rftoolspower:blazing_agitator": [
        {
            "key": {
                "X": {
                    "tag": "forge:rods/blaze"
                },
                "F": {
                    "item": "rftoolsbase:machine_frame"
                },
                "G": {
                    "tag": "forge:glass"
                },
                "i": {
                    "tag": "forge:ingots/iron"
                }
            },
            "pattern": [
                "XXX",
                "GFG",
                "iii"
            ]
        }
    ],
    "rftoolspower:blazing_generator": [
        {
            "key": {
                "X": {
                    "tag": "forge:rods/blaze"
                },
                "Y": {
                    "item": "rftoolsbase:infused_diamond"
                },
                "R": {
                    "item": "minecraft:redstone_block"
                },
                "F": {
                    "item": "rftoolsbase:machine_frame"
                }
            },
            "pattern": [
                "XYX",
                "RFR",
                "XYX"
            ]
        }
    ],
    "rftoolspower:blazing_infuser": [
        {
            "key": {
                "X": {
                    "tag": "forge:rods/blaze"
                },
                "s": {
                    "item": "rftoolsbase:dimensionalshard"
                },
                "F": {
                    "item": "rftoolsbase:machine_frame"
                },
                "i": {
                    "tag": "forge:ingots/iron"
                }
            },
            "pattern": [
                "iXi",
                "sFs",
                "iXi"
            ]
        }
    ],
    "rftoolspower:cell1": [
        {
            "key": {
                "K": {
                    "item": "rftoolspower:power_core1"
                },
                "r": {
                    "item": "minecraft:redstone"
                },
                "F": {
                    "item": "rftoolsbase:machine_frame"
                }
            },
            "pattern": [
                "rKr",
                "KFK",
                "rKr"
            ]
        }
    ],
    "rftoolspower:coalgenerator": [
        {
            "key": {
                "c": {
                    "tag": "minecraft:coals"
                },
                "T": {
                    "item": "minecraft:redstone_torch"
                },
                "F": {
                    "item": "rftoolsbase:machine_frame"
                }
            },
            "pattern": [
                "cTc",
                "cFc",
                "cTc"
            ]
        }
    ],
    "rftoolspower:dimensionalcell": [
        {
            "key": {
                "P": {
                    "item": "minecraft:prismarine_shard"
                },
                "R": {
                    "item": "minecraft:redstone_block"
                },
                "d": {
                    "item": "minecraft:diamond"
                },
                "e": {
                    "item": "minecraft:emerald"
                },
                "F": {
                    "item": "rftoolsbase:machine_frame"
                }
            },
            "pattern": [
                "RdR",
                "PFP",
                "ReR"
            ]
        }
    ],
    "rftoolspower:dimensionalcell_simple": [
        {
            "key": {
                "q": {
                    "item": "minecraft:quartz"
                },
                "R": {
                    "item": "minecraft:redstone_block"
                },
                "d": {
                    "item": "minecraft:diamond"
                },
                "F": {
                    "item": "rftoolsbase:machine_frame"
                }
            },
            "pattern": [
                "RdR",
                "qFq",
                "RdR"
            ]
        }
    ],
    "rftoolspower:endergenic": [
        {
            "key": {
                "Z": {
                    "item": "rftoolsbase:infused_enderpearl"
                },
                "d": {
                    "item": "minecraft:diamond"
                },
                "F": {
                    "item": "rftoolsbase:machine_frame"
                },
                "o": {
                    "tag": "forge:ender_pearls"
                }
            },
            "pattern": [
                "dod",
                "ZFZ",
                "dod"
            ]
        }
    ],
    "rftoolspower:ender_monitor": [
        {
            "key": {
                "A": {
                    "item": "rftoolsbase:machine_base"
                },
                "r": {
                    "item": "minecraft:redstone"
                },
                "T": {
                    "item": "minecraft:redstone_torch"
                },
                "o": {
                    "tag": "forge:ender_pearls"
                }
            },
            "pattern": [
                " o ",
                "rAr",
                "TrT"
            ]
        }
    ],
    "rftoolspower:pearl_injector": [
        {
            "key": {
                "C": {
                    "tag": "forge:chests"
                },
                "H": {
                    "item": "minecraft:hopper"
                },
                "r": {
                    "item": "minecraft:redstone"
                },
                "F": {
                    "item": "rftoolsbase:machine_frame"
                }
            },
            "pattern": [
                " C ",
                "rFr",
                " H "
            ]
        }
    ],
    "rftoolspower:power_core1": [
        {
            "key": {
                "r": {
                    "item": "minecraft:redstone"
                },
                "R": {
                    "item": "minecraft:redstone_block"
                },
                "d": {
                    "item": "minecraft:diamond"
                }
            },
            "pattern": [
                " d ",
                "rRr",
                " r "
            ]
        }
    ],
    "rftoolspower:power_core2": [
        {
            "key": {
                "r": {
                    "item": "minecraft:redstone"
                },
                "R": {
                    "item": "minecraft:redstone_block"
                },
                "s": {
                    "item": "rftoolsbase:dimensionalshard"
                },
                "e": {
                    "item": "minecraft:emerald"
                }
            },
            "pattern": [
                "ses",
                "rRr",
                "srs"
            ]
        }
    ],
    "rftoolspower:power_core3": [
        {
            "key": {
                "r": {
                    "item": "minecraft:redstone"
                },
                "R": {
                    "item": "minecraft:redstone_block"
                },
                "s": {
                    "item": "rftoolsbase:dimensionalshard"
                },
                "d": {
                    "item": "minecraft:diamond"
                },
                "e": {
                    "item": "minecraft:emerald"
                }
            },
            "pattern": [
                "sds",
                "rRr",
                "ses"
            ]
        }
    ],
    "rftoolspower:power_level": [
        {
            "key": {
                "P": {
                    "tag": "forge:glass_panes"
                },
                "A": {
                    "item": "rftoolsbase:machine_base"
                },
                "r": {
                    "item": "minecraft:redstone"
                },
                "R": {
                    "item": "minecraft:redstone_block"
                }
            },
            "pattern": [
                " P ",
                "rAr",
                " R "
            ]
        }
    ],
    "rftoolspower:power_monitor": [
        {
            "key": {
                "P": {
                    "item": "minecraft:comparator"
                },
                "A": {
                    "item": "rftoolsbase:machine_base"
                },
                "r": {
                    "item": "minecraft:redstone"
                },
                "R": {
                    "item": "minecraft:redstone_block"
                }
            },
            "pattern": [
                " P ",
                "rAr",
                " R "
            ]
        }
    ]
}