{
    "simplemagnets:advancedmagnet": [
        {
            "key": {
                "G": {
                    "tag": "forge:ingots/gold"
                },
                "L": {
                    "tag": "forge:gems/lapis"
                },
                "B": {
                    "item": "simplemagnets:basicmagnet"
                },
                "E": {
                    "item": "minecraft:ender_eye"
                },
                "D": {
                    "tag": "forge:gems/diamond"
                },
                "R": {
                    "tag": "forge:dusts/redstone"
                }
            },
            "pattern": [
                "GGL",
                "BED",
                "GGR"
            ]
        }
    ],
    "simplemagnets:basicmagnet": [
        {
            "key": {
                "I": {
                    "tag": "forge:ingots/iron"
                },
                "L": {
                    "tag": "forge:gems/lapis"
                },
                "E": {
                    "tag": "forge:ender_pearls"
                },
                "R": {
                    "tag": "forge:dusts/redstone"
                }
            },
            "pattern": [
                "IIL",
                "IE ",
                "IIR"
            ]
        }
    ]
}