{
    "xnet:advanced_connector_blue": [
        {
            "key": {
                "C": {
                    "item": "xnet:connector_blue"
                },
                "r": {
                    "item": "minecraft:redstone"
                },
                "d": {
                    "item": "minecraft:diamond"
                },
                "o": {
                    "tag": "forge:ender_pearls"
                }
            },
            "pattern": [
                "Co",
                "dr"
            ]
        },
        {
            "ingredients": [
                {
                    "tag": "forge:dyes/blue"
                },
                {
                    "tag": "xnet:advanced_connectors"
                }
            ]
        }
    ],
    "xnet:advanced_connector_green": [
        {
            "key": {
                "C": {
                    "item": "xnet:connector_green"
                },
                "r": {
                    "item": "minecraft:redstone"
                },
                "d": {
                    "item": "minecraft:diamond"
                },
                "o": {
                    "tag": "forge:ender_pearls"
                }
            },
            "pattern": [
                "Co",
                "dr"
            ]
        },
        {
            "ingredients": [
                {
                    "tag": "forge:dyes/green"
                },
                {
                    "tag": "xnet:advanced_connectors"
                }
            ]
        }
    ],
    "xnet:advanced_connector_red": [
        {
            "key": {
                "C": {
                    "item": "xnet:connector_red"
                },
                "r": {
                    "item": "minecraft:redstone"
                },
                "d": {
                    "item": "minecraft:diamond"
                },
                "o": {
                    "tag": "forge:ender_pearls"
                }
            },
            "pattern": [
                "Co",
                "dr"
            ]
        },
        {
            "ingredients": [
                {
                    "tag": "forge:dyes/red"
                },
                {
                    "tag": "xnet:advanced_connectors"
                }
            ]
        }
    ],
    "xnet:advanced_connector_routing": [
        {
            "key": {
                "C": {
                    "item": "xnet:connector_routing"
                },
                "r": {
                    "item": "minecraft:redstone"
                },
                "d": {
                    "item": "minecraft:diamond"
                },
                "o": {
                    "tag": "forge:ender_pearls"
                }
            },
            "pattern": [
                "Co",
                "dr"
            ]
        }
    ],
    "xnet:advanced_connector_yellow": [
        {
            "key": {
                "C": {
                    "item": "xnet:connector_yellow"
                },
                "r": {
                    "item": "minecraft:redstone"
                },
                "d": {
                    "item": "minecraft:diamond"
                },
                "o": {
                    "tag": "forge:ender_pearls"
                }
            },
            "pattern": [
                "Co",
                "dr"
            ]
        },
        {
            "ingredients": [
                {
                    "tag": "forge:dyes/yellow"
                },
                {
                    "tag": "xnet:advanced_connectors"
                }
            ]
        }
    ],
    "xnet:antenna": [
        {
            "key": {
                "I": {
                    "item": "minecraft:iron_bars"
                },
                "i": {
                    "tag": "forge:ingots/iron"
                }
            },
            "pattern": [
                "IiI",
                "IiI",
                " i "
            ]
        }
    ],
    "xnet:antenna_base": [
        {
            "key": {
                "I": {
                    "item": "minecraft:iron_block"
                },
                "i": {
                    "tag": "forge:ingots/iron"
                }
            },
            "pattern": [
                " i ",
                " i ",
                "iIi"
            ]
        }
    ],
    "xnet:antenna_dish": [
        {
            "key": {
                "I": {
                    "item": "minecraft:iron_trapdoor"
                },
                "i": {
                    "tag": "forge:ingots/iron"
                },
                "o": {
                    "tag": "forge:ender_pearls"
                }
            },
            "pattern": [
                "III",
                "IoI",
                " i "
            ]
        }
    ],
    "xnet:connector_blue": [
        {
            "key": {
                "g": {
                    "tag": "forge:ingots/gold"
                },
                "1": {
                    "tag": "forge:dyes/blue"
                },
                "C": {
                    "tag": "forge:chests"
                },
                "r": {
                    "item": "minecraft:redstone"
                }
            },
            "pattern": [
                "1C1",
                "rgr",
                "1r1"
            ]
        },
        {
            "ingredients": [
                {
                    "tag": "forge:dyes/blue"
                },
                {
                    "tag": "xnet:connectors"
                }
            ]
        }
    ],
    "xnet:connector_green": [
        {
            "key": {
                "g": {
                    "tag": "forge:ingots/gold"
                },
                "1": {
                    "tag": "forge:dyes/green"
                },
                "C": {
                    "tag": "forge:chests"
                },
                "r": {
                    "item": "minecraft:redstone"
                }
            },
            "pattern": [
                "1C1",
                "rgr",
                "1r1"
            ]
        },
        {
            "ingredients": [
                {
                    "tag": "forge:dyes/green"
                },
                {
                    "tag": "xnet:connectors"
                }
            ]
        }
    ],
    "xnet:connector_red": [
        {
            "key": {
                "g": {
                    "tag": "forge:ingots/gold"
                },
                "1": {
                    "tag": "forge:dyes/red"
                },
                "C": {
                    "tag": "forge:chests"
                },
                "r": {
                    "item": "minecraft:redstone"
                }
            },
            "pattern": [
                "1C1",
                "rgr",
                "1r1"
            ]
        },
        {
            "ingredients": [
                {
                    "tag": "forge:dyes/red"
                },
                {
                    "tag": "xnet:connectors"
                }
            ]
        }
    ],
    "xnet:connector_routing": [
        {
            "key": {
                "g": {
                    "tag": "forge:nuggets/gold"
                },
                "C": {
                    "tag": "xnet:connectors"
                },
                "r": {
                    "item": "minecraft:redstone"
                }
            },
            "pattern": [
                "rrr",
                "gCg",
                "rrr"
            ]
        }
    ],
    "xnet:connector_upgrade": [
        {
            "key": {
                "p": {
                    "item": "minecraft:paper"
                },
                "r": {
                    "item": "minecraft:redstone"
                },
                "d": {
                    "item": "minecraft:diamond"
                },
                "o": {
                    "tag": "forge:ender_pearls"
                }
            },
            "pattern": [
                "po",
                "dr"
            ]
        }
    ],
    "xnet:connector_yellow": [
        {
            "key": {
                "g": {
                    "tag": "forge:ingots/gold"
                },
                "1": {
                    "tag": "forge:dyes/yellow"
                },
                "C": {
                    "tag": "forge:chests"
                },
                "r": {
                    "item": "minecraft:redstone"
                }
            },
            "pattern": [
                "1C1",
                "rgr",
                "1r1"
            ]
        },
        {
            "ingredients": [
                {
                    "tag": "forge:dyes/yellow"
                },
                {
                    "tag": "xnet:connectors"
                }
            ]
        }
    ],
    "xnet:controller": [
        {
            "key": {
                "I": {
                    "item": "minecraft:repeater"
                },
                "C": {
                    "item": "minecraft:comparator"
                },
                "g": {
                    "tag": "forge:ingots/gold"
                },
                "r": {
                    "item": "minecraft:redstone"
                },
                "F": {
                    "item": "rftoolsbase:machine_frame"
                },
                "i": {
                    "tag": "forge:ingots/iron"
                }
            },
            "pattern": [
                "ICI",
                "rFr",
                "igi"
            ]
        }
    ],
    "xnet:facade": [
        {
            "key": {
                "w": {
                    "tag": "minecraft:wool"
                },
                "p": {
                    "item": "minecraft:paper"
                },
                "G": {
                    "tag": "forge:glass"
                }
            },
            "pattern": [
                "pwp",
                "wGw",
                "pwp"
            ],
            "count": 16
        }
    ],
    "xnet:netcable_blue": [
        {
            "key": {
                "g": {
                    "tag": "forge:nuggets/gold"
                },
                "s": {
                    "item": "minecraft:string"
                },
                "1": {
                    "tag": "forge:dyes/blue"
                },
                "r": {
                    "item": "minecraft:redstone"
                }
            },
            "pattern": [
                "s1s",
                "rgr",
                "srs"
            ],
            "count": 16
        },
        {
            "ingredients": [
                {
                    "tag": "forge:dyes/blue"
                },
                {
                    "tag": "xnet:cables"
                }
            ]
        }
    ],
    "xnet:netcable_green": [
        {
            "key": {
                "g": {
                    "tag": "forge:nuggets/gold"
                },
                "s": {
                    "item": "minecraft:string"
                },
                "1": {
                    "tag": "forge:dyes/green"
                },
                "r": {
                    "item": "minecraft:redstone"
                }
            },
            "pattern": [
                "s1s",
                "rgr",
                "srs"
            ],
            "count": 16
        },
        {
            "ingredients": [
                {
                    "tag": "forge:dyes/green"
                },
                {
                    "tag": "xnet:cables"
                }
            ]
        }
    ],
    "xnet:netcable_red": [
        {
            "key": {
                "g": {
                    "tag": "forge:nuggets/gold"
                },
                "s": {
                    "item": "minecraft:string"
                },
                "1": {
                    "tag": "forge:dyes/red"
                },
                "r": {
                    "item": "minecraft:redstone"
                }
            },
            "pattern": [
                "s1s",
                "rgr",
                "srs"
            ],
            "count": 16
        },
        {
            "ingredients": [
                {
                    "tag": "forge:dyes/red"
                },
                {
                    "tag": "xnet:cables"
                }
            ]
        }
    ],
    "xnet:netcable_routing": [
        {
            "key": {
                "g": {
                    "tag": "forge:nuggets/gold"
                },
                "s": {
                    "item": "minecraft:string"
                },
                "1": {
                    "tag": "forge:dyes/black"
                },
                "r": {
                    "item": "minecraft:redstone"
                }
            },
            "pattern": [
                "s1s",
                "rgr",
                "srs"
            ],
            "count": 32
        }
    ],
    "xnet:netcable_yellow": [
        {
            "key": {
                "g": {
                    "tag": "forge:nuggets/gold"
                },
                "s": {
                    "item": "minecraft:string"
                },
                "1": {
                    "tag": "forge:dyes/yellow"
                },
                "r": {
                    "item": "minecraft:redstone"
                }
            },
            "pattern": [
                "s1s",
                "rgr",
                "srs"
            ],
            "count": 16
        },
        {
            "ingredients": [
                {
                    "tag": "forge:dyes/yellow"
                },
                {
                    "tag": "xnet:cables"
                }
            ]
        }
    ],
    "xnet:redstone_proxy_upd": [
        {
            "ingredients": [
                {
                    "item": "xnet:redstone_proxy"
                },
                {
                    "item": "minecraft:redstone_torch"
                }
            ]
        }
    ],
    "xnet:redstone_proxy": [
        {
            "key": {
                "r": {
                    "item": "minecraft:redstone"
                },
                "F": {
                    "item": "rftoolsbase:machine_frame"
                }
            },
            "pattern": [
                "rrr",
                "rFr",
                "rrr"
            ]
        }
    ],
    "xnet:router": [
        {
            "key": {
                "I": {
                    "item": "minecraft:powered_rail"
                },
                "C": {
                    "item": "minecraft:comparator"
                },
                "r": {
                    "item": "minecraft:redstone"
                },
                "F": {
                    "item": "rftoolsbase:machine_frame"
                },
                "i": {
                    "tag": "forge:ingots/iron"
                },
                "o": {
                    "tag": "forge:ender_pearls"
                }
            },
            "pattern": [
                "ICI",
                "rFr",
                "ioi"
            ]
        }
    ],
    "xnet:wireless_router": [
        {
            "key": {
                "C": {
                    "item": "minecraft:comparator"
                },
                "r": {
                    "item": "minecraft:redstone"
                },
                "F": {
                    "item": "rftoolsbase:machine_frame"
                },
                "o": {
                    "tag": "forge:ender_pearls"
                }
            },
            "pattern": [
                "oCo",
                "rFr",
                "oro"
            ]
        }
    ]
}